%!PS-Adobe-3.0 EPSF-3.0
%%Creator: cairo 1.16.0 (https://cairographics.org)
%%CreationDate: Thu Sep 19 06:52:20 2019
%%Pages: 1
%%DocumentData: Clean7Bit
%%LanguageLevel: 2
%%BoundingBox: 49 51 335 333
%%EndComments
%%BeginProlog
50 dict begin
/q { gsave } bind def
/Q { grestore } bind def
/cm { 6 array astore concat } bind def
/w { setlinewidth } bind def
/J { setlinecap } bind def
/j { setlinejoin } bind def
/M { setmiterlimit } bind def
/d { setdash } bind def
/m { moveto } bind def
/l { lineto } bind def
/c { curveto } bind def
/h { closepath } bind def
/re { exch dup neg 3 1 roll 5 3 roll moveto 0 rlineto
      0 exch rlineto 0 rlineto closepath } bind def
/S { stroke } bind def
/f { fill } bind def
/f* { eofill } bind def
/n { newpath } bind def
/W { clip } bind def
/W* { eoclip } bind def
/BT { } bind def
/ET { } bind def
/BDC { mark 3 1 roll /BDC pdfmark } bind def
/EMC { mark /EMC pdfmark } bind def
/cairo_store_point { /cairo_point_y exch def /cairo_point_x exch def } def
/Tj { show currentpoint cairo_store_point } bind def
/TJ {
  {
    dup
    type /stringtype eq
    { show } { -0.001 mul 0 cairo_font_matrix dtransform rmoveto } ifelse
  } forall
  currentpoint cairo_store_point
} bind def
/cairo_selectfont { cairo_font_matrix aload pop pop pop 0 0 6 array astore
    cairo_font exch selectfont cairo_point_x cairo_point_y moveto } bind def
/Tf { pop /cairo_font exch def /cairo_font_matrix where
      { pop cairo_selectfont } if } bind def
/Td { matrix translate cairo_font_matrix matrix concatmatrix dup
      /cairo_font_matrix exch def dup 4 get exch 5 get cairo_store_point
      /cairo_font where { pop cairo_selectfont } if } bind def
/Tm { 2 copy 8 2 roll 6 array astore /cairo_font_matrix exch def
      cairo_store_point /cairo_font where { pop cairo_selectfont } if } bind def
/g { setgray } bind def
/rg { setrgbcolor } bind def
/d1 { setcachedevice } bind def
/cairo_data_source {
  CairoDataIndex CairoData length lt
    { CairoData CairoDataIndex get /CairoDataIndex CairoDataIndex 1 add def }
    { () } ifelse
} def
/cairo_flush_ascii85_file { cairo_ascii85_file status { cairo_ascii85_file flushfile } if } def
/cairo_image { image cairo_flush_ascii85_file } def
/cairo_imagemask { imagemask cairo_flush_ascii85_file } def
%%EndProlog
%%BeginSetup
%%EndSetup
%%Page: 1 1
%%BeginPageSetup
%%PageBoundingBox: 49 51 335 333
%%EndPageSetup
q 49 51 286 282 rectclip
1 0 0 -1 0 384 cm q
0 g
270.141 102.777 m 234.848 102.777 206.141 131.488 206.141 166.777 c 206.141
 172.52 l 195.41 145.969 l 189.004 130.121 176.809 117.715 161.074 111.035
 c 145.336 104.359 127.941 104.207 112.09 110.613 c 79.371 123.836 63.512
 161.211 76.734 193.93 c 131.41 329.223 l 131.918 330.48 132.906 331.484
 134.156 332.016 c 134.797 332.285 135.477 332.422 136.156 332.422 c 136.809
 332.422 137.461 332.297 138.074 332.051 c 206.137 304.543 l 206.137 312.699
 l 206.137 315.527 208.43 317.82 211.258 317.82 c 329.02 317.82 l 331.844
 317.82 334.137 315.527 334.137 312.699 c 334.137 166.781 l 334.141 131.488
 305.43 102.777 270.141 102.777 c h
138.984 320.637 m 86.23 190.094 l 80.848 176.781 80.977 162.168 86.582 
148.949 c 92.191 135.73 102.613 125.484 115.93 120.105 c 129.242 114.723
 143.855 114.852 157.074 120.461 c 170.293 126.07 180.535 136.492 185.914
 149.805 c 206.141 199.848 l 206.141 254.84 l 144.547 279.734 l 141.926 
280.793 140.66 283.777 141.719 286.398 c 142.523 288.391 144.441 289.602
 146.465 289.602 c 147.105 289.602 147.754 289.48 148.383 289.227 c 206.141
 265.887 l 206.141 293.496 l h
323.898 307.578 m 216.379 307.578 l 216.379 199.645 l 216.434 199.207 216.438
 198.77 216.379 198.324 c 216.379 166.777 l 216.379 137.137 240.496 113.02
 270.141 113.02 c 299.781 113.02 323.898 137.137 323.898 166.777 c h
323.898 307.578 m f
136.578 178.027 m 135.516 175.406 132.535 174.145 129.91 175.199 c 106.176
 184.793 l 103.555 185.852 102.289 188.836 103.348 191.457 c 104.152 193.453
 106.07 194.66 108.098 194.66 c 108.734 194.66 109.387 194.539 110.012 194.289
 c 133.75 184.695 l 136.367 183.637 137.637 180.652 136.578 178.027 c h
136.578 178.027 m f
184.145 186.418 m 183.086 183.797 180.102 182.531 177.48 183.586 c 115.77
 208.527 l 113.148 209.586 111.883 212.57 112.941 215.195 c 113.746 217.188
 115.664 218.395 117.688 218.395 c 118.328 218.395 118.977 218.277 119.605
 218.023 c 181.316 193.082 l 183.938 192.023 185.203 189.039 184.145 186.418
 c h
184.145 186.418 m f
193.738 210.152 m 192.676 207.531 189.695 206.266 187.07 207.324 c 125.359
 232.262 l 122.738 233.32 121.473 236.305 122.531 238.93 c 123.34 240.922
 125.254 242.133 127.281 242.133 c 127.918 242.133 128.57 242.012 129.199
 241.758 c 190.906 216.816 l 193.531 215.758 194.797 212.773 193.738 210.152
 c h
193.738 210.152 m f
203.328 233.887 m 202.27 231.266 199.285 230 196.664 231.059 c 134.953 
255.996 l 132.332 257.059 131.066 260.039 132.125 262.664 c 132.93 264.656
 134.848 265.867 136.871 265.867 c 137.512 265.867 138.16 265.746 138.789
 265.492 c 200.5 240.555 l 203.121 239.492 204.387 236.508 203.328 233.887
 c h
203.328 233.887 m f
303.418 169.34 m 277.82 169.34 l 274.992 169.34 272.699 171.633 272.699
 174.457 c 272.699 177.285 274.992 179.578 277.82 179.578 c 303.418 179.578
 l 306.246 179.578 308.539 177.285 308.539 174.457 c 308.539 171.633 306.246
 169.34 303.418 169.34 c h
303.418 169.34 m f
303.418 194.938 m 236.859 194.938 l 234.031 194.938 231.738 197.23 231.738
 200.059 c 231.738 202.887 234.031 205.18 236.859 205.18 c 303.418 205.18
 l 306.246 205.18 308.539 202.887 308.539 200.059 c 308.539 197.23 306.246
 194.938 303.418 194.938 c h
303.418 194.938 m f
303.418 220.539 m 236.859 220.539 l 234.031 220.539 231.738 222.832 231.738
 225.66 c 231.738 228.488 234.031 230.777 236.859 230.777 c 303.418 230.777
 l 306.246 230.777 308.539 228.488 308.539 225.66 c 308.539 222.832 306.246
 220.539 303.418 220.539 c h
303.418 220.539 m f
303.418 246.141 m 236.859 246.141 l 234.031 246.141 231.738 248.43 231.738
 251.258 c 231.738 254.086 234.031 256.379 236.859 256.379 c 303.418 256.379
 l 306.246 256.379 308.539 254.086 308.539 251.258 c 308.539 248.43 306.246
 246.141 303.418 246.141 c h
303.418 246.141 m f
303.418 271.738 m 236.859 271.738 l 234.031 271.738 231.738 274.031 231.738
 276.859 c 231.738 279.688 234.031 281.98 236.859 281.98 c 303.418 281.98
 l 306.246 281.98 308.539 279.688 308.539 276.859 c 308.539 274.031 306.246
 271.738 303.418 271.738 c h
303.418 271.738 m f
272.699 92.539 m 275.527 92.539 277.82 90.246 277.82 87.418 c 277.82 56.699
 l 277.82 53.871 275.527 51.578 272.699 51.578 c 269.871 51.578 267.578 
53.871 267.578 56.699 c 267.578 87.418 l 267.578 90.246 269.871 92.539 272.699
 92.539 c h
272.699 92.539 m f
295.738 95.098 m 297.047 95.098 298.359 94.598 299.359 93.598 c 317.277
 75.68 l 319.277 73.68 319.277 70.438 317.277 68.438 c 315.281 66.441 312.035
 66.441 310.039 68.438 c 292.117 86.359 l 290.121 88.359 290.121 91.602 
292.117 93.598 c 293.117 94.598 294.43 95.098 295.738 95.098 c h
295.738 95.098 m f
246.039 93.598 m 247.039 94.598 248.348 95.098 249.66 95.098 c 250.969 
95.098 252.281 94.598 253.277 93.598 c 255.277 91.598 255.277 88.355 253.277
 86.359 c 235.359 68.438 l 233.359 66.441 230.117 66.441 228.117 68.438 
c 226.121 70.438 226.121 73.68 228.117 75.68 c h
246.039 93.598 m f
93.965 93.434 m 94.762 95.438 96.688 96.656 98.719 96.656 c 99.352 96.656
 99.992 96.539 100.617 96.293 c 103.242 95.246 104.523 92.266 103.473 89.641
 c 92.086 61.105 l 91.039 58.48 88.059 57.199 85.434 58.25 c 82.809 59.297
 81.527 62.277 82.578 64.902 c h
93.965 93.434 m f
119.047 90.078 m 119.703 90.363 120.391 90.496 121.062 90.496 c 123.047
 90.496 124.938 89.332 125.77 87.395 c 135.77 64.109 l 136.887 61.512 135.684
 58.5 133.086 57.383 c 130.488 56.27 127.477 57.469 126.359 60.07 c 116.359
 83.355 l 115.246 85.949 116.445 88.961 119.047 90.078 c h
119.047 90.078 m f
78.266 107.574 m 80.25 107.574 82.141 106.414 82.973 104.477 c 84.09 101.875
 82.887 98.863 80.289 97.75 c 57.004 87.746 l 54.398 86.625 51.395 87.832
 50.277 90.43 c 49.164 93.027 50.363 96.039 52.961 97.156 c 76.246 107.156
 l 76.906 107.441 77.594 107.574 78.266 107.574 c h
78.266 107.574 m f
Q Q
showpage
%%Trailer
end
%%EOF
