%!PS-Adobe-3.0 EPSF-3.0
%%Creator: cairo 1.16.0 (https://cairographics.org)
%%CreationDate: Thu Sep 19 06:52:21 2019
%%Pages: 1
%%DocumentData: Clean7Bit
%%LanguageLevel: 2
%%BoundingBox: 91 54 293 330
%%EndComments
%%BeginProlog
50 dict begin
/q { gsave } bind def
/Q { grestore } bind def
/cm { 6 array astore concat } bind def
/w { setlinewidth } bind def
/J { setlinecap } bind def
/j { setlinejoin } bind def
/M { setmiterlimit } bind def
/d { setdash } bind def
/m { moveto } bind def
/l { lineto } bind def
/c { curveto } bind def
/h { closepath } bind def
/re { exch dup neg 3 1 roll 5 3 roll moveto 0 rlineto
      0 exch rlineto 0 rlineto closepath } bind def
/S { stroke } bind def
/f { fill } bind def
/f* { eofill } bind def
/n { newpath } bind def
/W { clip } bind def
/W* { eoclip } bind def
/BT { } bind def
/ET { } bind def
/BDC { mark 3 1 roll /BDC pdfmark } bind def
/EMC { mark /EMC pdfmark } bind def
/cairo_store_point { /cairo_point_y exch def /cairo_point_x exch def } def
/Tj { show currentpoint cairo_store_point } bind def
/TJ {
  {
    dup
    type /stringtype eq
    { show } { -0.001 mul 0 cairo_font_matrix dtransform rmoveto } ifelse
  } forall
  currentpoint cairo_store_point
} bind def
/cairo_selectfont { cairo_font_matrix aload pop pop pop 0 0 6 array astore
    cairo_font exch selectfont cairo_point_x cairo_point_y moveto } bind def
/Tf { pop /cairo_font exch def /cairo_font_matrix where
      { pop cairo_selectfont } if } bind def
/Td { matrix translate cairo_font_matrix matrix concatmatrix dup
      /cairo_font_matrix exch def dup 4 get exch 5 get cairo_store_point
      /cairo_font where { pop cairo_selectfont } if } bind def
/Tm { 2 copy 8 2 roll 6 array astore /cairo_font_matrix exch def
      cairo_store_point /cairo_font where { pop cairo_selectfont } if } bind def
/g { setgray } bind def
/rg { setrgbcolor } bind def
/d1 { setcachedevice } bind def
/cairo_data_source {
  CairoDataIndex CairoData length lt
    { CairoData CairoDataIndex get /CairoDataIndex CairoDataIndex 1 add def }
    { () } ifelse
} def
/cairo_flush_ascii85_file { cairo_ascii85_file status { cairo_ascii85_file flushfile } if } def
/cairo_image { image cairo_flush_ascii85_file } def
/cairo_imagemask { imagemask cairo_flush_ascii85_file } def
%%EndProlog
%%BeginSetup
%%EndSetup
%%Page: 1 1
%%BeginPageSetup
%%PageBoundingBox: 91 54 293 330
%%EndPageSetup
q 91 54 202 276 rectclip
1 0 0 -1 0 384 cm q
0 g
259.402 256.496 m 258.684 255.977 241.621 243.809 225.855 248.734 c 217.504
 251.344 211.586 258.105 207.824 264.012 c 203.184 249.945 191.898 224.176
 168.898 212.129 c 137.07 195.461 96.391 212.199 94.672 212.918 c 92.41 
213.867 91.137 216.293 91.645 218.695 c 92.031 220.516 101.438 263.492 133.266
 280.164 c 143.773 285.668 155.238 287.527 165.957 287.527 c 178.695 287.527
 190.363 284.895 198.078 282.617 c 195.367 289.074 193.18 297.789 195.789
 306.141 c 200.715 321.902 220.438 329 221.273 329.293 c 221.832 329.488
 222.406 329.586 222.973 329.586 c 224.582 329.586 226.137 328.824 227.121
 327.469 c 227.641 326.75 239.812 309.688 234.887 293.922 c 234.324 292.129
 233.566 290.453 232.672 288.879 c 234.539 288.711 236.348 288.367 238.074
 287.828 c 253.84 282.902 260.938 263.18 261.23 262.344 c 261.98 260.207
 261.238 257.828 259.402 256.496 c h
138.016 271.09 m 115.887 259.5 105.895 231.559 102.789 220.852 c 113.363
 217.309 142.023 209.613 164.148 221.199 c 186.281 232.793 196.27 260.742
 199.379 271.449 c 188.82 275 160.211 282.719 138.016 271.09 c h
220.953 318.004 m 216.086 315.602 207.906 310.586 205.562 303.086 c 203.219
 295.59 207.078 286.812 209.711 282.07 c 214.582 284.484 222.785 289.531
 225.109 296.977 c 227.453 304.477 223.586 313.262 220.953 318.004 c h
235.02 278.055 m 231.914 279.023 228.254 279.004 224.137 277.996 c 223.59
 277.863 223.047 277.844 222.516 277.887 c 219.645 275.766 216.789 274.145
 214.469 272.984 c 217.039 268.062 221.914 260.691 228.91 258.508 c 236.41
 256.164 245.195 260.031 249.938 262.664 c 247.539 267.531 242.52 275.711
 235.02 278.055 c h
235.02 278.055 m f
140.773 222.918 m 138.094 223.824 136.656 226.73 137.562 229.406 c 138.707
 232.789 138.426 236.387 136.77 239.547 c 135.297 242.363 132.852 244.527
 129.879 245.641 c 127.234 246.637 125.895 249.59 126.891 252.238 c 127.664
 254.289 129.613 255.555 131.684 255.555 c 132.281 255.555 132.891 255.449
 133.484 255.227 c 138.812 253.223 143.199 249.344 145.844 244.297 c 148.809
 238.637 149.312 232.184 147.262 226.125 c 146.355 223.445 143.449 222.012
 140.773 222.918 c h
140.773 222.918 m f
123.773 226.559 m 121.484 225.359 118.656 226.242 117.457 228.531 c 116.258
 230.824 117.141 233.652 119.43 234.852 c 121.719 236.051 124.551 235.164
 125.75 232.875 c 126.945 230.586 126.062 227.758 123.773 226.559 c h
123.773 226.559 m f
292.176 59.355 m 291.945 56.91 290.012 54.973 287.57 54.734 c 285.715 54.555
 241.902 50.637 216.449 75.996 c 198.059 94.32 194.922 122.281 194.664 137.09
 c 189.316 132.566 181.66 127.863 172.91 127.848 c 172.895 127.848 172.883
 127.848 172.867 127.848 c 156.371 127.848 143.707 144.504 143.176 145.211
 c 141.816 147.027 141.812 149.516 143.164 151.336 c 143.695 152.047 156.32
 168.777 172.836 168.809 c 172.84 168.809 172.867 168.809 172.879 168.809
 c 174.746 168.809 176.562 168.586 178.316 168.207 c 177.918 170.039 177.695
 171.867 177.691 173.68 c 177.66 190.195 194.344 202.883 195.055 203.414
 c 195.965 204.094 197.043 204.434 198.125 204.434 c 199.199 204.434 200.273
 204.098 201.18 203.422 c 201.891 202.895 218.621 190.266 218.652 173.75
 c 218.668 165 213.992 157.328 209.488 151.965 c 224.297 151.758 252.266
 148.723 270.656 130.398 c 296.109 105.039 292.344 61.211 292.176 59.355
 c h
172.855 158.566 m 165.004 158.551 157.789 152.238 154.055 148.301 c 157.816
 144.387 165.078 138.086 172.867 138.086 c 172.895 138.086 l 180.754 138.102
 187.973 144.426 191.707 148.359 c 187.961 152.281 180.73 158.566 172.883
 158.566 c 172.875 158.566 172.867 158.566 172.855 158.566 c h
198.148 192.535 m 194.227 188.77 187.918 181.496 187.934 173.695 c 187.938
 170.098 189.297 166.234 191.965 162.215 c 192.133 161.957 192.266 161.691
 192.383 161.418 c 195.031 159.43 197.254 157.352 198.941 155.605 c 202.871
 159.516 208.422 166.352 208.41 173.73 c 208.398 181.586 202.082 188.801
 198.148 192.535 c h
263.43 123.145 m 245.73 140.781 216.07 141.926 204.93 141.68 c 204.707 
130.543 205.93 100.938 223.676 83.25 c 241.375 65.621 271.023 64.469 282.172
 64.719 c 282.379 75.867 281.125 105.516 263.43 123.145 c h
263.43 123.145 m f
263.578 95.324 m 260.012 95.398 256.66 94.055 254.141 91.527 c 251.898 
89.277 250.566 86.293 250.395 83.129 c 250.238 80.305 247.824 78.145 245
 78.297 c 242.176 78.453 240.012 80.867 240.168 83.691 c 240.484 89.371 
242.867 94.723 246.891 98.758 c 251.277 103.164 257.082 105.57 263.281 105.57
 c 263.453 105.57 263.625 105.57 263.797 105.566 c 266.625 105.504 268.867
 103.164 268.805 100.336 c 268.746 97.508 266.398 95.246 263.578 95.324 
c h
263.578 95.324 m f
263.824 76.391 m 261.992 78.219 261.988 81.18 263.812 83.012 c 265.637 
84.844 268.602 84.848 270.434 83.023 c 272.266 81.199 272.27 78.234 270.445
 76.402 c 268.621 74.574 265.656 74.566 263.824 76.391 c h
263.824 76.391 m f
Q Q
showpage
%%Trailer
end
%%EOF
