%!PS-Adobe-3.0 EPSF-3.0
%%Creator: cairo 1.16.0 (https://cairographics.org)
%%CreationDate: Thu Sep 19 06:52:21 2019
%%Pages: 1
%%DocumentData: Clean7Bit
%%LanguageLevel: 2
%%BoundingBox: 45 76 339 308
%%EndComments
%%BeginProlog
50 dict begin
/q { gsave } bind def
/Q { grestore } bind def
/cm { 6 array astore concat } bind def
/w { setlinewidth } bind def
/J { setlinecap } bind def
/j { setlinejoin } bind def
/M { setmiterlimit } bind def
/d { setdash } bind def
/m { moveto } bind def
/l { lineto } bind def
/c { curveto } bind def
/h { closepath } bind def
/re { exch dup neg 3 1 roll 5 3 roll moveto 0 rlineto
      0 exch rlineto 0 rlineto closepath } bind def
/S { stroke } bind def
/f { fill } bind def
/f* { eofill } bind def
/n { newpath } bind def
/W { clip } bind def
/W* { eoclip } bind def
/BT { } bind def
/ET { } bind def
/BDC { mark 3 1 roll /BDC pdfmark } bind def
/EMC { mark /EMC pdfmark } bind def
/cairo_store_point { /cairo_point_y exch def /cairo_point_x exch def } def
/Tj { show currentpoint cairo_store_point } bind def
/TJ {
  {
    dup
    type /stringtype eq
    { show } { -0.001 mul 0 cairo_font_matrix dtransform rmoveto } ifelse
  } forall
  currentpoint cairo_store_point
} bind def
/cairo_selectfont { cairo_font_matrix aload pop pop pop 0 0 6 array astore
    cairo_font exch selectfont cairo_point_x cairo_point_y moveto } bind def
/Tf { pop /cairo_font exch def /cairo_font_matrix where
      { pop cairo_selectfont } if } bind def
/Td { matrix translate cairo_font_matrix matrix concatmatrix dup
      /cairo_font_matrix exch def dup 4 get exch 5 get cairo_store_point
      /cairo_font where { pop cairo_selectfont } if } bind def
/Tm { 2 copy 8 2 roll 6 array astore /cairo_font_matrix exch def
      cairo_store_point /cairo_font where { pop cairo_selectfont } if } bind def
/g { setgray } bind def
/rg { setrgbcolor } bind def
/d1 { setcachedevice } bind def
/cairo_data_source {
  CairoDataIndex CairoData length lt
    { CairoData CairoDataIndex get /CairoDataIndex CairoDataIndex 1 add def }
    { () } ifelse
} def
/cairo_flush_ascii85_file { cairo_ascii85_file status { cairo_ascii85_file flushfile } if } def
/cairo_image { image cairo_flush_ascii85_file } def
/cairo_imagemask { imagemask cairo_flush_ascii85_file } def
%%EndProlog
%%BeginSetup
%%EndSetup
%%Page: 1 1
%%BeginPageSetup
%%PageBoundingBox: 45 76 339 308
%%EndPageSetup
q 45 76 294 232 rectclip
1 0 0 -1 0 384 cm q
0 g
338.145 274.137 m 329.539 240.859 298.684 217.621 263.109 217.621 c 223.57
 217.621 l 191.68 217.621 163.379 236.07 151.473 264.625 c 148.344 272.133
 148.867 280.555 152.902 287.734 c 157.16 295.293 164.598 300.387 173.309
 301.707 c 197.355 305.359 221.137 307.18 244.52 307.18 c 270.438 307.18
 295.859 304.941 320.578 300.461 c 326.734 299.344 332.164 295.738 335.473
 290.57 c 338.652 285.602 339.598 279.766 338.145 274.137 c h
326.848 285.051 m 325.066 287.828 322.117 289.773 318.754 290.383 c 272.844
 298.703 224.426 299.105 174.844 291.586 c 169.27 290.738 164.523 287.504
 161.828 282.707 c 159.344 278.297 159.016 273.141 160.926 268.566 c 165.426
 257.77 172.648 248.641 181.668 241.781 c 186.371 244.941 199.641 255.496
 199.641 273.938 c 199.641 276.766 201.934 279.059 204.762 279.059 c 207.586
 279.059 209.879 276.766 209.879 273.938 c 209.879 254.25 198.312 241.824
 190.918 235.887 c 200.68 230.723 211.84 227.859 223.566 227.859 c 231.727
 227.859 l 231.98 228.008 232.25 228.148 232.535 228.258 c 233.492 228.613
 255.961 237.402 255.961 273.938 c 255.961 276.766 258.25 279.059 261.078
 279.059 c 263.906 279.059 266.199 276.766 266.199 273.938 c 266.199 249.949
 257.617 235.828 249.594 227.859 c 263.105 227.859 l 269.098 227.859 274.934
 228.621 280.508 230.051 c 280.871 230.488 281.297 230.883 281.816 231.191
 c 282.062 231.34 306.473 246.148 302.141 267.812 c 301.586 270.586 303.383
 273.285 306.156 273.84 c 306.496 273.906 306.832 273.938 307.164 273.938
 c 309.555 273.938 311.695 272.258 312.18 269.824 c 314.121 260.121 312.043
 251.672 308.398 244.688 c 317.898 253.02 324.945 264.012 328.227 276.699
 c 328.965 279.543 328.473 282.508 326.848 285.051 c h
326.848 285.051 m f
206.273 194.746 m 210.492 190.301 212.719 184.242 212.383 178.113 c 212.051
 172 209.309 166.469 204.668 162.547 c 177.516 139.602 138.395 138.121 109.527
 158.949 c 77.465 182.09 l 51.582 200.77 39.824 232.855 47.516 263.832 c
 49.566 272.09 55.223 278.875 63.039 282.453 c 66.828 284.188 70.855 285.055
 74.871 285.055 c 79.223 285.055 83.559 284.039 87.559 282.012 c 133.367
 258.812 173.309 229.453 206.273 194.746 c h
82.934 272.879 m 78.039 275.355 72.34 275.453 67.301 273.145 c 62.336 270.871
 58.746 266.578 57.453 261.363 c 54.5 249.465 54.855 237.375 58.113 226.188
 c 64.207 226.066 80.52 227.211 91.02 241.762 c 92.02 243.148 93.586 243.887
 95.176 243.887 c 96.215 243.887 97.262 243.57 98.168 242.918 c 100.461 
241.262 100.977 238.062 99.324 235.77 c 87.934 219.988 71.523 216.57 62 
216.027 c 66.77 206.055 74.027 197.199 83.457 190.395 c 90.074 185.617 l
 90.371 185.59 90.668 185.547 90.961 185.469 c 91.949 185.195 115.309 179.176
 136.691 208.805 c 137.691 210.191 139.258 210.93 140.848 210.93 c 141.883
 210.93 142.93 210.613 143.836 209.961 c 146.133 208.305 146.648 205.105
 144.992 202.812 c 130.953 183.359 115.734 176.934 104.566 175.16 c 115.52
 167.254 l 120.414 163.727 125.648 160.945 131.074 158.887 c 131.582 158.996
 132.109 159.059 132.652 159.008 c 132.938 158.98 161.34 156.605 170.555
 176.816 c 171.414 178.699 173.27 179.812 175.215 179.812 c 175.926 179.812
 176.648 179.664 177.336 179.352 c 179.91 178.176 181.043 175.141 179.871
 172.566 c 176.023 164.125 169.949 158.637 163.398 155.074 c 175.852 156.684
 187.922 161.801 198.062 170.371 c 200.527 172.453 201.98 175.402 202.16
 178.676 c 202.344 182 201.137 185.285 198.848 187.691 c 166.691 221.547
 127.691 250.211 82.934 272.879 c h
82.934 272.879 m f
222.039 124.723 m 223.039 125.723 224.352 126.223 225.66 126.223 c 226.973
 126.223 228.281 125.723 229.281 124.723 c 238.438 115.57 l 247.59 124.723
 l 248.59 125.723 249.902 126.223 251.211 126.223 c 252.523 126.223 253.832
 125.723 254.832 124.723 c 256.832 122.723 256.832 119.48 254.832 117.48
 c 245.68 108.328 l 254.832 99.172 l 256.832 97.172 256.832 93.93 254.832
 91.934 c 252.836 89.934 249.594 89.934 247.594 91.934 c 238.438 101.086
 l 229.285 91.934 l 227.285 89.934 224.043 89.934 222.043 91.934 c 220.043
 93.93 220.043 97.172 222.043 99.172 c 231.199 108.328 l 222.043 117.48 
l 220.039 119.48 220.039 122.723 222.039 124.723 c h
222.039 124.723 m f
286.684 122.898 m 279.004 122.898 l 276.176 122.898 273.883 125.191 273.883
 128.02 c 273.883 130.848 276.176 133.141 279.004 133.141 c 286.684 133.141
 l 296.566 133.141 304.602 125.102 304.602 115.219 c 304.602 105.336 296.566
 97.301 286.684 97.301 c 284.121 97.301 l 284.121 87.059 l 296.07 87.059
 l 298.898 87.059 301.188 84.766 301.188 81.938 c 301.188 79.113 298.898
 76.82 296.07 76.82 c 279.004 76.82 l 276.176 76.82 273.883 79.113 273.883
 81.938 c 273.883 102.418 l 273.883 105.246 276.176 107.539 279.004 107.539
 c 286.684 107.539 l 290.918 107.539 294.363 110.984 294.363 115.219 c 294.363
 119.453 290.918 122.898 286.684 122.898 c h
286.684 122.898 m f
Q Q
showpage
%%Trailer
end
%%EOF
