%!PS-Adobe-3.0 EPSF-3.0
%%Creator: cairo 1.16.0 (https://cairographics.org)
%%CreationDate: Thu Sep 19 06:52:21 2019
%%Pages: 1
%%DocumentData: Clean7Bit
%%LanguageLevel: 2
%%BoundingBox: 34 56 350 328
%%EndComments
%%BeginProlog
50 dict begin
/q { gsave } bind def
/Q { grestore } bind def
/cm { 6 array astore concat } bind def
/w { setlinewidth } bind def
/J { setlinecap } bind def
/j { setlinejoin } bind def
/M { setmiterlimit } bind def
/d { setdash } bind def
/m { moveto } bind def
/l { lineto } bind def
/c { curveto } bind def
/h { closepath } bind def
/re { exch dup neg 3 1 roll 5 3 roll moveto 0 rlineto
      0 exch rlineto 0 rlineto closepath } bind def
/S { stroke } bind def
/f { fill } bind def
/f* { eofill } bind def
/n { newpath } bind def
/W { clip } bind def
/W* { eoclip } bind def
/BT { } bind def
/ET { } bind def
/BDC { mark 3 1 roll /BDC pdfmark } bind def
/EMC { mark /EMC pdfmark } bind def
/cairo_store_point { /cairo_point_y exch def /cairo_point_x exch def } def
/Tj { show currentpoint cairo_store_point } bind def
/TJ {
  {
    dup
    type /stringtype eq
    { show } { -0.001 mul 0 cairo_font_matrix dtransform rmoveto } ifelse
  } forall
  currentpoint cairo_store_point
} bind def
/cairo_selectfont { cairo_font_matrix aload pop pop pop 0 0 6 array astore
    cairo_font exch selectfont cairo_point_x cairo_point_y moveto } bind def
/Tf { pop /cairo_font exch def /cairo_font_matrix where
      { pop cairo_selectfont } if } bind def
/Td { matrix translate cairo_font_matrix matrix concatmatrix dup
      /cairo_font_matrix exch def dup 4 get exch 5 get cairo_store_point
      /cairo_font where { pop cairo_selectfont } if } bind def
/Tm { 2 copy 8 2 roll 6 array astore /cairo_font_matrix exch def
      cairo_store_point /cairo_font where { pop cairo_selectfont } if } bind def
/g { setgray } bind def
/rg { setrgbcolor } bind def
/d1 { setcachedevice } bind def
/cairo_data_source {
  CairoDataIndex CairoData length lt
    { CairoData CairoDataIndex get /CairoDataIndex CairoDataIndex 1 add def }
    { () } ifelse
} def
/cairo_flush_ascii85_file { cairo_ascii85_file status { cairo_ascii85_file flushfile } if } def
/cairo_image { image cairo_flush_ascii85_file } def
/cairo_imagemask { imagemask cairo_flush_ascii85_file } def
%%EndProlog
%%BeginSetup
%%EndSetup
%%Page: 1 1
%%BeginPageSetup
%%PageBoundingBox: 34 56 350 328
%%EndPageSetup
q 34 56 316 272 rectclip
1 0 0 -1 0 384 cm q
0 g
349.988 129.785 m 349.988 123.902 347.531 118.387 343.406 114.445 c 345.504
 111.484 346.668 107.918 346.668 104.148 c 346.668 101.152 345.902 98.219
 344.465 95.602 c 345.902 92.988 346.668 90.059 346.668 87.059 c 346.668
 80.539 343.039 74.59 337.48 71.465 c 337.262 67.703 335.715 64.082 333.102
 61.324 c 330.078 58.133 325.82 56.301 321.418 56.301 c 313.461 56.301 306.633
 62.164 305.539 69.945 c 295.707 139.633 242.285 159.879 219.773 165.348
 c 219.566 165.398 219.375 165.484 219.18 165.559 c 218.258 164.789 l 213.637
 160.918 207.82 158.785 201.879 158.785 c 181.898 158.785 l 175.953 158.785
 170.137 160.918 165.516 164.785 c 164.703 165.465 l 141.328 159.887 88.293
 139.625 78.465 69.945 c 77.367 62.168 70.539 56.301 62.582 56.301 c 58.184
 56.301 53.926 58.133 50.902 61.328 c 48.289 64.082 46.742 67.703 46.52 
71.465 c 40.965 74.59 37.336 80.539 37.336 87.059 c 37.336 90.059 38.102
 92.988 39.539 95.605 c 38.102 98.223 37.336 101.152 37.336 104.152 c 37.336
 107.922 38.496 111.484 40.598 114.445 c 36.473 118.391 34.016 123.906 34.016
 129.785 c 34.016 134.496 35.559 138.957 38.359 142.605 c 35.559 146.254
 34.016 150.715 34.016 155.426 c 34.016 162.887 37.918 169.609 44.016 173.406
 c 43.055 175.832 42.562 178.41 42.562 181.062 c 42.562 191.543 50.188 200.277
 60.184 202.008 c 59.832 203.535 59.652 205.105 59.652 206.699 c 59.652 
218.418 69.188 227.957 80.91 227.957 c 83.559 227.957 86.137 227.461 88.562
 226.5 c 92.359 232.598 99.086 236.5 106.543 236.5 c 111.492 236.5 116.172
 234.816 119.957 231.719 c 127.281 231.957 134.16 230.988 140.516 228.867
 c 140.516 237.695 l 140.516 246.344 145.207 254.168 152.762 258.121 c 155.547
 259.578 l 155.547 292.496 l 155.547 311.906 171.699 327.699 191.551 327.699
 c 211.402 327.699 227.555 311.906 227.555 292.496 c 227.555 259.93 l 231.012
 258.121 l 238.566 254.168 243.258 246.344 243.258 237.695 c 243.258 228.789
 l 249.672 230.961 256.629 231.957 264.047 231.719 c 267.828 234.816 272.508
 236.5 277.457 236.5 c 284.918 236.5 291.645 232.598 295.441 226.5 c 297.867
 227.461 300.445 227.957 303.094 227.957 c 314.816 227.957 324.352 218.418
 324.352 206.699 c 324.352 205.105 324.172 203.535 323.82 202.008 c 333.816
 200.277 341.445 191.543 341.445 181.062 c 341.445 178.41 340.949 175.832
 339.988 173.406 c 346.086 169.609 349.988 162.887 349.988 155.426 c 349.988
 150.715 348.449 146.254 345.645 142.605 c 348.445 138.953 349.988 134.496
 349.988 129.785 c h
140.516 198.098 m 140.516 217.918 l 133.957 220.727 126.531 221.906 118.406
 221.391 c 116.902 221.316 115.457 221.855 114.414 222.926 c 112.316 225.074
 109.523 226.258 106.543 226.258 c 101.539 226.258 97.172 222.844 95.922
 217.957 c 95.492 216.273 94.23 214.918 92.582 214.367 c 90.93 213.816 89.109
 214.145 87.754 215.234 c 86.348 216.367 84.02 217.715 80.906 217.715 c 
74.832 217.715 69.891 212.773 69.891 206.695 c 69.891 204.328 70.684 202.035
 72.184 200.066 c 73.504 198.336 73.613 195.996 72.41 194.18 c 72.332 194.051
 72.254 193.926 72.172 193.797 c 70.965 191.961 68.719 191.105 66.594 191.66
 c 65.512 191.945 64.629 192.074 63.816 192.074 c 57.742 192.074 52.801 
187.133 52.801 181.059 c 52.801 177.945 54.148 175.617 55.277 174.211 c 
56.367 172.852 56.695 171.035 56.145 169.383 c 55.594 167.734 54.242 166.473
 52.555 166.043 c 47.668 164.793 44.254 160.426 44.254 155.422 c 44.254 
151.992 45.859 148.805 48.66 146.684 c 49.938 145.715 50.688 144.207 50.688
 142.605 c 50.688 141.004 49.938 139.492 48.66 138.523 c 45.859 136.398 
44.254 133.215 44.254 129.785 c 44.254 125.473 46.812 121.539 50.773 119.758
 c 52.508 118.977 53.668 117.297 53.785 115.398 c 53.898 113.496 52.949 
111.691 51.324 110.707 c 48.977 109.285 47.574 106.836 47.574 104.148 c 
47.574 101.762 48.668 100.047 49.586 99.027 c 51.34 97.082 51.34 94.121 
49.582 92.176 c 48.668 91.156 47.574 89.445 47.574 87.059 c 47.574 83.633
 49.812 80.684 53.148 79.715 c 55.438 79.055 56.969 76.898 56.84 74.52 c
 56.738 72.711 l 56.652 71.09 57.219 69.547 58.336 68.367 c 59.449 67.188
 60.957 66.539 62.582 66.539 c 65.469 66.539 67.938 68.617 68.324 71.375
 c 78.113 140.77 127.293 165.168 155.121 173.484 c 149.906 177.852 l 143.938
 182.852 140.516 190.23 140.516 198.098 c h
233.016 237.695 m 233.016 241.996 230.949 245.906 227.555 248.254 c 227.555
 211.812 l 227.555 208.984 225.262 206.691 222.434 206.691 c 219.605 206.691
 217.312 208.984 217.312 211.812 c 217.312 292.496 l 217.312 306.262 205.754
 317.461 191.547 317.461 c 177.34 317.461 165.781 306.262 165.781 292.496
 c 165.781 213.18 l 165.781 210.352 163.492 208.059 160.664 208.059 c 157.836
 208.059 155.543 210.352 155.543 213.18 c 155.543 247.738 l 152.555 245.355
 150.754 241.699 150.754 237.695 c 150.754 198.098 l 150.754 193.27 152.84
 188.75 156.477 185.707 c 172.086 172.637 l 174.867 170.309 178.352 169.023
 181.895 169.023 c 201.875 169.023 l 205.418 169.023 208.898 170.309 211.684
 172.641 c 227.289 185.707 l 230.93 188.75 233.016 193.27 233.016 198.098
 c h
335.34 146.684 m 338.141 148.809 339.746 151.992 339.746 155.422 c 339.746
 160.426 336.336 164.793 331.449 166.043 c 329.762 166.473 328.41 167.734
 327.859 169.383 c 327.305 171.035 327.633 172.855 328.723 174.211 c 329.855
 175.617 331.203 177.945 331.203 181.059 c 331.203 187.133 326.262 192.074
 320.184 192.074 c 319.371 192.074 318.488 191.941 317.406 191.66 c 315.281
 191.105 313.039 191.961 311.828 193.797 c 311.75 193.922 311.672 194.047
 311.625 194.137 c 310.418 195.953 310.496 198.332 311.816 200.066 c 313.32
 202.035 314.113 204.328 314.113 206.695 c 314.113 212.773 309.168 217.715
 303.094 217.715 c 299.984 217.715 297.652 216.367 296.246 215.234 c 294.891
 214.145 293.074 213.82 291.422 214.367 c 289.77 214.918 288.512 216.27 
288.078 217.957 c 286.832 222.844 282.461 226.258 277.457 226.258 c 274.48
 226.258 271.684 225.074 269.586 222.926 c 268.543 221.855 267.078 221.312
 265.598 221.391 c 257.395 221.914 249.895 220.727 243.301 217.859 c 243.285
 217.855 243.273 217.852 243.258 217.848 c 243.258 198.098 l 243.258 190.23
 239.836 182.852 233.867 177.855 c 228.707 173.535 l 255.773 165.453 305.832
 141.188 315.68 71.375 c 316.066 68.621 318.535 66.539 321.422 66.539 c 
323.047 66.539 324.555 67.191 325.672 68.367 c 326.785 69.547 327.352 71.09
 327.266 72.711 c 327.168 74.52 l 327.035 76.898 328.566 79.055 330.855 
79.719 c 334.191 80.684 336.43 83.633 336.43 87.059 c 336.43 89.445 335.34
 91.16 334.422 92.176 c 332.664 94.125 332.664 97.082 334.418 99.031 c 335.336
 100.047 336.43 101.766 336.43 104.148 c 336.43 106.836 335.031 109.289 
332.68 110.707 c 331.055 111.691 330.105 113.5 330.219 115.398 c 330.336
 117.297 331.496 118.977 333.23 119.758 c 337.191 121.539 339.75 125.477
 339.75 129.785 c 339.75 133.215 338.145 136.402 335.344 138.527 c 334.066
 139.492 333.316 141.004 333.316 142.605 c 333.316 144.207 334.066 145.715
 335.34 146.684 c h
335.34 146.684 m f
305.961 142.164 m 303.539 140.715 300.391 141.5 298.938 143.926 c 286.105
 165.332 266.438 174.414 255.855 177.926 c 253.172 178.812 251.719 181.711
 252.609 184.398 c 253.32 186.547 255.32 187.906 257.469 187.906 c 258 187.906
 258.547 187.82 259.082 187.645 c 271.008 183.688 293.188 173.43 307.723
 149.188 c 309.172 146.766 308.387 143.621 305.961 142.164 c h
305.961 142.164 m f
189.73 154.848 m 204.754 154.848 216.977 142.625 216.977 127.602 c 216.977
 112.578 204.754 100.355 189.73 100.355 c 174.707 100.355 162.484 112.578
 162.484 127.602 c 162.484 142.625 174.707 154.848 189.73 154.848 c h
189.73 110.598 m 199.109 110.598 206.738 118.227 206.738 127.602 c 206.738
 136.977 199.109 144.605 189.73 144.605 c 180.352 144.605 172.723 136.977
 172.723 127.602 c 172.723 118.227 180.352 110.598 189.73 110.598 c h
189.73 110.598 m f
127.574 177.926 m 116.992 174.414 97.324 165.328 84.492 143.926 c 83.035
 141.496 79.891 140.711 77.469 142.164 c 75.043 143.621 74.254 146.766 75.707
 149.188 c 90.242 173.43 112.422 183.688 124.348 187.645 c 124.883 187.82
 125.426 187.906 125.961 187.906 c 128.109 187.906 130.109 186.547 130.82
 184.398 c 131.711 181.711 130.258 178.816 127.574 177.926 c h
127.574 177.926 m f
191.715 92.258 m 204.457 92.258 217.316 88.301 217.316 79.457 c 217.316
 70.617 204.457 66.66 191.715 66.66 c 178.973 66.66 166.113 70.617 166.113
 79.457 c 166.113 88.301 178.973 92.258 191.715 92.258 c h
191.715 76.898 m 198.594 76.898 203.547 78.273 205.914 79.457 c 203.547
 80.641 198.594 82.02 191.715 82.02 c 184.836 82.02 179.883 80.641 177.516
 79.457 c 179.883 78.273 184.836 76.898 191.715 76.898 c h
191.715 76.898 m f
Q Q
showpage
%%Trailer
end
%%EOF
