%!PS-Adobe-3.0 EPSF-3.0
%%Creator: cairo 1.16.0 (https://cairographics.org)
%%CreationDate: Thu Sep 19 06:52:22 2019
%%Pages: 1
%%DocumentData: Clean7Bit
%%LanguageLevel: 2
%%BoundingBox: 53 48 331 336
%%EndComments
%%BeginProlog
50 dict begin
/q { gsave } bind def
/Q { grestore } bind def
/cm { 6 array astore concat } bind def
/w { setlinewidth } bind def
/J { setlinecap } bind def
/j { setlinejoin } bind def
/M { setmiterlimit } bind def
/d { setdash } bind def
/m { moveto } bind def
/l { lineto } bind def
/c { curveto } bind def
/h { closepath } bind def
/re { exch dup neg 3 1 roll 5 3 roll moveto 0 rlineto
      0 exch rlineto 0 rlineto closepath } bind def
/S { stroke } bind def
/f { fill } bind def
/f* { eofill } bind def
/n { newpath } bind def
/W { clip } bind def
/W* { eoclip } bind def
/BT { } bind def
/ET { } bind def
/BDC { mark 3 1 roll /BDC pdfmark } bind def
/EMC { mark /EMC pdfmark } bind def
/cairo_store_point { /cairo_point_y exch def /cairo_point_x exch def } def
/Tj { show currentpoint cairo_store_point } bind def
/TJ {
  {
    dup
    type /stringtype eq
    { show } { -0.001 mul 0 cairo_font_matrix dtransform rmoveto } ifelse
  } forall
  currentpoint cairo_store_point
} bind def
/cairo_selectfont { cairo_font_matrix aload pop pop pop 0 0 6 array astore
    cairo_font exch selectfont cairo_point_x cairo_point_y moveto } bind def
/Tf { pop /cairo_font exch def /cairo_font_matrix where
      { pop cairo_selectfont } if } bind def
/Td { matrix translate cairo_font_matrix matrix concatmatrix dup
      /cairo_font_matrix exch def dup 4 get exch 5 get cairo_store_point
      /cairo_font where { pop cairo_selectfont } if } bind def
/Tm { 2 copy 8 2 roll 6 array astore /cairo_font_matrix exch def
      cairo_store_point /cairo_font where { pop cairo_selectfont } if } bind def
/g { setgray } bind def
/rg { setrgbcolor } bind def
/d1 { setcachedevice } bind def
/cairo_data_source {
  CairoDataIndex CairoData length lt
    { CairoData CairoDataIndex get /CairoDataIndex CairoDataIndex 1 add def }
    { () } ifelse
} def
/cairo_flush_ascii85_file { cairo_ascii85_file status { cairo_ascii85_file flushfile } if } def
/cairo_image { image cairo_flush_ascii85_file } def
/cairo_imagemask { imagemask cairo_flush_ascii85_file } def
%%EndProlog
%%BeginSetup
%%EndSetup
%%Page: 1 1
%%BeginPageSetup
%%PageBoundingBox: 53 48 331 336
%%EndPageSetup
q 53 48 278 288 rectclip
1 0 0 -1 0 384 cm q
0 g
327.965 177.918 m 321.461 173.586 l 295.551 156.309 260.754 159.754 238.734
 181.773 c 233.477 187.035 l 230.848 189.664 227.832 191.91 224.57 193.699
 c 193.746 162.379 154.977 92.887 154.586 92.184 c 153.867 90.891 152.625
 89.973 151.18 89.664 c 149.734 89.352 148.223 89.688 147.039 90.574 c 128.195
 104.711 122.227 121.5 120.699 133.93 c 112.059 123.371 106.723 115.809 
106.574 115.602 c 105.562 114.156 103.891 113.324 102.117 113.426 c 100.355
 113.516 98.762 114.508 97.906 116.051 c 76.352 154.852 82.098 186.961 90.715
 207.066 c 95.09 217.273 100.57 225.43 105.215 231.262 c 81.531 226.051 
62.566 208.852 62.348 208.652 c 60.707 207.137 58.27 206.863 56.332 207.973
 c 54.395 209.086 53.398 211.324 53.875 213.508 c 60.301 242.988 75.48 268.531
 98.98 289.422 c 133.344 319.965 166.734 335.758 196.551 335.758 c 201.699
 335.758 206.75 335.285 211.672 334.336 c 238.988 329.078 262.098 308.961
 278.496 276.164 c 298.898 235.363 329.199 185.336 329.504 184.836 c 330.926
 182.488 330.246 179.438 327.965 177.918 c h
130.516 143 m 130.172 133.891 132.223 117.133 148.645 102.477 c 158.102
 118.988 187.785 169.289 214.121 197.59 c 214.09 197.613 214.07 197.641 
214.043 197.664 c 205.32 199.602 196.23 198.594 188.566 194.742 c 167.484
 184.152 146.25 163.305 130.672 145.668 c h
269.336 271.582 m 254.203 301.848 234.148 319.578 209.734 324.281 c 179.543
 330.094 143.609 315.391 105.781 281.77 c 87.867 265.848 75.164 247.047 
67.887 225.73 c 79.465 233.438 97.918 242.984 118.293 242.984 c 120.43 242.984
 122.34 241.648 123.086 239.645 c 123.832 237.641 123.25 235.379 121.629
 233.984 c 121.496 233.867 108.281 222.316 99.961 202.648 c 89.875 178.812
 90.953 153.812 103.133 128.234 c 115.539 144.695 149.223 186.441 183.969
 203.895 c 195.242 209.559 208.852 210.426 221.305 206.27 c 228.582 203.844
 235.293 199.695 240.715 194.273 c 245.973 189.016 l 264.559 170.43 293.914
 167.523 315.781 182.102 c 318.219 183.73 l 310.453 196.715 286.461 237.328
 269.336 271.582 c h
269.336 271.582 m f
281.371 188.531 m 278.289 188.531 275.793 191.031 275.793 194.113 c 275.793
 197.191 278.289 199.691 281.371 199.691 c 284.453 199.691 286.949 197.191
 286.949 194.113 c 286.949 191.031 284.453 188.531 281.371 188.531 c h
281.371 188.531 m f
220.711 154.918 m 222.488 155.711 224.398 156.113 226.387 156.113 c 240.832
 156.113 l 242.859 156.113 244.875 155.68 246.664 154.863 c 261.402 148.105
 270.727 138.453 274.379 126.168 c 280.496 105.574 268.055 85.527 267.52
 84.684 c 266.492 83.055 264.641 82.148 262.727 82.32 c 261.652 82.418 260.664
 82.848 259.871 83.52 c 257.426 66.227 242.922 53.746 233.832 48.852 c 232.617
 48.199 231.184 48.066 229.863 48.48 c 228.547 48.895 227.449 49.828 226.828
 51.062 c 226.781 51.156 221.957 60.633 199.816 96.055 c 192.777 107.316
 190.754 118.074 193.801 128.031 c 198.562 143.609 214.207 152.023 220.711
 154.918 c h
239.012 145.871 m 229.586 145.871 l 229.461 145.859 229.344 145.836 229.219
 145.832 c 227.406 145.785 225.758 144.871 224.805 143.379 c 221.137 137.641
 220.004 131.57 221.406 125.258 c 223.551 127.293 226.168 128.863 229.137
 128.863 c 230.59 128.863 231.973 128.242 232.945 127.16 c 233.918 126.078
 234.383 124.633 234.227 123.188 c 233.941 120.574 233.777 115.438 234.531
 110.27 c 236.918 115.391 240.836 120.562 247.281 123.785 c 248.531 124.41
 249.207 125.184 249.543 126.379 c 250.531 129.922 248.391 136.496 243.953
 143.539 c 243.086 144.918 241.09 145.871 239.082 145.871 c h
208.5 101.484 m 222.742 78.695 229.879 66.57 233.25 60.629 c 240.398 65.789
 253.477 77.918 249.141 95.258 c 248.562 97.586 249.672 100.004 251.82 101.078
 c 252.508 101.426 255.016 102.453 258.309 101.203 c 259.883 100.605 261.336
 99.609 262.684 98.199 c 265.102 104.617 267.301 114.023 264.562 123.25 
c 263.531 126.707 261.859 129.914 259.555 132.859 c 260.156 129.707 260.223
 126.562 259.402 123.621 c 258.293 119.648 255.684 116.535 251.859 114.625
 c 241.293 109.344 241.066 94.363 241.062 94.227 c 241.062 92.156 239.816
 90.289 237.902 89.5 c 235.992 88.703 233.785 89.145 232.324 90.609 c 227.758
 95.176 224.984 102.203 224.074 111.496 c 223.137 110.301 221.699 109.57
 220.141 109.543 c 218.195 109.516 216.469 110.539 215.555 112.211 c 210.492
 121.496 209.82 129.723 211.145 136.543 c 207.891 133.457 204.996 129.625
 203.59 125.035 c 201.453 118.039 203.105 110.117 208.5 101.484 c h
208.5 101.484 m f
Q Q
showpage
%%Trailer
end
%%EOF
