%!PS-Adobe-3.0 EPSF-3.0
%%Creator: cairo 1.16.0 (https://cairographics.org)
%%CreationDate: Thu Sep 19 06:52:22 2019
%%Pages: 1
%%DocumentData: Clean7Bit
%%LanguageLevel: 2
%%BoundingBox: 76 58 308 326
%%EndComments
%%BeginProlog
50 dict begin
/q { gsave } bind def
/Q { grestore } bind def
/cm { 6 array astore concat } bind def
/w { setlinewidth } bind def
/J { setlinecap } bind def
/j { setlinejoin } bind def
/M { setmiterlimit } bind def
/d { setdash } bind def
/m { moveto } bind def
/l { lineto } bind def
/c { curveto } bind def
/h { closepath } bind def
/re { exch dup neg 3 1 roll 5 3 roll moveto 0 rlineto
      0 exch rlineto 0 rlineto closepath } bind def
/S { stroke } bind def
/f { fill } bind def
/f* { eofill } bind def
/n { newpath } bind def
/W { clip } bind def
/W* { eoclip } bind def
/BT { } bind def
/ET { } bind def
/BDC { mark 3 1 roll /BDC pdfmark } bind def
/EMC { mark /EMC pdfmark } bind def
/cairo_store_point { /cairo_point_y exch def /cairo_point_x exch def } def
/Tj { show currentpoint cairo_store_point } bind def
/TJ {
  {
    dup
    type /stringtype eq
    { show } { -0.001 mul 0 cairo_font_matrix dtransform rmoveto } ifelse
  } forall
  currentpoint cairo_store_point
} bind def
/cairo_selectfont { cairo_font_matrix aload pop pop pop 0 0 6 array astore
    cairo_font exch selectfont cairo_point_x cairo_point_y moveto } bind def
/Tf { pop /cairo_font exch def /cairo_font_matrix where
      { pop cairo_selectfont } if } bind def
/Td { matrix translate cairo_font_matrix matrix concatmatrix dup
      /cairo_font_matrix exch def dup 4 get exch 5 get cairo_store_point
      /cairo_font where { pop cairo_selectfont } if } bind def
/Tm { 2 copy 8 2 roll 6 array astore /cairo_font_matrix exch def
      cairo_store_point /cairo_font where { pop cairo_selectfont } if } bind def
/g { setgray } bind def
/rg { setrgbcolor } bind def
/d1 { setcachedevice } bind def
/cairo_data_source {
  CairoDataIndex CairoData length lt
    { CairoData CairoDataIndex get /CairoDataIndex CairoDataIndex 1 add def }
    { () } ifelse
} def
/cairo_flush_ascii85_file { cairo_ascii85_file status { cairo_ascii85_file flushfile } if } def
/cairo_image { image cairo_flush_ascii85_file } def
/cairo_imagemask { imagemask cairo_flush_ascii85_file } def
%%EndProlog
%%BeginSetup
%%EndSetup
%%Page: 1 1
%%BeginPageSetup
%%PageBoundingBox: 76 58 308 326
%%EndPageSetup
q 76 58 232 268 rectclip
1 0 0 -1 0 384 cm q
0 g
302.078 58.879 m 102.398 58.879 l 88.285 58.879 76.801 70.363 76.801 84.48
 c 76.801 304.723 l 76.801 315.969 85.949 325.121 97.195 325.121 c 286.805
 325.121 l 298.051 325.121 307.203 315.969 307.203 304.723 c 307.203 64 
l 307.199 61.172 304.906 58.879 302.078 58.879 c h
102.398 69.121 m 296.961 69.121 l 296.961 99.84 l 163.84 99.84 l 163.84
 89.602 l 174.078 89.602 l 176.906 89.602 179.199 87.309 179.199 84.48 c
 179.199 81.652 176.906 79.359 174.078 79.359 c 97.281 79.359 l 94.453 79.359
 92.16 81.652 92.16 84.48 c 92.16 87.309 94.453 89.602 97.281 89.602 c 107.52
 89.602 l 107.52 99.84 l 102.398 99.84 l 93.93 99.84 87.039 92.949 87.039
 84.48 c 87.039 76.012 93.93 69.121 102.398 69.121 c h
117.762 89.602 m 153.602 89.602 l 153.602 143.566 l 139.109 128.695 l 138.141
 127.699 136.77 127.145 135.418 127.148 c 134.027 127.156 132.699 127.727
 131.738 128.73 c 117.762 143.379 l h
286.805 314.879 m 97.195 314.879 l 91.598 314.879 87.039 310.324 87.039
 304.723 c 87.039 104.91 l 91.324 108.141 96.633 110.078 102.398 110.078
 c 107.52 110.078 l 107.52 156.16 l 107.52 158.254 108.793 160.133 110.738
 160.914 c 111.355 161.16 112 161.281 112.641 161.281 c 114.012 161.281 
115.359 160.727 116.344 159.695 c 135.48 139.645 l 155.055 159.734 l 156.508
 161.223 158.723 161.688 160.648 160.902 c 162.582 160.117 163.844 158.242
 163.844 156.16 c 163.844 110.078 l 296.961 110.078 l 296.961 304.723 l 
296.961 310.324 292.402 314.879 286.805 314.879 c h
286.805 314.879 m f
230.398 181.762 m 209.922 181.762 l 209.922 163.84 l 209.922 153.957 201.883
 145.922 192 145.922 c 182.117 145.922 174.078 153.957 174.078 163.84 c 
174.078 181.762 l 153.602 181.762 l 145.129 181.762 138.238 188.648 138.238
 197.121 c 138.238 205.59 145.129 212.48 153.602 212.48 c 174.078 212.48
 l 174.078 276.48 l 174.078 286.363 182.117 294.398 192 294.398 c 201.883
 294.398 209.922 286.363 209.922 276.48 c 209.922 212.48 l 230.398 212.48
 l 238.871 212.48 245.762 205.59 245.762 197.121 c 245.762 188.648 238.871
 181.762 230.398 181.762 c h
230.398 202.238 m 204.801 202.238 l 201.973 202.238 199.68 204.531 199.68
 207.359 c 199.68 276.48 l 199.68 280.715 196.234 284.16 192 284.16 c 187.766
 284.16 184.32 280.715 184.32 276.48 c 184.32 207.359 l 184.32 204.531 182.027
 202.238 179.199 202.238 c 153.602 202.238 l 150.777 202.238 148.48 199.945
 148.48 197.121 c 148.48 194.297 150.777 192 153.602 192 c 179.199 192 l
 182.027 192 184.32 189.707 184.32 186.879 c 184.32 163.84 l 184.32 159.605
 187.766 156.16 192 156.16 c 196.234 156.16 199.68 159.605 199.68 163.84
 c 199.68 186.879 l 199.68 189.707 201.973 192 204.801 192 c 230.398 192
 l 233.223 192 235.52 194.297 235.52 197.121 c 235.52 199.945 233.223 202.238
 230.398 202.238 c h
230.398 202.238 m f
Q Q
showpage
%%Trailer
end
%%EOF
