%!PS-Adobe-3.0 EPSF-3.0
%%Creator: cairo 1.16.0 (https://cairographics.org)
%%CreationDate: Thu Sep 19 06:52:22 2019
%%Pages: 1
%%DocumentData: Clean7Bit
%%LanguageLevel: 2
%%BoundingBox: 48 58 336 326
%%EndComments
%%BeginProlog
50 dict begin
/q { gsave } bind def
/Q { grestore } bind def
/cm { 6 array astore concat } bind def
/w { setlinewidth } bind def
/J { setlinecap } bind def
/j { setlinejoin } bind def
/M { setmiterlimit } bind def
/d { setdash } bind def
/m { moveto } bind def
/l { lineto } bind def
/c { curveto } bind def
/h { closepath } bind def
/re { exch dup neg 3 1 roll 5 3 roll moveto 0 rlineto
      0 exch rlineto 0 rlineto closepath } bind def
/S { stroke } bind def
/f { fill } bind def
/f* { eofill } bind def
/n { newpath } bind def
/W { clip } bind def
/W* { eoclip } bind def
/BT { } bind def
/ET { } bind def
/BDC { mark 3 1 roll /BDC pdfmark } bind def
/EMC { mark /EMC pdfmark } bind def
/cairo_store_point { /cairo_point_y exch def /cairo_point_x exch def } def
/Tj { show currentpoint cairo_store_point } bind def
/TJ {
  {
    dup
    type /stringtype eq
    { show } { -0.001 mul 0 cairo_font_matrix dtransform rmoveto } ifelse
  } forall
  currentpoint cairo_store_point
} bind def
/cairo_selectfont { cairo_font_matrix aload pop pop pop 0 0 6 array astore
    cairo_font exch selectfont cairo_point_x cairo_point_y moveto } bind def
/Tf { pop /cairo_font exch def /cairo_font_matrix where
      { pop cairo_selectfont } if } bind def
/Td { matrix translate cairo_font_matrix matrix concatmatrix dup
      /cairo_font_matrix exch def dup 4 get exch 5 get cairo_store_point
      /cairo_font where { pop cairo_selectfont } if } bind def
/Tm { 2 copy 8 2 roll 6 array astore /cairo_font_matrix exch def
      cairo_store_point /cairo_font where { pop cairo_selectfont } if } bind def
/g { setgray } bind def
/rg { setrgbcolor } bind def
/d1 { setcachedevice } bind def
/cairo_data_source {
  CairoDataIndex CairoData length lt
    { CairoData CairoDataIndex get /CairoDataIndex CairoDataIndex 1 add def }
    { () } ifelse
} def
/cairo_flush_ascii85_file { cairo_ascii85_file status { cairo_ascii85_file flushfile } if } def
/cairo_image { image cairo_flush_ascii85_file } def
/cairo_imagemask { imagemask cairo_flush_ascii85_file } def
%%EndProlog
%%BeginSetup
%%EndSetup
%%Page: 1 1
%%BeginPageSetup
%%PageBoundingBox: 48 58 336 326
%%EndPageSetup
q 48 58 288 268 rectclip
1 0 0 -1 0 384 cm q
0 g
309.691 140.801 m 309.691 113.688 l 305.504 112.914 l 242.527 101.266 203.645
 128.234 192 138 c 180.348 128.238 141.441 101.27 78.43 112.914 c 74.238
 113.688 l 74.238 140.801 l 48.641 140.801 l 48.641 325.121 l 335.359 325.121
 l 335.359 140.801 l h
299.449 122.266 m 299.449 280.84 l 283.266 280.043 235.867 280.074 197.121
 303.711 c 197.121 147.129 l 200.469 144.184 209.441 136.996 223.496 130.848
 c 239.48 123.859 265.414 116.871 299.449 122.266 c h
84.48 122.266 m 143.578 112.906 179.391 140.605 186.879 147.137 c 186.879
 303.711 l 154.078 283.715 115.074 280.613 94.039 280.613 c 90.211 280.613
 86.973 280.719 84.48 280.84 c h
58.879 151.039 m 74.238 151.039 l 74.238 286.324 l 74.242 291.984 l 79.875
 291.418 l 80.504 291.355 141.336 285.641 185.34 314.879 c 58.879 314.879
 l h
325.121 314.879 m 198.656 314.879 l 242.633 285.645 303.434 291.355 304.055
 291.418 c 309.691 291.992 l 309.691 151.039 l 325.121 151.039 l h
325.121 314.879 m f
265.18 88.102 m 266.18 89.098 267.488 89.602 268.801 89.602 c 270.109 89.602
 271.422 89.098 272.422 88.102 c 274.422 86.102 274.422 82.859 272.422 80.859
 c 257.062 65.5 l 255.062 63.5 251.82 63.5 249.82 65.5 c 247.82 67.5 247.82
 70.742 249.82 72.742 c h
265.18 88.102 m f
309.762 89.602 m 311.07 89.602 312.379 89.098 313.383 88.102 c 328.742 
72.742 l 330.742 70.742 330.742 67.5 328.742 65.5 c 326.742 63.5 323.5 63.5
 321.5 65.5 c 306.141 80.859 l 304.141 82.859 304.141 86.102 306.141 88.102
 c 307.141 89.098 308.449 89.602 309.762 89.602 c h
309.762 89.602 m f
289.281 89.602 m 292.109 89.602 294.398 87.309 294.398 84.48 c 294.398 
64 l 294.398 61.172 292.109 58.879 289.281 58.879 c 286.453 58.879 284.16
 61.172 284.16 64 c 284.16 84.48 l 284.16 87.309 286.453 89.602 289.281 
89.602 c h
289.281 89.602 m f
114.566 191.984 m 130.559 193.984 l 130.559 243.199 l 130.559 246.027 132.852
 248.32 135.68 248.32 c 138.508 248.32 140.801 246.027 140.801 243.199 c
 140.801 195.266 l 155.523 197.105 l 155.738 197.133 155.953 197.145 156.168
 197.145 c 158.711 197.145 160.918 195.25 161.242 192.66 c 161.59 189.855
 159.602 187.297 156.793 186.945 c 140.801 184.945 l 140.801 171.52 l 140.801
 168.691 138.508 166.398 135.68 166.398 c 132.852 166.398 130.559 168.691
 130.559 171.52 c 130.559 183.664 l 115.836 181.824 l 113.023 181.473 110.469
 183.465 110.121 186.27 c 109.77 189.074 111.758 191.637 114.566 191.984
 c h
114.566 191.984 m f
Q Q
showpage
%%Trailer
end
%%EOF
