%!PS-Adobe-3.0 EPSF-3.0
%%Creator: cairo 1.16.0 (https://cairographics.org)
%%CreationDate: Thu Sep 19 06:52:22 2019
%%Pages: 1
%%DocumentData: Clean7Bit
%%LanguageLevel: 2
%%BoundingBox: 43 56 341 328
%%EndComments
%%BeginProlog
50 dict begin
/q { gsave } bind def
/Q { grestore } bind def
/cm { 6 array astore concat } bind def
/w { setlinewidth } bind def
/J { setlinecap } bind def
/j { setlinejoin } bind def
/M { setmiterlimit } bind def
/d { setdash } bind def
/m { moveto } bind def
/l { lineto } bind def
/c { curveto } bind def
/h { closepath } bind def
/re { exch dup neg 3 1 roll 5 3 roll moveto 0 rlineto
      0 exch rlineto 0 rlineto closepath } bind def
/S { stroke } bind def
/f { fill } bind def
/f* { eofill } bind def
/n { newpath } bind def
/W { clip } bind def
/W* { eoclip } bind def
/BT { } bind def
/ET { } bind def
/BDC { mark 3 1 roll /BDC pdfmark } bind def
/EMC { mark /EMC pdfmark } bind def
/cairo_store_point { /cairo_point_y exch def /cairo_point_x exch def } def
/Tj { show currentpoint cairo_store_point } bind def
/TJ {
  {
    dup
    type /stringtype eq
    { show } { -0.001 mul 0 cairo_font_matrix dtransform rmoveto } ifelse
  } forall
  currentpoint cairo_store_point
} bind def
/cairo_selectfont { cairo_font_matrix aload pop pop pop 0 0 6 array astore
    cairo_font exch selectfont cairo_point_x cairo_point_y moveto } bind def
/Tf { pop /cairo_font exch def /cairo_font_matrix where
      { pop cairo_selectfont } if } bind def
/Td { matrix translate cairo_font_matrix matrix concatmatrix dup
      /cairo_font_matrix exch def dup 4 get exch 5 get cairo_store_point
      /cairo_font where { pop cairo_selectfont } if } bind def
/Tm { 2 copy 8 2 roll 6 array astore /cairo_font_matrix exch def
      cairo_store_point /cairo_font where { pop cairo_selectfont } if } bind def
/g { setgray } bind def
/rg { setrgbcolor } bind def
/d1 { setcachedevice } bind def
/cairo_data_source {
  CairoDataIndex CairoData length lt
    { CairoData CairoDataIndex get /CairoDataIndex CairoDataIndex 1 add def }
    { () } ifelse
} def
/cairo_flush_ascii85_file { cairo_ascii85_file status { cairo_ascii85_file flushfile } if } def
/cairo_image { image cairo_flush_ascii85_file } def
/cairo_imagemask { imagemask cairo_flush_ascii85_file } def
%%EndProlog
%%BeginSetup
%%EndSetup
%%Page: 1 1
%%BeginPageSetup
%%PageBoundingBox: 43 56 341 328
%%EndPageSetup
q 43 56 298 272 rectclip
1 0 0 -1 0 384 cm q
0 g
87.035 138.238 m 100.027 138.238 115.195 134.887 115.195 125.441 c 115.195
 115.992 100.027 112.641 87.035 112.641 c 74.047 112.641 58.875 115.992 
58.875 125.441 c 58.875 134.887 74.047 138.238 87.035 138.238 c h
87.035 122.879 m 94.73 122.879 100.367 124.223 103.262 125.441 c 100.367
 126.66 94.727 128 87.035 128 c 79.344 128 73.703 126.66 70.812 125.441 
c 73.707 124.223 79.344 122.879 87.035 122.879 c h
87.035 122.879 m f
280.699 96.383 m 277.73 96.383 275.324 98.789 275.324 101.762 c 275.324
 104.73 277.73 107.137 280.699 107.137 c 283.668 107.137 286.074 104.73 
286.074 101.762 c 286.074 98.789 283.668 96.383 280.699 96.383 c h
280.699 96.383 m f
248.445 96.383 m 245.473 96.383 243.066 98.789 243.066 101.762 c 243.066
 104.73 245.473 107.137 248.445 107.137 c 251.414 107.137 253.82 104.73 
253.82 101.762 c 253.82 98.789 251.414 96.383 248.445 96.383 c h
248.445 96.383 m f
314.875 107.52 m 328.992 107.52 340.477 96.035 340.477 81.922 c 340.477
 79.094 338.184 76.801 335.355 76.801 c 299.516 76.801 l 299.391 76.801 
299.273 76.828 299.148 76.836 c 292.059 64.586 278.82 56.32 263.676 56.32
 c 248.531 56.32 235.293 64.586 228.203 76.836 c 228.082 76.828 227.961 
76.801 227.836 76.801 c 191.996 76.801 l 189.168 76.801 186.875 79.094 186.875
 81.922 c 186.875 96.035 198.359 107.52 212.477 107.52 c 222.715 107.52 
l 222.715 128 l 177.25 128 l 150.891 128 128.035 143.273 117.043 165.43 
c 111.984 155.387 101.586 148.48 89.598 148.48 c 72.656 148.48 58.875 162.262
 58.875 179.199 c 58.875 186.438 61.395 193.09 65.598 198.344 c 57.098 199.805
 49.398 204.664 44.375 212.199 c 43.559 213.426 43.328 214.926 43.688 216.316
 c 43.676 216.32 l 71.402 323.84 l 71.984 326.102 74.023 327.68 76.359 327.68
 c 241.07 327.68 l 243.23 327.68 245.156 326.328 245.887 324.297 c 263.148
 276.48 l 266.137 276.48 l 278.898 276.48 289.277 266.102 289.277 253.34
 c 289.277 174.078 l 292.348 174.078 l 305.051 174.078 315.387 163.742 315.387
 151.039 c 315.387 142.855 311.086 135.672 304.637 131.586 c 304.637 107.52
 l h
329.359 87.039 m 327.246 93 321.551 97.281 314.879 97.281 c 304.637 97.281
 l 304.637 93.746 304.188 90.312 303.34 87.039 c h
212.477 97.281 m 205.801 97.281 200.105 93 197.996 87.039 c 224.012 87.039
 l 223.168 90.312 222.715 93.746 222.715 97.281 c h
216.961 228.625 m 216.902 228.785 216.832 228.938 216.773 229.098 c 163.43
 217.391 l 211.676 203.047 l 212.145 202.906 212.562 202.688 212.957 202.438
 c 218.367 209.707 220.188 219.453 216.961 228.625 c h
157.988 208.324 m 151.461 175.707 l 199.75 192.711 l 201.254 193.242 202.68
 193.891 204.027 194.637 c h
140.398 172.605 m 148.129 211.254 l 142.762 212.852 l 120.316 207.926 l
 120.316 195.176 l 120.316 188.418 121.504 181.938 123.676 175.922 c 128.773
 173.125 134.637 171.973 140.398 172.605 c h
109.582 205.566 m 109.414 204.656 109.289 203.738 109.215 202.82 c 109.508
 202.578 109.793 202.328 110.078 202.074 c 110.078 205.68 l h
89.598 158.719 m 100.887 158.719 110.074 167.906 110.074 179.199 c 110.074
 190.492 100.887 199.68 89.598 199.68 c 78.305 199.68 69.117 190.492 69.117
 179.199 c 69.117 167.906 78.305 158.719 89.598 158.719 c h
75.809 208.641 m 246.035 246.004 l 224.441 248.703 l 211.891 250.273 200.051
 256.062 191.105 265.008 c 186.562 269.555 l 182.094 274.02 176.156 276.48
 169.84 276.48 c 129.387 276.48 l 117.355 276.48 106.914 268.328 104 256.656
 c 99.684 239.398 l 99.227 237.562 97.793 236.129 95.961 235.672 c 95.773
 235.625 l 85.336 233.02 77.176 224.527 74.98 213.996 c 74.488 211.621 72.395
 209.922 69.969 209.922 c 62.371 209.922 l 66.496 208.125 71.168 207.617
 75.809 208.641 c h
237.477 317.441 m 80.328 317.441 l 55.246 220.16 l 66.047 220.16 l 69.82
 231.668 78.938 240.879 90.461 244.734 c 94.062 259.141 l 98.125 275.379
 112.648 286.719 129.387 286.719 c 169.84 286.719 l 178.891 286.719 187.402
 283.195 193.801 276.793 c 198.348 272.25 l 205.691 264.906 215.41 260.152
 225.711 258.863 c 248.949 255.961 l 249.156 255.934 249.359 255.895 249.559
 255.848 c 260.719 253.055 l h
279.035 253.34 m 279.035 260.211 273.637 265.824 266.859 266.203 c 273.613
 247.5 l 273.605 247.496 l 273.812 246.93 273.926 246.32 273.918 245.688
 c 273.883 243.309 272.215 241.27 269.895 240.758 c 258.559 238.27 l 258.559
 204.801 l 258.559 201.973 256.266 199.68 253.438 199.68 c 250.609 199.68
 248.316 201.973 248.316 204.801 c 248.316 236.023 l 226.852 231.309 l 233.387
 211.531 222.887 190 203.152 183.055 c 150.031 164.348 l 143.676 162.109
 136.918 161.641 130.449 162.809 c 140.738 147.977 157.875 138.238 177.25
 138.238 c 216.371 138.238 l 213.914 141.902 212.477 146.305 212.477 151.039
 c 212.477 163.742 222.812 174.078 235.516 174.078 c 279.035 174.078 l h
292.348 163.84 m 235.516 163.84 l 228.457 163.84 222.715 158.098 222.715
 151.039 c 222.715 143.98 228.457 138.238 235.516 138.238 c 292.348 138.238
 l 299.406 138.238 305.148 143.98 305.148 151.039 c 305.148 158.098 299.406
 163.84 292.348 163.84 c h
292.348 128 m 235.516 128 l 234.648 128 233.797 128.059 232.957 128.152
 c 232.957 97.281 l 232.957 80.34 246.738 66.559 263.676 66.559 c 280.617
 66.559 294.395 80.34 294.395 97.281 c 294.395 128.105 l 293.719 128.043
 293.039 128 292.348 128 c h
292.348 128 m f
288.766 151.488 m 288.766 153.715 286.957 155.52 284.73 155.52 c 282.504
 155.52 280.699 153.715 280.699 151.488 c 280.699 149.262 282.504 147.457
 284.73 147.457 c 286.957 147.457 288.766 149.262 288.766 151.488 c h
288.766 151.488 m f
248.445 151.488 m 248.445 153.715 246.641 155.52 244.414 155.52 c 242.184
 155.52 240.379 153.715 240.379 151.488 c 240.379 149.262 242.184 147.457
 244.414 147.457 c 246.641 147.457 248.445 149.262 248.445 151.488 c h
248.445 151.488 m f
Q Q
showpage
%%Trailer
end
%%EOF
