%!PS-Adobe-3.0 EPSF-3.0
%%Creator: cairo 1.16.0 (https://cairographics.org)
%%CreationDate: Thu Sep 19 06:52:23 2019
%%Pages: 1
%%DocumentData: Clean7Bit
%%LanguageLevel: 2
%%BoundingBox: 38 81 346 303
%%EndComments
%%BeginProlog
50 dict begin
/q { gsave } bind def
/Q { grestore } bind def
/cm { 6 array astore concat } bind def
/w { setlinewidth } bind def
/J { setlinecap } bind def
/j { setlinejoin } bind def
/M { setmiterlimit } bind def
/d { setdash } bind def
/m { moveto } bind def
/l { lineto } bind def
/c { curveto } bind def
/h { closepath } bind def
/re { exch dup neg 3 1 roll 5 3 roll moveto 0 rlineto
      0 exch rlineto 0 rlineto closepath } bind def
/S { stroke } bind def
/f { fill } bind def
/f* { eofill } bind def
/n { newpath } bind def
/W { clip } bind def
/W* { eoclip } bind def
/BT { } bind def
/ET { } bind def
/BDC { mark 3 1 roll /BDC pdfmark } bind def
/EMC { mark /EMC pdfmark } bind def
/cairo_store_point { /cairo_point_y exch def /cairo_point_x exch def } def
/Tj { show currentpoint cairo_store_point } bind def
/TJ {
  {
    dup
    type /stringtype eq
    { show } { -0.001 mul 0 cairo_font_matrix dtransform rmoveto } ifelse
  } forall
  currentpoint cairo_store_point
} bind def
/cairo_selectfont { cairo_font_matrix aload pop pop pop 0 0 6 array astore
    cairo_font exch selectfont cairo_point_x cairo_point_y moveto } bind def
/Tf { pop /cairo_font exch def /cairo_font_matrix where
      { pop cairo_selectfont } if } bind def
/Td { matrix translate cairo_font_matrix matrix concatmatrix dup
      /cairo_font_matrix exch def dup 4 get exch 5 get cairo_store_point
      /cairo_font where { pop cairo_selectfont } if } bind def
/Tm { 2 copy 8 2 roll 6 array astore /cairo_font_matrix exch def
      cairo_store_point /cairo_font where { pop cairo_selectfont } if } bind def
/g { setgray } bind def
/rg { setrgbcolor } bind def
/d1 { setcachedevice } bind def
/cairo_data_source {
  CairoDataIndex CairoData length lt
    { CairoData CairoDataIndex get /CairoDataIndex CairoDataIndex 1 add def }
    { () } ifelse
} def
/cairo_flush_ascii85_file { cairo_ascii85_file status { cairo_ascii85_file flushfile } if } def
/cairo_image { image cairo_flush_ascii85_file } def
/cairo_imagemask { imagemask cairo_flush_ascii85_file } def
%%EndProlog
%%BeginSetup
%%EndSetup
%%Page: 1 1
%%BeginPageSetup
%%PageBoundingBox: 38 81 346 303
%%EndPageSetup
q 38 81 308 222 rectclip
1 0 0 -1 0 384 cm q
0 g
340.48 112.641 m 330.238 112.641 l 330.238 87.039 l 330.238 84.211 327.949
 81.922 325.121 81.922 c 181.762 81.922 l 178.934 81.922 176.641 84.211 
176.641 87.039 c 176.641 112.641 l 166.398 112.641 l 163.574 112.641 161.281
 114.934 161.281 117.762 c 161.281 120.586 163.574 122.879 166.398 122.879
 c 176.641 122.879 l 176.641 133.121 l 176.641 170.207 203.066 201.238 238.078
 208.375 c 238.078 233.082 l 224.043 221.805 206.242 215.039 186.879 215.039
 c 140.801 215.039 l 97.352 215.039 61.711 249.047 59.055 291.84 c 43.52
 291.84 l 40.691 291.84 38.398 294.133 38.398 296.961 c 38.398 299.789 40.691
 302.078 43.52 302.078 c 284.16 302.078 l 286.988 302.078 289.281 299.789
 289.281 296.961 c 289.281 294.133 286.988 291.84 284.16 291.84 c 268.801
 291.84 l 268.801 208.375 l 303.812 201.238 330.238 170.211 330.238 133.121
 c 330.238 122.879 l 340.48 122.879 l 343.309 122.879 345.602 120.586 345.602
 117.762 c 345.602 114.934 343.309 112.641 340.48 112.641 c h
186.879 92.16 m 320 92.16 l 320 112.641 l 186.879 112.641 l h
135.68 225.48 m 135.68 250.879 l 135.68 253.707 137.973 256 140.801 256
 c 143.629 256 145.922 253.707 145.922 250.879 c 145.922 225.281 l 161.281
 225.281 l 161.281 250.879 l 161.281 253.707 163.574 256 166.398 256 c 169.227
 256 171.52 253.707 171.52 250.879 c 171.52 225.281 l 186.879 225.281 l 
186.879 250.879 l 186.879 253.707 189.172 256 192 256 c 194.828 256 197.121
 253.707 197.121 250.879 c 197.121 226.012 l 230.152 230.758 255.984 258.113
 258.379 291.84 c 69.301 291.84 l 71.816 256.391 100.23 228 135.68 225.48
 c h
258.559 257.355 m 255.672 252.152 252.23 247.297 248.32 242.863 c 248.32
 209.73 l 250.016 209.844 251.719 209.922 253.441 209.922 c 255.16 209.922
 256.867 209.844 258.559 209.73 c h
320 133.121 m 320 169.82 290.141 199.68 253.441 199.68 c 216.738 199.68
 186.879 169.82 186.879 133.121 c 186.879 122.879 l 320 122.879 l h
320 133.121 m f
243.199 153.602 m 248.32 153.602 l 248.32 174.078 l 248.32 176.906 250.613
 179.199 253.441 179.199 c 256.266 179.199 258.559 176.906 258.559 174.078
 c 258.559 153.602 l 263.68 153.602 l 266.508 153.602 268.801 151.309 268.801
 148.48 c 268.801 145.652 266.508 143.359 263.68 143.359 c 258.559 143.359
 l 258.559 138.238 l 258.559 135.414 256.266 133.121 253.441 133.121 c 250.613
 133.121 248.32 135.414 248.32 138.238 c 248.32 143.359 l 243.199 143.359
 l 240.371 143.359 238.078 145.652 238.078 148.48 c 238.078 151.309 240.371
 153.602 243.199 153.602 c h
243.199 153.602 m f
Q Q
showpage
%%Trailer
end
%%EOF
