%!PS-Adobe-3.0 EPSF-3.0
%%Creator: cairo 1.16.0 (https://cairographics.org)
%%CreationDate: Thu Sep 19 06:52:23 2019
%%Pages: 1
%%DocumentData: Clean7Bit
%%LanguageLevel: 2
%%BoundingBox: 74 38 310 346
%%EndComments
%%BeginProlog
50 dict begin
/q { gsave } bind def
/Q { grestore } bind def
/cm { 6 array astore concat } bind def
/w { setlinewidth } bind def
/J { setlinecap } bind def
/j { setlinejoin } bind def
/M { setmiterlimit } bind def
/d { setdash } bind def
/m { moveto } bind def
/l { lineto } bind def
/c { curveto } bind def
/h { closepath } bind def
/re { exch dup neg 3 1 roll 5 3 roll moveto 0 rlineto
      0 exch rlineto 0 rlineto closepath } bind def
/S { stroke } bind def
/f { fill } bind def
/f* { eofill } bind def
/n { newpath } bind def
/W { clip } bind def
/W* { eoclip } bind def
/BT { } bind def
/ET { } bind def
/BDC { mark 3 1 roll /BDC pdfmark } bind def
/EMC { mark /EMC pdfmark } bind def
/cairo_store_point { /cairo_point_y exch def /cairo_point_x exch def } def
/Tj { show currentpoint cairo_store_point } bind def
/TJ {
  {
    dup
    type /stringtype eq
    { show } { -0.001 mul 0 cairo_font_matrix dtransform rmoveto } ifelse
  } forall
  currentpoint cairo_store_point
} bind def
/cairo_selectfont { cairo_font_matrix aload pop pop pop 0 0 6 array astore
    cairo_font exch selectfont cairo_point_x cairo_point_y moveto } bind def
/Tf { pop /cairo_font exch def /cairo_font_matrix where
      { pop cairo_selectfont } if } bind def
/Td { matrix translate cairo_font_matrix matrix concatmatrix dup
      /cairo_font_matrix exch def dup 4 get exch 5 get cairo_store_point
      /cairo_font where { pop cairo_selectfont } if } bind def
/Tm { 2 copy 8 2 roll 6 array astore /cairo_font_matrix exch def
      cairo_store_point /cairo_font where { pop cairo_selectfont } if } bind def
/g { setgray } bind def
/rg { setrgbcolor } bind def
/d1 { setcachedevice } bind def
/cairo_data_source {
  CairoDataIndex CairoData length lt
    { CairoData CairoDataIndex get /CairoDataIndex CairoDataIndex 1 add def }
    { () } ifelse
} def
/cairo_flush_ascii85_file { cairo_ascii85_file status { cairo_ascii85_file flushfile } if } def
/cairo_image { image cairo_flush_ascii85_file } def
/cairo_imagemask { imagemask cairo_flush_ascii85_file } def
%%EndProlog
%%BeginSetup
%%EndSetup
%%Page: 1 1
%%BeginPageSetup
%%PageBoundingBox: 74 38 310 346
%%EndPageSetup
q 74 38 236 308 rectclip
1 0 0 -1 0 384 cm q
0 g
309.191 302.297 m 308.316 300.59 306.559 299.52 304.641 299.52 c 227.84
 299.52 l 227.84 145.922 l 227.84 143.094 225.547 140.801 222.719 140.801
 c 202.238 140.801 l 202.238 130.242 l 215.168 128.336 225.129 117.203 225.129
 103.754 c 225.129 97.32 222.621 81.711 218.574 67.727 c 212.789 47.719 
206.352 38.398 198.324 38.398 c 190.297 38.398 183.863 47.719 178.074 67.723
 c 174.027 81.711 171.52 97.32 171.52 103.754 c 171.52 116.355 180.266 126.922
 192 129.773 c 192 140.801 l 171.52 140.801 l 168.691 140.801 166.398 143.094
 166.398 145.922 c 166.398 299.52 l 135.246 299.52 l 135.535 297.836 135.68
 296.125 135.68 294.398 c 135.68 277.461 121.898 263.68 104.961 263.68 c
 88.02 263.68 74.238 277.461 74.238 294.398 c 74.238 311.34 88.02 325.121
 104.961 325.121 c 106.145 325.121 107.332 325.039 108.562 324.871 c 111.789
 332.941 l 114.863 340.633 122.203 345.602 130.484 345.602 c 261.961 345.602
 l 274.305 345.602 285.957 339.605 293.133 329.562 c 308.805 307.617 l 309.922
 306.055 310.07 304.004 309.191 302.297 c h
198.324 119.211 m 196.988 119.211 195.898 118.125 195.898 116.789 c 195.898
 113.715 197.094 108.633 198.324 104.875 c 199.555 108.633 200.75 113.715
 200.75 116.789 c 200.75 118.125 199.66 119.211 198.324 119.211 c h
187.504 72 m 192.402 54.457 196.855 49.297 198.324 48.668 c 199.793 49.297
 204.246 54.457 209.148 72 c 212.895 85.414 214.891 99.059 214.891 103.754
 c 214.891 107.914 213.336 111.711 210.797 114.625 c 210.113 108.379 207.363
 90.707 198.324 90.707 c 189.285 90.707 186.535 108.379 185.855 114.625 
c 183.312 111.711 181.762 107.914 181.762 103.754 c 181.762 99.062 183.754
 85.414 187.504 72 c h
217.602 201.758 m 217.602 204.34 215.855 205.598 215.105 206.016 c 214.355
 206.438 212.371 207.27 210.168 205.922 c 208.73 205.039 207.836 203.441
 207.836 201.758 c 207.836 176.641 l 207.836 173.812 205.547 171.52 202.719
 171.52 c 196.809 171.52 192 166.711 192 160.801 c 192 151.039 l 217.598
 151.039 l 217.598 201.758 l h
176.641 151.039 m 181.762 151.039 l 181.762 160.801 l 181.762 170.594 188.508
 178.836 197.598 181.129 c 197.598 201.758 l 197.598 206.98 200.367 211.922
 204.82 214.652 c 207.273 216.152 209.992 216.906 212.715 216.906 c 214.363
 216.906 216.008 216.602 217.602 216.047 c 217.602 299.52 l 176.641 299.52
 l h
284.801 323.605 m 279.543 330.965 271.008 335.359 261.965 335.359 c 130.484
 335.359 l 126.414 335.359 122.809 332.918 121.297 329.141 c 116.477 317.082
 l 115.68 315.098 113.77 313.863 111.723 313.863 c 111.273 313.863 110.816
 313.922 110.363 314.047 c 108.293 314.613 106.578 314.879 104.961 314.879
 c 93.668 314.879 84.48 305.691 84.48 294.398 c 84.48 283.109 93.668 273.922
 104.961 273.922 c 116.254 273.922 125.441 283.109 125.441 294.398 c 125.441
 297.207 124.859 299.961 123.707 302.586 c 123.016 304.172 123.168 305.996
 124.113 307.441 c 125.059 308.887 126.672 309.762 128.398 309.762 c 294.691
 309.762 l h
284.801 323.605 m f
104.961 279.09 m 96.516 279.09 89.648 285.957 89.648 294.398 c 89.648 302.844
 96.516 309.711 104.961 309.711 c 113.402 309.711 120.27 302.844 120.27 
294.398 c 120.27 285.957 113.402 279.09 104.961 279.09 c h
104.961 299.473 m 102.164 299.473 99.887 297.195 99.887 294.398 c 99.887
 291.602 102.164 289.328 104.961 289.328 c 107.758 289.328 110.031 291.602
 110.031 294.398 c 110.031 297.195 107.758 299.473 104.961 299.473 c h
104.961 299.473 m f
Q Q
showpage
%%Trailer
end
%%EOF
