%!PS-Adobe-3.0 EPSF-3.0
%%Creator: cairo 1.16.0 (https://cairographics.org)
%%CreationDate: Thu Sep 19 06:52:23 2019
%%Pages: 1
%%DocumentData: Clean7Bit
%%LanguageLevel: 2
%%BoundingBox: 73 40 311 343
%%EndComments
%%BeginProlog
50 dict begin
/q { gsave } bind def
/Q { grestore } bind def
/cm { 6 array astore concat } bind def
/w { setlinewidth } bind def
/J { setlinecap } bind def
/j { setlinejoin } bind def
/M { setmiterlimit } bind def
/d { setdash } bind def
/m { moveto } bind def
/l { lineto } bind def
/c { curveto } bind def
/h { closepath } bind def
/re { exch dup neg 3 1 roll 5 3 roll moveto 0 rlineto
      0 exch rlineto 0 rlineto closepath } bind def
/S { stroke } bind def
/f { fill } bind def
/f* { eofill } bind def
/n { newpath } bind def
/W { clip } bind def
/W* { eoclip } bind def
/BT { } bind def
/ET { } bind def
/BDC { mark 3 1 roll /BDC pdfmark } bind def
/EMC { mark /EMC pdfmark } bind def
/cairo_store_point { /cairo_point_y exch def /cairo_point_x exch def } def
/Tj { show currentpoint cairo_store_point } bind def
/TJ {
  {
    dup
    type /stringtype eq
    { show } { -0.001 mul 0 cairo_font_matrix dtransform rmoveto } ifelse
  } forall
  currentpoint cairo_store_point
} bind def
/cairo_selectfont { cairo_font_matrix aload pop pop pop 0 0 6 array astore
    cairo_font exch selectfont cairo_point_x cairo_point_y moveto } bind def
/Tf { pop /cairo_font exch def /cairo_font_matrix where
      { pop cairo_selectfont } if } bind def
/Td { matrix translate cairo_font_matrix matrix concatmatrix dup
      /cairo_font_matrix exch def dup 4 get exch 5 get cairo_store_point
      /cairo_font where { pop cairo_selectfont } if } bind def
/Tm { 2 copy 8 2 roll 6 array astore /cairo_font_matrix exch def
      cairo_store_point /cairo_font where { pop cairo_selectfont } if } bind def
/g { setgray } bind def
/rg { setrgbcolor } bind def
/d1 { setcachedevice } bind def
/cairo_data_source {
  CairoDataIndex CairoData length lt
    { CairoData CairoDataIndex get /CairoDataIndex CairoDataIndex 1 add def }
    { () } ifelse
} def
/cairo_flush_ascii85_file { cairo_ascii85_file status { cairo_ascii85_file flushfile } if } def
/cairo_image { image cairo_flush_ascii85_file } def
/cairo_imagemask { imagemask cairo_flush_ascii85_file } def
%%EndProlog
%%BeginSetup
%%EndSetup
%%Page: 1 1
%%BeginPageSetup
%%PageBoundingBox: 73 40 311 343
%%EndPageSetup
q 73 40 238 303 rectclip
1 0 0 -1 0 384 cm q
0 g
181.984 61.48 m 185.781 61.48 l 185.781 87.078 l 185.781 89.906 188.074
 92.199 190.902 92.199 c 193.727 92.199 196.02 89.906 196.02 87.078 c 196.02
 61.48 l 199.816 61.48 l 202.645 61.48 204.938 59.188 204.938 56.359 c 204.938
 53.531 202.645 51.238 199.816 51.238 c 196.02 51.238 l 196.02 46.121 l 
196.02 43.293 193.727 41 190.902 41 c 188.074 41 185.781 43.293 185.781 
46.121 c 185.781 51.238 l 181.984 51.238 l 179.156 51.238 176.867 53.531
 176.867 56.359 c 176.867 59.188 179.156 61.48 181.984 61.48 c h
181.984 61.48 m f
122.359 154.789 m 137.383 154.789 149.605 142.566 149.605 127.543 c 149.605
 112.52 137.383 100.297 122.359 100.297 c 107.336 100.297 95.113 112.52 
95.113 127.543 c 95.109 142.566 107.332 154.789 122.359 154.789 c h
122.359 110.535 m 131.734 110.535 139.363 118.164 139.363 127.543 c 139.363
 136.918 131.734 144.547 122.359 144.547 c 112.98 144.547 105.352 136.918
 105.352 127.543 c 105.352 118.164 112.98 110.535 122.359 110.535 c h
122.359 110.535 m f
257.414 154.789 m 272.438 154.789 284.66 142.566 284.66 127.543 c 284.66
 112.52 272.438 100.297 257.414 100.297 c 242.391 100.297 230.168 112.52
 230.168 127.543 c 230.168 142.566 242.391 154.789 257.414 154.789 c h
257.414 110.535 m 266.793 110.535 274.422 118.164 274.422 127.543 c 274.422
 136.918 266.793 144.547 257.414 144.547 c 248.039 144.547 240.41 136.918
 240.41 127.543 c 240.41 118.164 248.039 110.535 257.414 110.535 c h
257.414 110.535 m f
310.539 290.656 m 297.543 255.637 l 298.422 255.637 l 301.25 255.637 303.543
 253.344 303.543 250.516 c 303.543 206.703 l 303.543 190.691 296.867 175.809
 285.223 165.867 c 279.859 161.285 273.125 158.758 266.258 158.758 c 248.664
 158.758 l 241.797 158.758 235.062 161.285 229.699 165.867 c 226.652 168.469
 223.957 171.414 221.621 174.625 c 221.621 166.441 l 221.621 155.402 215.234
 145.832 205.961 141.219 c 210.598 137.527 213.582 131.852 213.582 125.48
 c 213.582 114.387 204.555 105.363 193.461 105.363 c 182.367 105.363 173.344
 114.387 173.344 125.48 c 173.344 131.852 176.328 137.527 180.961 141.219
 c 171.691 145.832 165.305 155.402 165.305 166.441 c 165.305 176.801 l 150.887
 164.73 l 146.266 160.863 140.445 158.73 134.504 158.73 c 114.523 158.73
 l 108.582 158.73 102.762 160.863 98.141 164.73 c 82.531 177.801 l 76.566
 182.793 73.145 190.172 73.145 198.043 c 73.145 237.637 l 73.145 246.285
 77.836 254.113 85.391 258.066 c 88.176 259.523 l 88.176 307.801 l 88.176
 327.211 104.328 343.004 124.18 343.004 c 144.031 343.004 160.184 327.211
 160.184 307.801 c 160.184 259.875 l 163.641 258.066 l 171.195 254.113 175.887
 246.285 175.887 237.637 c 175.887 208.898 l 180.707 212.762 186.82 215.082
 193.465 215.082 c 200.266 215.082 206.512 212.656 211.383 208.629 c 211.383
 250.52 l 211.383 253.344 213.676 255.637 216.504 255.637 c 219.328 255.637
 l 206.332 290.66 l 205.746 292.23 205.969 293.988 206.926 295.363 c 207.887
 296.738 209.453 297.559 211.133 297.559 c 226.746 297.559 l 226.746 309.633
 l 226.746 326.672 240.527 340.539 257.465 340.539 c 274.406 340.539 288.188
 326.676 288.188 309.633 c 288.188 297.559 l 305.742 297.559 l 307.422 297.559
 308.988 296.738 309.945 295.363 c 310.898 293.984 311.121 292.227 310.539
 290.656 c h
193.461 115.602 m 198.906 115.602 203.34 120.031 203.34 125.48 c 203.34
 130.926 198.906 135.359 193.461 135.359 c 188.012 135.359 183.582 130.926
 183.582 125.48 c 183.582 120.031 188.012 115.602 193.461 115.602 c h
193.461 148.52 m 200.727 148.52 206.98 152.871 209.793 159.102 c 175.539
 180.293 l 175.539 166.441 l 175.539 156.559 183.582 148.52 193.461 148.52
 c h
149.941 307.797 m 149.941 321.562 138.383 332.762 124.176 332.762 c 109.969
 332.762 98.41 321.562 98.41 307.797 c 98.41 264.879 l 110.574 271.242 l
 111.305 271.629 112.121 271.828 112.945 271.828 c 136.074 271.828 l 136.898
 271.828 137.715 271.629 138.445 271.242 c 149.938 265.23 l 149.938 307.797
 l h
165.641 237.637 m 165.641 242.461 163.055 246.812 158.887 248.992 c 154.238
 251.426 l 149.941 229.934 l 149.941 199.719 l 149.941 196.891 147.648 194.602
 144.82 194.602 c 141.992 194.602 139.699 196.891 139.699 199.719 c 139.699
 230.441 l 139.699 230.777 139.734 231.113 139.801 231.441 c 144.785 256.371
 l 134.816 261.586 l 114.207 261.586 l 103.93 256.207 l 108.883 231.441 
l 108.949 231.113 108.984 230.777 108.984 230.441 c 108.984 199.719 l 108.984
 196.891 106.691 194.602 103.863 194.602 c 101.035 194.602 98.742 196.891
 98.742 199.719 c 98.742 229.934 l 94.477 251.262 l 90.137 248.992 l 85.973
 246.812 83.383 242.461 83.383 237.637 c 83.383 198.043 l 83.383 193.211
 85.469 188.695 89.105 185.648 c 104.715 172.582 l 104.715 172.578 104.715
 172.578 104.715 172.578 c 107.496 170.25 110.98 168.969 114.523 168.969
 c 134.504 168.969 l 138.047 168.969 141.531 170.25 144.312 172.582 c 159.922
 185.648 l 163.559 188.695 165.645 193.211 165.645 198.043 c 165.645 237.637
 l h
193.461 204.84 m 185.305 204.84 178.418 199.359 176.258 191.891 c 211.379
 170.16 l 211.379 186.918 l 211.379 196.801 203.344 204.84 193.461 204.84
 c h
277.941 309.629 m 277.941 321.023 268.754 330.297 257.461 330.297 c 246.168
 330.297 236.98 321.023 236.98 309.629 c 236.98 297.555 l 277.941 297.555
 l h
218.488 287.316 m 244.234 217.945 l 245.219 215.297 243.867 212.348 241.219
 211.363 c 238.566 210.383 235.617 211.734 234.637 214.383 c 223.125 245.395
 l 221.621 245.395 l 221.621 206.699 l 221.621 193.691 226.988 181.645 236.348
 173.648 c 239.859 170.652 244.234 169 248.66 169 c 266.258 169 l 270.688
 169 275.059 170.652 278.57 173.648 c 287.934 181.645 293.301 193.691 293.301
 206.699 c 293.301 244.211 l 282.23 214.383 l 281.246 211.734 278.301 210.383
 275.648 211.363 c 272.996 212.348 271.648 215.297 272.629 217.945 c 298.379
 287.316 l h
218.488 287.316 m f
Q Q
showpage
%%Trailer
end
%%EOF
