%!PS-Adobe-3.0 EPSF-3.0
%%Creator: cairo 1.16.0 (https://cairographics.org)
%%CreationDate: Thu Sep 19 06:52:24 2019
%%Pages: 1
%%DocumentData: Clean7Bit
%%LanguageLevel: 2
%%BoundingBox: 61 48 323 336
%%EndComments
%%BeginProlog
50 dict begin
/q { gsave } bind def
/Q { grestore } bind def
/cm { 6 array astore concat } bind def
/w { setlinewidth } bind def
/J { setlinecap } bind def
/j { setlinejoin } bind def
/M { setmiterlimit } bind def
/d { setdash } bind def
/m { moveto } bind def
/l { lineto } bind def
/c { curveto } bind def
/h { closepath } bind def
/re { exch dup neg 3 1 roll 5 3 roll moveto 0 rlineto
      0 exch rlineto 0 rlineto closepath } bind def
/S { stroke } bind def
/f { fill } bind def
/f* { eofill } bind def
/n { newpath } bind def
/W { clip } bind def
/W* { eoclip } bind def
/BT { } bind def
/ET { } bind def
/BDC { mark 3 1 roll /BDC pdfmark } bind def
/EMC { mark /EMC pdfmark } bind def
/cairo_store_point { /cairo_point_y exch def /cairo_point_x exch def } def
/Tj { show currentpoint cairo_store_point } bind def
/TJ {
  {
    dup
    type /stringtype eq
    { show } { -0.001 mul 0 cairo_font_matrix dtransform rmoveto } ifelse
  } forall
  currentpoint cairo_store_point
} bind def
/cairo_selectfont { cairo_font_matrix aload pop pop pop 0 0 6 array astore
    cairo_font exch selectfont cairo_point_x cairo_point_y moveto } bind def
/Tf { pop /cairo_font exch def /cairo_font_matrix where
      { pop cairo_selectfont } if } bind def
/Td { matrix translate cairo_font_matrix matrix concatmatrix dup
      /cairo_font_matrix exch def dup 4 get exch 5 get cairo_store_point
      /cairo_font where { pop cairo_selectfont } if } bind def
/Tm { 2 copy 8 2 roll 6 array astore /cairo_font_matrix exch def
      cairo_store_point /cairo_font where { pop cairo_selectfont } if } bind def
/g { setgray } bind def
/rg { setrgbcolor } bind def
/d1 { setcachedevice } bind def
/cairo_data_source {
  CairoDataIndex CairoData length lt
    { CairoData CairoDataIndex get /CairoDataIndex CairoDataIndex 1 add def }
    { () } ifelse
} def
/cairo_flush_ascii85_file { cairo_ascii85_file status { cairo_ascii85_file flushfile } if } def
/cairo_image { image cairo_flush_ascii85_file } def
/cairo_imagemask { imagemask cairo_flush_ascii85_file } def
%%EndProlog
%%BeginSetup
%%EndSetup
%%Page: 1 1
%%BeginPageSetup
%%PageBoundingBox: 61 48 323 336
%%EndPageSetup
q 61 48 262 288 rectclip
1 0 0 -1 0 384 cm q
0 g
321.16 219.352 m 294.688 189.035 l 293.715 187.922 292.309 187.281 290.832
 187.281 c 248.453 187.281 l 248.453 162.898 l 254.941 169.883 l 255.953
 170.969 257.32 171.52 258.695 171.52 c 259.941 171.52 261.191 171.066 262.18
 170.152 c 264.25 168.227 264.371 164.988 262.449 162.914 c 197.254 92.711
 l 197.254 74.238 l 207.496 74.238 l 210.32 74.238 212.613 71.949 212.613
 69.121 c 212.613 66.293 210.32 64 207.496 64 c 197.254 64 l 197.254 53.762
 l 197.254 50.934 194.961 48.641 192.133 48.641 c 189.309 48.641 187.016
 50.934 187.016 53.762 c 187.016 64 l 176.773 64 l 173.945 64 171.656 66.293
 171.656 69.121 c 171.656 71.949 173.945 74.238 176.773 74.238 c 187.016
 74.238 l 187.016 92.711 l 121.82 162.914 l 119.898 164.988 120.02 168.227
 122.09 170.152 c 124.164 172.074 127.402 171.957 129.324 169.883 c 135.812
 162.898 l 135.812 187.281 l 93.168 187.281 l 91.691 187.281 90.285 187.922
 89.312 189.035 c 62.836 219.352 l 61.516 220.867 61.203 223.008 62.031 
224.836 c 62.863 226.668 64.688 227.84 66.695 227.84 c 74.105 227.84 l 74.105
 330.238 l 74.105 333.066 76.398 335.359 79.223 335.359 c 304.773 335.359
 l 307.602 335.359 309.895 333.066 309.895 330.238 c 309.895 227.84 l 317.305
 227.84 l 319.312 227.84 321.137 226.668 321.965 224.836 c 322.797 223.012
 322.48 220.867 321.16 219.352 c h
288.504 197.523 m 306.035 217.602 l 305.078 217.602 l 305.023 217.602 304.977
 217.613 304.926 217.617 c 304.875 217.613 304.828 217.602 304.777 217.602
 c 248.457 217.602 l 248.457 197.523 l h
95.496 197.523 m 135.812 197.523 l 135.812 217.602 l 79.227 217.602 l 79.031
 217.602 78.848 217.637 78.664 217.656 c 78.477 217.637 78.293 217.602 78.098
 217.602 c 77.965 217.602 l h
84.344 227.84 m 135.816 227.84 l 135.816 325.121 l 84.344 325.121 l h
176.773 325.121 m 176.773 263.68 l 176.773 255.211 183.664 248.32 192.133
 248.32 c 200.605 248.32 207.496 255.211 207.496 263.68 c 207.496 325.121
 l h
217.734 325.121 m 217.734 263.68 l 217.734 249.562 206.25 238.078 192.133
 238.078 c 178.02 238.078 166.535 249.562 166.535 263.68 c 166.535 325.121
 l 146.055 325.121 l 146.055 151.871 l 192.133 102.246 l 238.215 151.871
 l 238.215 325.121 l h
299.656 325.121 m 248.453 325.121 l 248.453 227.84 l 299.656 227.84 l h
299.656 325.121 m f
Q Q
showpage
%%Trailer
end
%%EOF
