%!PS-Adobe-3.0 EPSF-3.0
%%Creator: cairo 1.16.0 (https://cairographics.org)
%%CreationDate: Thu Sep 19 06:52:24 2019
%%Pages: 1
%%DocumentData: Clean7Bit
%%LanguageLevel: 2
%%BoundingBox: 46 35 338 349
%%EndComments
%%BeginProlog
50 dict begin
/q { gsave } bind def
/Q { grestore } bind def
/cm { 6 array astore concat } bind def
/w { setlinewidth } bind def
/J { setlinecap } bind def
/j { setlinejoin } bind def
/M { setmiterlimit } bind def
/d { setdash } bind def
/m { moveto } bind def
/l { lineto } bind def
/c { curveto } bind def
/h { closepath } bind def
/re { exch dup neg 3 1 roll 5 3 roll moveto 0 rlineto
      0 exch rlineto 0 rlineto closepath } bind def
/S { stroke } bind def
/f { fill } bind def
/f* { eofill } bind def
/n { newpath } bind def
/W { clip } bind def
/W* { eoclip } bind def
/BT { } bind def
/ET { } bind def
/BDC { mark 3 1 roll /BDC pdfmark } bind def
/EMC { mark /EMC pdfmark } bind def
/cairo_store_point { /cairo_point_y exch def /cairo_point_x exch def } def
/Tj { show currentpoint cairo_store_point } bind def
/TJ {
  {
    dup
    type /stringtype eq
    { show } { -0.001 mul 0 cairo_font_matrix dtransform rmoveto } ifelse
  } forall
  currentpoint cairo_store_point
} bind def
/cairo_selectfont { cairo_font_matrix aload pop pop pop 0 0 6 array astore
    cairo_font exch selectfont cairo_point_x cairo_point_y moveto } bind def
/Tf { pop /cairo_font exch def /cairo_font_matrix where
      { pop cairo_selectfont } if } bind def
/Td { matrix translate cairo_font_matrix matrix concatmatrix dup
      /cairo_font_matrix exch def dup 4 get exch 5 get cairo_store_point
      /cairo_font where { pop cairo_selectfont } if } bind def
/Tm { 2 copy 8 2 roll 6 array astore /cairo_font_matrix exch def
      cairo_store_point /cairo_font where { pop cairo_selectfont } if } bind def
/g { setgray } bind def
/rg { setrgbcolor } bind def
/d1 { setcachedevice } bind def
/cairo_data_source {
  CairoDataIndex CairoData length lt
    { CairoData CairoDataIndex get /CairoDataIndex CairoDataIndex 1 add def }
    { () } ifelse
} def
/cairo_flush_ascii85_file { cairo_ascii85_file status { cairo_ascii85_file flushfile } if } def
/cairo_image { image cairo_flush_ascii85_file } def
/cairo_imagemask { imagemask cairo_flush_ascii85_file } def
%%EndProlog
%%BeginSetup
%%EndSetup
%%Page: 1 1
%%BeginPageSetup
%%PageBoundingBox: 46 35 338 349
%%EndPageSetup
q 46 35 292 314 rectclip
1 0 0 -1 0 384 cm q
0 g
174.078 199.898 m 209.922 199.898 l 212.746 199.898 215.039 197.605 215.039
 194.777 c 215.039 156.16 l 215.039 143.457 204.703 133.121 192 133.121 
c 179.297 133.121 168.961 143.457 168.961 156.16 c 168.961 194.777 l 168.961
 197.605 171.254 199.898 174.078 199.898 c h
179.199 156.16 m 179.199 149.102 184.941 143.359 192 143.359 c 199.059 
143.359 204.801 149.102 204.801 156.16 c 204.801 189.656 l 179.199 189.656
 l h
179.199 156.16 m f
337.227 212.512 m 337.246 212.5 l 316.766 176.66 l 315.855 175.066 314.156
 174.078 312.32 174.078 c 261.121 174.078 l 261.121 139.98 l 261.121 138.492
 260.473 137.074 259.344 136.105 c 199.68 84.691 l 199.68 61.441 l 206.855
 61.441 l 209.684 61.441 211.973 59.148 211.973 56.32 c 211.973 53.492 209.684
 51.199 206.855 51.199 c 199.68 51.199 l 199.68 40.961 l 199.68 38.133 197.387
 35.84 194.559 35.84 c 191.734 35.84 189.441 38.133 189.441 40.961 c 189.441
 51.199 l 182.266 51.199 l 179.438 51.199 177.145 53.492 177.145 56.32 c
 177.145 59.148 179.438 61.441 182.266 61.441 c 189.441 61.441 l 189.441
 84.641 l 129.844 134.305 l 128.676 135.281 128 136.719 128 138.238 c 128
 174.078 l 81.922 174.078 l 80.426 174.078 79.004 174.734 78.031 175.867
 c 47.312 211.707 l 47.332 211.723 l 46.562 212.617 46.078 213.77 46.078
 215.039 c 46.078 343.039 l 46.078 345.867 48.371 348.16 51.199 348.16 c
 332.801 348.16 l 335.629 348.16 337.922 345.867 337.922 343.039 c 337.922
 215.039 l 337.922 214.113 337.656 213.258 337.227 212.512 c h
309.348 184.32 m 323.977 209.922 l 288.277 209.922 l 261.121 191.719 l 
261.121 184.32 l h
138.238 194.559 m 138.238 140.637 l 194.504 93.75 l 250.879 142.328 l 250.879
 194.453 l 250.879 196.16 251.73 197.754 253.148 198.703 c 281.602 217.773
 l 281.602 337.922 l 220.16 337.922 l 220.16 273.922 l 220.16 258.391 207.527
 245.762 192 245.762 c 176.473 245.762 163.84 258.391 163.84 273.922 c 163.84
 337.922 l 101.98 337.922 l 102.391 218.016 l 135.66 199.004 l 137.254 198.094
 138.238 196.398 138.238 194.559 c h
84.273 184.32 m 128 184.32 l 128 191.59 l 95.922 209.922 l 62.332 209.922
 l h
56.32 220.16 m 92.141 220.16 l 91.742 337.922 l 56.32 337.922 l h
174.078 337.922 m 174.078 273.922 l 174.078 264.039 182.117 256 192 256
 c 201.883 256 209.922 264.039 209.922 273.922 c 209.922 337.922 l h
327.68 337.922 m 291.84 337.922 l 291.84 220.16 l 327.68 220.16 l h
327.68 337.922 m f
Q Q
showpage
%%Trailer
end
%%EOF
