%!PS-Adobe-3.0 EPSF-3.0
%%Creator: cairo 1.16.0 (https://cairographics.org)
%%CreationDate: Thu Sep 19 06:52:24 2019
%%Pages: 1
%%DocumentData: Clean7Bit
%%LanguageLevel: 2
%%BoundingBox: 71 58 313 326
%%EndComments
%%BeginProlog
50 dict begin
/q { gsave } bind def
/Q { grestore } bind def
/cm { 6 array astore concat } bind def
/w { setlinewidth } bind def
/J { setlinecap } bind def
/j { setlinejoin } bind def
/M { setmiterlimit } bind def
/d { setdash } bind def
/m { moveto } bind def
/l { lineto } bind def
/c { curveto } bind def
/h { closepath } bind def
/re { exch dup neg 3 1 roll 5 3 roll moveto 0 rlineto
      0 exch rlineto 0 rlineto closepath } bind def
/S { stroke } bind def
/f { fill } bind def
/f* { eofill } bind def
/n { newpath } bind def
/W { clip } bind def
/W* { eoclip } bind def
/BT { } bind def
/ET { } bind def
/BDC { mark 3 1 roll /BDC pdfmark } bind def
/EMC { mark /EMC pdfmark } bind def
/cairo_store_point { /cairo_point_y exch def /cairo_point_x exch def } def
/Tj { show currentpoint cairo_store_point } bind def
/TJ {
  {
    dup
    type /stringtype eq
    { show } { -0.001 mul 0 cairo_font_matrix dtransform rmoveto } ifelse
  } forall
  currentpoint cairo_store_point
} bind def
/cairo_selectfont { cairo_font_matrix aload pop pop pop 0 0 6 array astore
    cairo_font exch selectfont cairo_point_x cairo_point_y moveto } bind def
/Tf { pop /cairo_font exch def /cairo_font_matrix where
      { pop cairo_selectfont } if } bind def
/Td { matrix translate cairo_font_matrix matrix concatmatrix dup
      /cairo_font_matrix exch def dup 4 get exch 5 get cairo_store_point
      /cairo_font where { pop cairo_selectfont } if } bind def
/Tm { 2 copy 8 2 roll 6 array astore /cairo_font_matrix exch def
      cairo_store_point /cairo_font where { pop cairo_selectfont } if } bind def
/g { setgray } bind def
/rg { setrgbcolor } bind def
/d1 { setcachedevice } bind def
/cairo_data_source {
  CairoDataIndex CairoData length lt
    { CairoData CairoDataIndex get /CairoDataIndex CairoDataIndex 1 add def }
    { () } ifelse
} def
/cairo_flush_ascii85_file { cairo_ascii85_file status { cairo_ascii85_file flushfile } if } def
/cairo_image { image cairo_flush_ascii85_file } def
/cairo_imagemask { imagemask cairo_flush_ascii85_file } def
%%EndProlog
%%BeginSetup
%%EndSetup
%%Page: 1 1
%%BeginPageSetup
%%PageBoundingBox: 71 58 313 326
%%EndPageSetup
q 71 58 242 268 rectclip
1 0 0 -1 0 384 cm q
0 g
207.574 233.172 m 194.559 233.172 l 194.559 215.039 l 194.559 213.996 194.422
 212.984 194.184 212.008 c 248.863 207.012 291.84 160.922 291.84 104.961
 c 291.84 64 l 291.84 61.172 289.547 58.879 286.719 58.879 c 283.891 58.879
 281.602 61.172 281.602 64 c 281.602 104.961 l 281.602 158.602 237.961 202.238
 184.32 202.238 c 130.68 202.238 87.039 158.602 87.039 104.961 c 87.039 
64 l 87.039 61.172 84.746 58.879 81.922 58.879 c 79.094 58.879 76.801 61.172
 76.801 64 c 76.801 104.961 l 76.801 159.211 117.199 204.184 169.484 211.434
 c 169.148 212.578 168.961 213.785 168.961 215.039 c 168.961 233.172 l 155.945
 233.172 l 149.008 233.172 143.359 238.82 143.359 245.762 c 143.359 252.699
 149.008 258.348 155.945 258.348 c 168.961 258.348 l 168.961 312.32 l 168.961
 319.379 174.703 325.121 181.762 325.121 c 188.816 325.121 194.559 319.379
 194.559 312.32 c 194.559 258.348 l 207.574 258.348 l 214.516 258.348 220.16
 252.699 220.16 245.762 c 220.16 238.82 214.516 233.172 207.574 233.172 
c h
207.574 248.105 m 189.441 248.105 l 186.613 248.105 184.32 250.398 184.32
 253.227 c 184.32 312.32 l 184.32 313.73 183.172 314.879 181.762 314.879
 c 180.348 314.879 179.199 313.73 179.199 312.32 c 179.199 253.227 l 179.199
 250.398 176.906 248.105 174.078 248.105 c 155.945 248.105 l 154.652 248.105
 153.602 247.055 153.602 245.762 c 153.602 244.465 154.652 243.414 155.945
 243.414 c 174.078 243.414 l 176.906 243.414 179.199 241.121 179.199 238.293
 c 179.199 215.039 l 179.199 213.629 180.348 212.48 181.762 212.48 c 183.172
 212.48 184.32 213.629 184.32 215.039 c 184.32 238.293 l 184.32 241.121 
186.613 243.414 189.441 243.414 c 207.574 243.414 l 208.867 243.414 209.922
 244.465 209.922 245.762 c 209.922 247.055 208.867 248.105 207.574 248.105
 c h
207.574 248.105 m f
97.281 238.078 m 92.16 238.078 l 92.16 232.961 l 92.16 230.133 89.867 227.84
 87.039 227.84 c 84.211 227.84 81.922 230.133 81.922 232.961 c 81.922 238.078
 l 76.801 238.078 l 73.973 238.078 71.68 240.371 71.68 243.199 c 71.68 246.027
 73.973 248.32 76.801 248.32 c 81.922 248.32 l 81.922 253.441 l 81.922 256.266
 84.211 258.559 87.039 258.559 c 89.867 258.559 92.16 256.266 92.16 253.441
 c 92.16 248.32 l 97.281 248.32 l 100.109 248.32 102.398 246.027 102.398
 243.199 c 102.398 240.371 100.109 238.078 97.281 238.078 c h
97.281 238.078 m f
179.199 145.922 m 184.32 145.922 l 184.32 151.039 l 184.32 153.867 186.613
 156.16 189.441 156.16 c 192.266 156.16 194.559 153.867 194.559 151.039 
c 194.559 145.922 l 199.68 145.922 l 202.508 145.922 204.801 143.629 204.801
 140.801 c 204.801 137.973 202.508 135.68 199.68 135.68 c 194.559 135.68
 l 194.559 130.559 l 194.559 127.734 192.266 125.441 189.441 125.441 c 186.613
 125.441 184.32 127.734 184.32 130.559 c 184.32 135.68 l 179.199 135.68 
l 176.371 135.68 174.078 137.973 174.078 140.801 c 174.078 143.629 176.371
 145.922 179.199 145.922 c h
179.199 145.922 m f
307.199 238.078 m 302.078 238.078 l 302.078 232.961 l 302.078 230.133 299.789
 227.84 296.961 227.84 c 294.133 227.84 291.84 230.133 291.84 232.961 c 
291.84 238.078 l 286.719 238.078 l 283.891 238.078 281.602 240.371 281.602
 243.199 c 281.602 246.027 283.891 248.32 286.719 248.32 c 291.84 248.32
 l 291.84 253.441 l 291.84 256.266 294.133 258.559 296.961 258.559 c 299.789
 258.559 302.078 256.266 302.078 253.441 c 302.078 248.32 l 307.199 248.32
 l 310.027 248.32 312.32 246.027 312.32 243.199 c 312.32 240.371 310.027
 238.078 307.199 238.078 c h
307.199 238.078 m f
261.121 279.039 m 256 279.039 l 256 273.922 l 256 271.094 253.707 268.801
 250.879 268.801 c 248.051 268.801 245.762 271.094 245.762 273.922 c 245.762
 279.039 l 240.641 279.039 l 237.812 279.039 235.52 281.332 235.52 284.16
 c 235.52 286.988 237.812 289.281 240.641 289.281 c 245.762 289.281 l 245.762
 294.398 l 245.762 297.227 248.051 299.52 250.879 299.52 c 253.707 299.52
 256 297.227 256 294.398 c 256 289.281 l 261.121 289.281 l 263.949 289.281
 266.238 286.988 266.238 284.16 c 266.238 281.332 263.949 279.039 261.121
 279.039 c h
261.121 279.039 m f
Q Q
showpage
%%Trailer
end
%%EOF
