%!PS-Adobe-3.0 EPSF-3.0
%%Creator: cairo 1.16.0 (https://cairographics.org)
%%CreationDate: Thu Sep 19 06:52:24 2019
%%Pages: 1
%%DocumentData: Clean7Bit
%%LanguageLevel: 2
%%BoundingBox: 64 48 320 336
%%EndComments
%%BeginProlog
50 dict begin
/q { gsave } bind def
/Q { grestore } bind def
/cm { 6 array astore concat } bind def
/w { setlinewidth } bind def
/J { setlinecap } bind def
/j { setlinejoin } bind def
/M { setmiterlimit } bind def
/d { setdash } bind def
/m { moveto } bind def
/l { lineto } bind def
/c { curveto } bind def
/h { closepath } bind def
/re { exch dup neg 3 1 roll 5 3 roll moveto 0 rlineto
      0 exch rlineto 0 rlineto closepath } bind def
/S { stroke } bind def
/f { fill } bind def
/f* { eofill } bind def
/n { newpath } bind def
/W { clip } bind def
/W* { eoclip } bind def
/BT { } bind def
/ET { } bind def
/BDC { mark 3 1 roll /BDC pdfmark } bind def
/EMC { mark /EMC pdfmark } bind def
/cairo_store_point { /cairo_point_y exch def /cairo_point_x exch def } def
/Tj { show currentpoint cairo_store_point } bind def
/TJ {
  {
    dup
    type /stringtype eq
    { show } { -0.001 mul 0 cairo_font_matrix dtransform rmoveto } ifelse
  } forall
  currentpoint cairo_store_point
} bind def
/cairo_selectfont { cairo_font_matrix aload pop pop pop 0 0 6 array astore
    cairo_font exch selectfont cairo_point_x cairo_point_y moveto } bind def
/Tf { pop /cairo_font exch def /cairo_font_matrix where
      { pop cairo_selectfont } if } bind def
/Td { matrix translate cairo_font_matrix matrix concatmatrix dup
      /cairo_font_matrix exch def dup 4 get exch 5 get cairo_store_point
      /cairo_font where { pop cairo_selectfont } if } bind def
/Tm { 2 copy 8 2 roll 6 array astore /cairo_font_matrix exch def
      cairo_store_point /cairo_font where { pop cairo_selectfont } if } bind def
/g { setgray } bind def
/rg { setrgbcolor } bind def
/d1 { setcachedevice } bind def
/cairo_data_source {
  CairoDataIndex CairoData length lt
    { CairoData CairoDataIndex get /CairoDataIndex CairoDataIndex 1 add def }
    { () } ifelse
} def
/cairo_flush_ascii85_file { cairo_ascii85_file status { cairo_ascii85_file flushfile } if } def
/cairo_image { image cairo_flush_ascii85_file } def
/cairo_imagemask { imagemask cairo_flush_ascii85_file } def
%%EndProlog
%%BeginSetup
%%EndSetup
%%Page: 1 1
%%BeginPageSetup
%%PageBoundingBox: 64 48 320 336
%%EndPageSetup
q 64 48 256 288 rectclip
1 0 0 -1 0 384 cm q
0 g
253.441 145.922 m 253.441 134.629 244.254 125.441 232.961 125.441 c 221.668
 125.441 212.48 134.629 212.48 145.922 c 197.121 145.922 l 197.121 110.078
 l 208.414 110.078 217.602 100.891 217.602 89.602 c 217.602 78.309 208.414
 69.121 197.121 69.121 c 197.016 57.809 187.781 48.641 176.449 48.641 c 
165.113 48.641 155.879 57.812 155.773 69.125 c 144.66 69.328 135.68 78.438
 135.68 89.602 c 135.68 100.762 144.66 109.867 155.773 110.074 c 155.773
 145.922 l 140.801 145.922 l 140.801 134.629 131.613 125.441 120.32 125.441
 c 109.027 125.441 99.84 134.629 99.84 145.922 c 88.547 145.922 79.359 155.109
 79.359 166.398 c 79.359 177.691 88.547 186.879 99.84 186.879 c 99.84 198.172
 109.027 207.359 120.32 207.359 c 131.613 207.359 140.801 198.172 140.801
 186.879 c 155.773 186.879 l 155.773 273.926 l 144.66 274.133 135.68 283.238
 135.68 294.398 c 135.68 305.562 144.66 314.672 155.773 314.875 c 155.875
 326.188 165.109 335.359 176.445 335.359 c 187.781 335.359 197.016 326.191
 197.117 314.879 c 208.41 314.879 217.598 305.691 217.598 294.398 c 217.598
 283.109 208.41 273.922 197.117 273.922 c 197.117 186.879 l 212.48 186.879
 l 212.48 198.172 221.668 207.359 232.957 207.359 c 244.25 207.359 253.438
 198.172 253.438 186.879 c 264.73 186.879 273.918 177.691 273.918 166.398
 c 273.918 155.109 264.73 145.922 253.441 145.922 c h
253.441 176.641 m 248.32 176.641 l 245.492 176.641 243.199 178.934 243.199
 181.762 c 243.199 186.879 l 243.199 192.527 238.605 197.121 232.961 197.121
 c 227.312 197.121 222.719 192.527 222.719 186.879 c 222.719 181.762 l 222.719
 178.934 220.426 176.641 217.602 176.641 c 192 176.641 l 189.172 176.641
 186.879 178.934 186.879 181.762 c 186.879 279.039 l 186.879 281.867 189.172
 284.16 192 284.16 c 197.121 284.16 l 202.766 284.16 207.359 288.754 207.359
 294.398 c 207.359 300.047 202.766 304.641 197.121 304.641 c 192 304.641
 l 189.172 304.641 186.879 306.934 186.879 309.762 c 186.879 314.688 l 186.879
 320.441 182.199 325.121 176.445 325.121 c 170.691 325.121 166.012 320.441
 166.012 314.688 c 166.012 309.762 l 166.012 306.934 163.723 304.641 160.895
 304.641 c 156.16 304.641 l 150.516 304.641 145.922 300.047 145.922 294.398
 c 145.922 288.754 150.516 284.16 156.16 284.16 c 160.895 284.16 l 163.723
 284.16 166.012 281.867 166.012 279.039 c 166.012 181.762 l 166.012 178.934
 163.723 176.641 160.895 176.641 c 135.68 176.641 l 132.852 176.641 130.559
 178.934 130.559 181.762 c 130.559 186.879 l 130.559 192.527 125.965 197.121
 120.32 197.121 c 114.676 197.121 110.078 192.527 110.078 186.879 c 110.078
 181.762 l 110.078 178.934 107.789 176.641 104.961 176.641 c 99.84 176.641
 l 94.195 176.641 89.602 172.047 89.602 166.398 c 89.602 160.754 94.195 
156.16 99.84 156.16 c 104.961 156.16 l 107.789 156.16 110.078 153.867 110.078
 151.039 c 110.078 145.922 l 110.078 140.273 114.676 135.68 120.32 135.68
 c 125.965 135.68 130.559 140.273 130.559 145.922 c 130.559 151.039 l 130.559
 153.867 132.852 156.16 135.68 156.16 c 160.895 156.16 l 163.723 156.16 
166.012 153.867 166.012 151.039 c 166.012 104.961 l 166.012 102.133 163.723
 99.84 160.895 99.84 c 156.16 99.84 l 150.516 99.84 145.922 95.246 145.922
 89.602 c 145.922 83.953 150.516 79.359 156.16 79.359 c 160.895 79.359 l
 163.723 79.359 166.012 77.066 166.012 74.238 c 166.012 69.312 l 166.012
 63.559 170.695 58.879 176.445 58.879 c 182.199 58.879 186.879 63.559 186.879
 69.312 c 186.879 74.238 l 186.879 77.066 189.172 79.359 192 79.359 c 197.121
 79.359 l 202.766 79.359 207.359 83.953 207.359 89.602 c 207.359 95.246 
202.766 99.84 197.121 99.84 c 192 99.84 l 189.172 99.84 186.879 102.133 
186.879 104.961 c 186.879 151.039 l 186.879 153.867 189.172 156.16 192 156.16
 c 217.602 156.16 l 220.426 156.16 222.719 153.867 222.719 151.039 c 222.719
 145.922 l 222.719 140.273 227.312 135.68 232.961 135.68 c 238.605 135.68
 243.199 140.273 243.199 145.922 c 243.199 151.039 l 243.199 153.867 245.492
 156.16 248.32 156.16 c 253.441 156.16 l 259.086 156.16 263.68 160.754 263.68
 166.398 c 263.68 172.047 259.086 176.641 253.441 176.641 c h
253.441 176.641 m f
284.16 74.238 m 279.039 74.238 l 279.039 69.121 l 279.039 66.293 276.746
 64 273.922 64 c 271.094 64 268.801 66.293 268.801 69.121 c 268.801 74.238
 l 263.68 74.238 l 260.852 74.238 258.559 76.531 258.559 79.359 c 258.559
 82.188 260.852 84.48 263.68 84.48 c 268.801 84.48 l 268.801 89.602 l 268.801
 92.426 271.094 94.719 273.922 94.719 c 276.746 94.719 279.039 92.426 279.039
 89.602 c 279.039 84.48 l 284.16 84.48 l 286.988 84.48 289.281 82.188 289.281
 79.359 c 289.281 76.531 286.988 74.238 284.16 74.238 c h
284.16 74.238 m f
84.48 110.078 m 84.48 104.961 l 89.602 104.961 l 92.426 104.961 94.719 
102.668 94.719 99.84 c 94.719 97.012 92.426 94.719 89.602 94.719 c 84.48
 94.719 l 84.48 89.602 l 84.48 86.773 82.188 84.48 79.359 84.48 c 76.531
 84.48 74.238 86.773 74.238 89.602 c 74.238 94.719 l 69.121 94.719 l 66.293
 94.719 64 97.012 64 99.84 c 64 102.668 66.293 104.961 69.121 104.961 c 
74.238 104.961 l 74.238 110.078 l 74.238 112.906 76.531 115.199 79.359 115.199
 c 82.188 115.199 84.48 112.906 84.48 110.078 c h
84.48 110.078 m f
104.961 273.922 m 99.84 273.922 l 99.84 268.801 l 99.84 265.973 97.547 
263.68 94.719 263.68 c 91.891 263.68 89.602 265.973 89.602 268.801 c 89.602
 273.922 l 84.48 273.922 l 81.652 273.922 79.359 276.211 79.359 279.039 
c 79.359 281.867 81.652 284.16 84.48 284.16 c 89.602 284.16 l 89.602 289.281
 l 89.602 292.109 91.891 294.398 94.719 294.398 c 97.547 294.398 99.84 292.109
 99.84 289.281 c 99.84 284.16 l 104.961 284.16 l 107.789 284.16 110.078 
281.867 110.078 279.039 c 110.078 276.211 107.789 273.922 104.961 273.922
 c h
104.961 273.922 m f
314.879 207.359 m 309.762 207.359 l 309.762 202.238 l 309.762 199.414 307.469
 197.121 304.641 197.121 c 301.812 197.121 299.52 199.414 299.52 202.238
 c 299.52 207.359 l 294.398 207.359 l 291.574 207.359 289.281 209.652 289.281
 212.48 c 289.281 215.309 291.574 217.602 294.398 217.602 c 299.52 217.602
 l 299.52 222.719 l 299.52 225.547 301.812 227.84 304.641 227.84 c 307.469
 227.84 309.762 225.547 309.762 222.719 c 309.762 217.602 l 314.879 217.602
 l 317.707 217.602 320 215.309 320 212.48 c 320 209.652 317.707 207.359 
314.879 207.359 c h
314.879 207.359 m f
238.078 222.719 m 232.961 222.719 l 232.961 217.602 l 232.961 214.773 230.668
 212.48 227.84 212.48 c 225.012 212.48 222.719 214.773 222.719 217.602 c
 222.719 222.719 l 217.602 222.719 l 214.773 222.719 212.48 225.012 212.48
 227.84 c 212.48 230.668 214.773 232.961 217.602 232.961 c 222.719 232.961
 l 222.719 238.078 l 222.719 240.906 225.012 243.199 227.84 243.199 c 230.668
 243.199 232.961 240.906 232.961 238.078 c 232.961 232.961 l 238.078 232.961
 l 240.906 232.961 243.199 230.668 243.199 227.84 c 243.199 225.012 240.906
 222.719 238.078 222.719 c h
238.078 222.719 m f
Q Q
showpage
%%Trailer
end
%%EOF
