%!PS-Adobe-3.0 EPSF-3.0
%%Creator: cairo 1.16.0 (https://cairographics.org)
%%CreationDate: Thu Sep 19 06:52:24 2019
%%Pages: 1
%%DocumentData: Clean7Bit
%%LanguageLevel: 2
%%BoundingBox: 43 51 341 333
%%EndComments
%%BeginProlog
50 dict begin
/q { gsave } bind def
/Q { grestore } bind def
/cm { 6 array astore concat } bind def
/w { setlinewidth } bind def
/J { setlinecap } bind def
/j { setlinejoin } bind def
/M { setmiterlimit } bind def
/d { setdash } bind def
/m { moveto } bind def
/l { lineto } bind def
/c { curveto } bind def
/h { closepath } bind def
/re { exch dup neg 3 1 roll 5 3 roll moveto 0 rlineto
      0 exch rlineto 0 rlineto closepath } bind def
/S { stroke } bind def
/f { fill } bind def
/f* { eofill } bind def
/n { newpath } bind def
/W { clip } bind def
/W* { eoclip } bind def
/BT { } bind def
/ET { } bind def
/BDC { mark 3 1 roll /BDC pdfmark } bind def
/EMC { mark /EMC pdfmark } bind def
/cairo_store_point { /cairo_point_y exch def /cairo_point_x exch def } def
/Tj { show currentpoint cairo_store_point } bind def
/TJ {
  {
    dup
    type /stringtype eq
    { show } { -0.001 mul 0 cairo_font_matrix dtransform rmoveto } ifelse
  } forall
  currentpoint cairo_store_point
} bind def
/cairo_selectfont { cairo_font_matrix aload pop pop pop 0 0 6 array astore
    cairo_font exch selectfont cairo_point_x cairo_point_y moveto } bind def
/Tf { pop /cairo_font exch def /cairo_font_matrix where
      { pop cairo_selectfont } if } bind def
/Td { matrix translate cairo_font_matrix matrix concatmatrix dup
      /cairo_font_matrix exch def dup 4 get exch 5 get cairo_store_point
      /cairo_font where { pop cairo_selectfont } if } bind def
/Tm { 2 copy 8 2 roll 6 array astore /cairo_font_matrix exch def
      cairo_store_point /cairo_font where { pop cairo_selectfont } if } bind def
/g { setgray } bind def
/rg { setrgbcolor } bind def
/d1 { setcachedevice } bind def
/cairo_data_source {
  CairoDataIndex CairoData length lt
    { CairoData CairoDataIndex get /CairoDataIndex CairoDataIndex 1 add def }
    { () } ifelse
} def
/cairo_flush_ascii85_file { cairo_ascii85_file status { cairo_ascii85_file flushfile } if } def
/cairo_image { image cairo_flush_ascii85_file } def
/cairo_imagemask { imagemask cairo_flush_ascii85_file } def
%%EndProlog
%%BeginSetup
%%EndSetup
%%Page: 1 1
%%BeginPageSetup
%%PageBoundingBox: 43 51 341 333
%%EndPageSetup
q 43 51 298 282 rectclip
1 0 0 -1 0 384 cm q
0 g
268.801 117.762 m 212.48 117.762 l 212.48 56.32 l 212.48 53.492 210.188
 51.199 207.359 51.199 c 176.641 51.199 l 173.812 51.199 171.52 53.492 171.52
 56.32 c 171.52 117.762 l 115.199 117.762 l 112.371 117.762 110.078 120.051
 110.078 122.879 c 110.078 153.602 l 110.078 156.426 112.371 158.719 115.199
 158.719 c 171.52 158.719 l 171.52 327.68 l 171.52 330.508 173.812 332.801
 176.641 332.801 c 207.359 332.801 l 210.188 332.801 212.48 330.508 212.48
 327.68 c 212.48 158.719 l 268.801 158.719 l 271.629 158.719 273.922 156.426
 273.922 153.602 c 273.922 122.879 l 273.922 120.051 271.629 117.762 268.801
 117.762 c h
263.68 148.48 m 207.359 148.48 l 204.531 148.48 202.238 150.773 202.238
 153.602 c 202.238 322.559 l 181.762 322.559 l 181.762 153.602 l 181.762
 150.773 179.469 148.48 176.641 148.48 c 120.32 148.48 l 120.32 128 l 176.641
 128 l 179.469 128 181.762 125.707 181.762 122.879 c 181.762 61.441 l 202.238
 61.441 l 202.238 122.879 l 202.238 125.707 204.531 128 207.359 128 c 263.68
 128 l h
263.68 148.48 m f
75.301 70.617 m 73.301 68.621 70.059 68.621 68.059 70.617 c 66.062 72.617
 66.062 75.859 68.059 77.859 c 93.66 103.461 l 94.66 104.461 95.969 104.961
 97.281 104.961 c 98.59 104.961 99.902 104.461 100.898 103.461 c 102.898
 101.461 102.898 98.219 100.898 96.219 c h
75.301 70.617 m f
120.32 92.16 m 123.148 92.16 125.441 89.867 125.441 87.039 c 125.441 56.32
 l 125.441 53.492 123.148 51.199 120.32 51.199 c 117.492 51.199 115.199 
53.492 115.199 56.32 c 115.199 87.039 l 115.199 89.867 117.492 92.16 120.32
 92.16 c h
120.32 92.16 m f
84.48 112.641 m 48.641 112.641 l 45.812 112.641 43.52 114.934 43.52 117.762
 c 43.52 120.586 45.812 122.879 48.641 122.879 c 84.48 122.879 l 87.309 
122.879 89.602 120.586 89.602 117.762 c 89.602 114.934 87.309 112.641 84.48
 112.641 c h
84.48 112.641 m f
315.941 70.617 m 313.941 68.621 310.695 68.621 308.699 70.617 c 283.102
 96.219 l 281.102 98.219 281.102 101.461 283.102 103.461 c 284.098 104.461
 285.41 104.961 286.719 104.961 c 288.031 104.961 289.34 104.461 290.34 
103.461 c 315.941 77.859 l 317.941 75.859 317.941 72.621 315.941 70.617 
c h
315.941 70.617 m f
263.68 92.16 m 266.508 92.16 268.801 89.867 268.801 87.039 c 268.801 56.32
 l 268.801 53.492 266.508 51.199 263.68 51.199 c 260.852 51.199 258.559 
53.492 258.559 56.32 c 258.559 87.039 l 258.559 89.867 260.852 92.16 263.68
 92.16 c h
263.68 92.16 m f
335.359 112.641 m 299.52 112.641 l 296.691 112.641 294.398 114.934 294.398
 117.762 c 294.398 120.586 296.691 122.879 299.52 122.879 c 335.359 122.879
 l 338.188 122.879 340.48 120.586 340.48 117.762 c 340.48 114.934 338.188
 112.641 335.359 112.641 c h
335.359 112.641 m f
Q Q
showpage
%%Trailer
end
%%EOF
