%!PS-Adobe-3.0 EPSF-3.0
%%Creator: cairo 1.16.0 (https://cairographics.org)
%%CreationDate: Thu Sep 19 06:52:25 2019
%%Pages: 1
%%DocumentData: Clean7Bit
%%LanguageLevel: 2
%%BoundingBox: 48 56 336 328
%%EndComments
%%BeginProlog
50 dict begin
/q { gsave } bind def
/Q { grestore } bind def
/cm { 6 array astore concat } bind def
/w { setlinewidth } bind def
/J { setlinecap } bind def
/j { setlinejoin } bind def
/M { setmiterlimit } bind def
/d { setdash } bind def
/m { moveto } bind def
/l { lineto } bind def
/c { curveto } bind def
/h { closepath } bind def
/re { exch dup neg 3 1 roll 5 3 roll moveto 0 rlineto
      0 exch rlineto 0 rlineto closepath } bind def
/S { stroke } bind def
/f { fill } bind def
/f* { eofill } bind def
/n { newpath } bind def
/W { clip } bind def
/W* { eoclip } bind def
/BT { } bind def
/ET { } bind def
/BDC { mark 3 1 roll /BDC pdfmark } bind def
/EMC { mark /EMC pdfmark } bind def
/cairo_store_point { /cairo_point_y exch def /cairo_point_x exch def } def
/Tj { show currentpoint cairo_store_point } bind def
/TJ {
  {
    dup
    type /stringtype eq
    { show } { -0.001 mul 0 cairo_font_matrix dtransform rmoveto } ifelse
  } forall
  currentpoint cairo_store_point
} bind def
/cairo_selectfont { cairo_font_matrix aload pop pop pop 0 0 6 array astore
    cairo_font exch selectfont cairo_point_x cairo_point_y moveto } bind def
/Tf { pop /cairo_font exch def /cairo_font_matrix where
      { pop cairo_selectfont } if } bind def
/Td { matrix translate cairo_font_matrix matrix concatmatrix dup
      /cairo_font_matrix exch def dup 4 get exch 5 get cairo_store_point
      /cairo_font where { pop cairo_selectfont } if } bind def
/Tm { 2 copy 8 2 roll 6 array astore /cairo_font_matrix exch def
      cairo_store_point /cairo_font where { pop cairo_selectfont } if } bind def
/g { setgray } bind def
/rg { setrgbcolor } bind def
/d1 { setcachedevice } bind def
/cairo_data_source {
  CairoDataIndex CairoData length lt
    { CairoData CairoDataIndex get /CairoDataIndex CairoDataIndex 1 add def }
    { () } ifelse
} def
/cairo_flush_ascii85_file { cairo_ascii85_file status { cairo_ascii85_file flushfile } if } def
/cairo_image { image cairo_flush_ascii85_file } def
/cairo_imagemask { imagemask cairo_flush_ascii85_file } def
%%EndProlog
%%BeginSetup
%%EndSetup
%%Page: 1 1
%%BeginPageSetup
%%PageBoundingBox: 48 56 336 328
%%EndPageSetup
q 48 56 288 272 rectclip
1 0 0 -1 0 384 cm q
0 g
255.59 110.492 m 253.59 108.492 250.348 108.492 248.348 110.492 c 225.824
 133.02 l 206.375 113.566 l 228.898 91.043 l 229.859 90.082 230.398 88.781
 230.398 87.422 c 230.398 86.062 229.859 84.762 228.898 83.801 c 203.301
 58.203 l 201.301 56.203 198.062 56.203 196.062 58.203 c 170.461 83.801 
l 169.504 84.762 168.961 86.066 168.961 87.422 c 168.961 88.781 169.504 
90.082 170.461 91.043 c 192.988 113.566 l 173.535 133.02 l 151.012 110.496
 l 149.012 108.496 145.773 108.496 143.773 110.496 c 118.176 136.094 l 117.215
 137.051 116.676 138.355 116.676 139.715 c 116.676 141.07 117.215 142.375
 118.176 143.336 c 143.773 168.934 l 144.77 169.93 146.082 170.43 147.391
 170.43 c 148.703 170.43 150.012 169.93 151.012 168.934 c 173.535 146.406
 l 192.988 165.859 l 170.461 188.383 l 169.504 189.34 168.961 190.645 168.961
 192.004 c 168.961 193.359 169.504 194.664 170.461 195.625 c 192.988 218.148
 l 170.461 240.672 l 169.504 241.629 168.961 242.934 168.961 244.293 c 168.961
 245.648 169.504 246.953 170.461 247.914 c 192.988 270.438 l 170.461 292.961
 l 169.504 293.922 168.961 295.223 168.961 296.582 c 168.961 297.938 169.504
 299.242 170.461 300.203 c 196.059 325.801 l 197.059 326.801 198.371 327.297
 199.68 327.297 c 200.988 327.297 202.301 326.797 203.301 325.801 c 228.898
 300.203 l 229.855 299.242 230.398 297.938 230.398 296.582 c 230.398 295.223
 229.855 293.922 228.898 292.961 c 206.375 270.438 l 228.898 247.914 l 229.855
 246.953 230.398 245.648 230.398 244.293 c 230.398 242.934 229.855 241.633
 228.898 240.672 c 206.375 218.148 l 228.898 195.625 l 229.855 194.664 230.398
 193.359 230.398 192.004 c 230.398 190.645 229.855 189.344 228.898 188.383
 c 206.375 165.859 l 225.824 146.406 l 248.348 168.934 l 249.348 169.93 
250.66 170.43 251.969 170.43 c 253.277 170.43 254.59 169.93 255.586 168.934
 c 281.184 143.336 l 282.145 142.375 282.684 141.07 282.684 139.715 c 282.684
 138.355 282.145 137.055 281.184 136.094 c h
199.68 69.066 m 218.035 87.422 l 199.68 105.777 l 181.324 87.422 l h
147.391 158.07 m 129.035 139.711 l 147.391 121.355 l 165.746 139.711 l 
h
199.68 314.934 m 181.324 296.578 l 199.68 278.223 l 218.035 296.578 l h
199.68 262.645 m 181.324 244.289 l 199.68 225.93 l 218.035 244.289 l h
199.68 210.355 m 181.324 192 l 199.68 173.645 l 218.035 192 l h
199.68 158.07 m 181.324 139.711 l 199.68 121.355 l 218.035 139.711 l h
251.969 158.07 m 233.613 139.711 l 251.969 121.355 l 270.324 139.711 l 
h
251.969 158.07 m f
330.238 230.398 m 325.121 230.398 l 325.121 225.281 l 325.121 222.453 322.828
 220.16 320 220.16 c 317.172 220.16 314.879 222.453 314.879 225.281 c 314.879
 230.398 l 309.762 230.398 l 306.934 230.398 304.641 232.691 304.641 235.52
 c 304.641 238.348 306.934 240.641 309.762 240.641 c 314.879 240.641 l 314.879
 245.762 l 314.879 248.586 317.172 250.879 320 250.879 c 322.828 250.879
 325.121 248.586 325.121 245.762 c 325.121 240.641 l 330.238 240.641 l 333.066
 240.641 335.359 238.348 335.359 235.52 c 335.359 232.691 333.066 230.398
 330.238 230.398 c h
330.238 230.398 m f
156.16 261.121 m 151.039 261.121 l 151.039 256 l 151.039 253.172 148.746
 250.879 145.922 250.879 c 143.094 250.879 140.801 253.172 140.801 256 c
 140.801 261.121 l 135.68 261.121 l 132.852 261.121 130.559 263.414 130.559
 266.238 c 130.559 269.066 132.852 271.359 135.68 271.359 c 140.801 271.359
 l 140.801 276.48 l 140.801 279.309 143.094 281.602 145.922 281.602 c 148.746
 281.602 151.039 279.309 151.039 276.48 c 151.039 271.359 l 156.16 271.359
 l 158.988 271.359 161.281 269.066 161.281 266.238 c 161.281 263.414 158.988
 261.121 156.16 261.121 c h
156.16 261.121 m f
74.238 199.68 m 69.121 199.68 l 69.121 194.559 l 69.121 191.734 66.828 
189.441 64 189.441 c 61.172 189.441 58.879 191.734 58.879 194.559 c 58.879
 199.68 l 53.762 199.68 l 50.934 199.68 48.641 201.973 48.641 204.801 c 
48.641 207.629 50.934 209.922 53.762 209.922 c 58.879 209.922 l 58.879 215.039
 l 58.879 217.867 61.172 220.16 64 220.16 c 66.828 220.16 69.121 217.867
 69.121 215.039 c 69.121 209.922 l 74.238 209.922 l 77.066 209.922 79.359
 207.629 79.359 204.801 c 79.359 201.973 77.066 199.68 74.238 199.68 c h
74.238 199.68 m f
120.32 92.16 m 120.32 94.988 122.613 97.281 125.441 97.281 c 128.266 97.281
 130.559 94.988 130.559 92.16 c 130.559 87.039 l 135.68 87.039 l 138.508
 87.039 140.801 84.746 140.801 81.922 c 140.801 79.094 138.508 76.801 135.68
 76.801 c 130.559 76.801 l 130.559 71.68 l 130.559 68.852 128.266 66.559
 125.441 66.559 c 122.613 66.559 120.32 68.852 120.32 71.68 c 120.32 76.801
 l 115.199 76.801 l 112.371 76.801 110.078 79.094 110.078 81.922 c 110.078
 84.746 112.371 87.039 115.199 87.039 c 120.32 87.039 l h
120.32 92.16 m f
Q Q
showpage
%%Trailer
end
%%EOF
