%!PS-Adobe-3.0 EPSF-3.0
%%Creator: cairo 1.16.0 (https://cairographics.org)
%%CreationDate: Thu Sep 19 06:52:25 2019
%%Pages: 1
%%DocumentData: Clean7Bit
%%LanguageLevel: 2
%%BoundingBox: 106 53 278 331
%%EndComments
%%BeginProlog
50 dict begin
/q { gsave } bind def
/Q { grestore } bind def
/cm { 6 array astore concat } bind def
/w { setlinewidth } bind def
/J { setlinecap } bind def
/j { setlinejoin } bind def
/M { setmiterlimit } bind def
/d { setdash } bind def
/m { moveto } bind def
/l { lineto } bind def
/c { curveto } bind def
/h { closepath } bind def
/re { exch dup neg 3 1 roll 5 3 roll moveto 0 rlineto
      0 exch rlineto 0 rlineto closepath } bind def
/S { stroke } bind def
/f { fill } bind def
/f* { eofill } bind def
/n { newpath } bind def
/W { clip } bind def
/W* { eoclip } bind def
/BT { } bind def
/ET { } bind def
/BDC { mark 3 1 roll /BDC pdfmark } bind def
/EMC { mark /EMC pdfmark } bind def
/cairo_store_point { /cairo_point_y exch def /cairo_point_x exch def } def
/Tj { show currentpoint cairo_store_point } bind def
/TJ {
  {
    dup
    type /stringtype eq
    { show } { -0.001 mul 0 cairo_font_matrix dtransform rmoveto } ifelse
  } forall
  currentpoint cairo_store_point
} bind def
/cairo_selectfont { cairo_font_matrix aload pop pop pop 0 0 6 array astore
    cairo_font exch selectfont cairo_point_x cairo_point_y moveto } bind def
/Tf { pop /cairo_font exch def /cairo_font_matrix where
      { pop cairo_selectfont } if } bind def
/Td { matrix translate cairo_font_matrix matrix concatmatrix dup
      /cairo_font_matrix exch def dup 4 get exch 5 get cairo_store_point
      /cairo_font where { pop cairo_selectfont } if } bind def
/Tm { 2 copy 8 2 roll 6 array astore /cairo_font_matrix exch def
      cairo_store_point /cairo_font where { pop cairo_selectfont } if } bind def
/g { setgray } bind def
/rg { setrgbcolor } bind def
/d1 { setcachedevice } bind def
/cairo_data_source {
  CairoDataIndex CairoData length lt
    { CairoData CairoDataIndex get /CairoDataIndex CairoDataIndex 1 add def }
    { () } ifelse
} def
/cairo_flush_ascii85_file { cairo_ascii85_file status { cairo_ascii85_file flushfile } if } def
/cairo_image { image cairo_flush_ascii85_file } def
/cairo_imagemask { imagemask cairo_flush_ascii85_file } def
%%EndProlog
%%BeginSetup
%%EndSetup
%%Page: 1 1
%%BeginPageSetup
%%PageBoundingBox: 106 53 278 331
%%EndPageSetup
q 106 53 172 278 rectclip
1 0 0 -1 0 384 cm q
0 g
276.227 322.02 m 263.125 304.809 238.312 292.207 210.711 288.547 c 210.711
 232.961 l 226.07 232.961 l 227.074 232.961 228.055 232.664 228.895 232.113
 c 244.398 221.871 l 245.832 220.926 246.695 219.32 246.695 217.602 c 246.695
 215.879 245.832 214.277 244.398 213.328 c 228.895 203.086 l 228.055 202.535
 227.074 202.238 226.07 202.238 c 210.711 202.238 l 210.711 184.375 l 225.012
 178.902 238.031 166.781 248.445 148.926 c 262.523 124.793 270.277 92.812
 270.277 58.879 c 270.277 56.051 267.984 53.762 265.156 53.762 c 120.844
 53.762 l 118.016 53.762 115.727 56.051 115.727 58.879 c 115.727 71.004 
116.723 82.996 118.691 94.531 c 118.699 94.582 118.707 94.629 118.719 94.68
 c 120.902 105.555 l 120.91 105.605 120.922 105.656 120.934 105.703 c 130.25
 145.898 150.473 174.605 174.871 184.191 c 174.871 202.238 l 159.512 202.238
 l 158.508 202.238 157.527 202.535 156.691 203.086 c 141.184 213.328 l 139.746
 214.277 138.887 215.879 138.887 217.602 c 138.887 219.32 139.746 220.926
 141.184 221.871 c 156.691 232.113 l 157.527 232.664 158.508 232.961 159.512
 232.961 c 174.871 232.961 l 174.871 288.531 l 143.711 292.266 118.141 305.055
 107.484 322.445 c 106.516 324.027 106.477 326.004 107.383 327.621 c 108.285
 329.238 109.996 330.238 111.848 330.238 c 272.152 330.238 l 274.098 330.238
 275.875 329.137 276.738 327.395 c 277.602 325.648 277.402 323.566 276.227
 322.02 c h
255.223 101.934 m 253.754 103.855 251.527 104.961 249.113 104.961 c 244.875
 104.961 241.434 101.516 241.434 97.281 c 241.434 93.043 244.875 89.602 
249.113 89.602 c 252.469 89.602 255.406 91.742 256.43 94.934 c 256.504 95.176
 256.617 95.395 256.723 95.613 c 256.348 97.637 255.949 99.641 255.512 101.621
 c 255.418 101.727 255.309 101.816 255.223 101.934 c h
130.699 102.324 m 129.203 94.871 l 130.23 91.75 133.141 89.598 136.473 
89.598 c 140.707 89.598 144.152 93.043 144.152 97.277 c 144.152 101.516 
140.707 104.957 136.473 104.957 c 134.234 104.961 132.16 104 130.699 102.324
 c h
134.047 115.02 m 134.844 115.129 135.652 115.199 136.473 115.199 c 146.352
 115.199 154.391 107.16 154.391 97.281 c 154.391 87.398 146.352 79.359 136.473
 79.359 c 133.141 79.359 129.992 80.289 127.277 81.914 c 126.613 76.02 126.176
 70.039 126.027 64 c 259.977 64 l 259.828 70.152 259.398 76.207 258.727 
82.148 c 255.922 80.371 252.617 79.359 249.109 79.359 c 239.23 79.359 231.191
 87.398 231.191 97.281 c 231.191 107.16 239.23 115.199 249.109 115.199 c
 250.09 115.199 251.051 115.094 251.996 114.941 c 248.77 125.438 244.621
 135.156 239.602 143.766 c 226.926 165.492 210.379 177.457 193 177.457 c
 168.559 177.457 145.707 152.82 134.047 115.02 c h
122.668 320 m 134.715 308.641 156.082 300.414 180.445 298.242 c 183.086
 298.008 185.109 295.793 185.109 293.145 c 185.109 227.84 l 185.109 225.012
 182.82 222.719 179.992 222.719 c 161.051 222.719 l 153.297 217.602 l 161.051
 212.48 l 179.992 212.48 l 182.82 212.48 185.109 210.188 185.109 207.359
 c 185.109 187.027 l 187.711 187.457 190.34 187.695 193 187.695 c 195.512
 187.695 198.004 187.496 200.473 187.113 c 200.473 207.359 l 200.473 210.188
 202.762 212.48 205.59 212.48 c 224.531 212.48 l 232.285 217.602 l 224.531
 222.719 l 205.59 222.719 l 202.762 222.719 200.473 225.012 200.473 227.84
 c 200.473 293.113 l 200.473 295.754 202.477 297.961 205.105 298.211 c 226.57
 300.258 246.988 308.484 260.273 320 c h
122.668 320 m f
210.711 97.281 m 210.711 87.398 202.672 79.359 192.793 79.359 c 182.91 
79.359 174.871 87.398 174.871 97.281 c 174.871 107.16 182.91 115.199 192.793
 115.199 c 202.672 115.199 210.711 107.16 210.711 97.281 c h
192.793 104.961 m 188.555 104.961 185.109 101.516 185.109 97.281 c 185.109
 93.043 188.555 89.602 192.793 89.602 c 197.027 89.602 200.473 93.043 200.473
 97.281 c 200.473 101.516 197.027 104.961 192.793 104.961 c h
192.793 104.961 m f
Q Q
showpage
%%Trailer
end
%%EOF
