%!PS-Adobe-3.0 EPSF-3.0
%%Creator: cairo 1.16.0 (https://cairographics.org)
%%CreationDate: Thu Sep 19 06:52:25 2019
%%Pages: 1
%%DocumentData: Clean7Bit
%%LanguageLevel: 2
%%BoundingBox: 53 68 331 316
%%EndComments
%%BeginProlog
50 dict begin
/q { gsave } bind def
/Q { grestore } bind def
/cm { 6 array astore concat } bind def
/w { setlinewidth } bind def
/J { setlinecap } bind def
/j { setlinejoin } bind def
/M { setmiterlimit } bind def
/d { setdash } bind def
/m { moveto } bind def
/l { lineto } bind def
/c { curveto } bind def
/h { closepath } bind def
/re { exch dup neg 3 1 roll 5 3 roll moveto 0 rlineto
      0 exch rlineto 0 rlineto closepath } bind def
/S { stroke } bind def
/f { fill } bind def
/f* { eofill } bind def
/n { newpath } bind def
/W { clip } bind def
/W* { eoclip } bind def
/BT { } bind def
/ET { } bind def
/BDC { mark 3 1 roll /BDC pdfmark } bind def
/EMC { mark /EMC pdfmark } bind def
/cairo_store_point { /cairo_point_y exch def /cairo_point_x exch def } def
/Tj { show currentpoint cairo_store_point } bind def
/TJ {
  {
    dup
    type /stringtype eq
    { show } { -0.001 mul 0 cairo_font_matrix dtransform rmoveto } ifelse
  } forall
  currentpoint cairo_store_point
} bind def
/cairo_selectfont { cairo_font_matrix aload pop pop pop 0 0 6 array astore
    cairo_font exch selectfont cairo_point_x cairo_point_y moveto } bind def
/Tf { pop /cairo_font exch def /cairo_font_matrix where
      { pop cairo_selectfont } if } bind def
/Td { matrix translate cairo_font_matrix matrix concatmatrix dup
      /cairo_font_matrix exch def dup 4 get exch 5 get cairo_store_point
      /cairo_font where { pop cairo_selectfont } if } bind def
/Tm { 2 copy 8 2 roll 6 array astore /cairo_font_matrix exch def
      cairo_store_point /cairo_font where { pop cairo_selectfont } if } bind def
/g { setgray } bind def
/rg { setrgbcolor } bind def
/d1 { setcachedevice } bind def
/cairo_data_source {
  CairoDataIndex CairoData length lt
    { CairoData CairoDataIndex get /CairoDataIndex CairoDataIndex 1 add def }
    { () } ifelse
} def
/cairo_flush_ascii85_file { cairo_ascii85_file status { cairo_ascii85_file flushfile } if } def
/cairo_image { image cairo_flush_ascii85_file } def
/cairo_imagemask { imagemask cairo_flush_ascii85_file } def
%%EndProlog
%%BeginSetup
%%EndSetup
%%Page: 1 1
%%BeginPageSetup
%%PageBoundingBox: 53 68 331 316
%%EndPageSetup
q 53 68 278 248 rectclip
1 0 0 -1 0 384 cm q
0 g
327.965 157.266 m 321.461 152.93 l 295.547 135.652 260.754 139.102 238.734
 161.121 c 233.477 166.379 l 230.848 169.008 227.832 171.254 224.57 173.047
 c 193.746 141.723 154.977 72.234 154.586 71.531 c 153.867 70.238 152.625
 69.32 151.18 69.012 c 149.734 68.699 148.223 69.035 147.039 69.922 c 128.211
 84.043 122.203 100.762 120.684 113.258 c 112.051 102.707 106.719 95.156
 106.574 94.945 c 105.562 93.504 103.891 92.672 102.113 92.77 c 100.352 
92.863 98.762 93.855 97.906 95.398 c 76.348 134.195 82.098 166.305 90.715
 186.41 c 95.09 196.617 100.566 204.773 105.215 210.609 c 81.531 205.395
 62.566 188.199 62.348 187.996 c 60.707 186.48 58.27 186.207 56.332 187.32
 c 54.391 188.43 53.398 190.668 53.875 192.852 c 60.301 222.336 75.477 247.879
 98.98 268.77 c 133.344 299.312 166.734 315.105 196.551 315.102 c 201.699
 315.102 206.75 314.629 211.668 313.684 c 238.988 308.422 262.098 288.305
 278.496 255.508 c 298.895 214.707 329.199 164.68 329.504 164.18 c 330.926
 161.836 330.246 158.785 327.965 157.266 c h
148.645 81.824 m 158.105 98.344 187.816 148.691 214.164 176.988 c 205.406
 178.961 196.27 177.961 188.566 174.09 c 167.332 163.426 145.945 142.355
 130.336 124.633 c 130.484 124.109 130.574 123.562 130.543 122.988 c 130.066
 113.738 131.945 96.715 148.645 81.824 c h
269.336 250.93 m 254.203 281.195 234.148 298.926 209.734 303.629 c 179.543
 309.441 143.609 294.738 105.781 261.113 c 87.867 245.191 75.164 226.395
 67.887 205.078 c 79.465 212.785 97.918 222.332 118.293 222.332 c 120.43
 222.332 122.34 220.996 123.086 218.992 c 123.832 216.988 123.25 214.727
 121.629 213.328 c 121.496 213.215 108.281 201.664 99.961 181.996 c 89.875
 158.156 90.953 133.16 103.133 107.582 c 115.539 124.043 149.223 165.789
 183.969 183.242 c 195.242 188.906 208.852 189.773 221.305 185.617 c 228.582
 183.191 235.293 179.043 240.715 173.621 c 245.973 168.363 l 264.555 149.777
 293.914 146.871 315.781 161.449 c 318.219 163.074 l 310.453 176.059 286.461
 216.676 269.336 250.93 c h
269.336 250.93 m f
281.371 167.879 m 278.289 167.879 275.793 170.379 275.793 173.457 c 275.793
 176.539 278.289 179.039 281.371 179.039 c 284.453 179.039 286.949 176.539
 286.949 173.457 c 286.949 170.375 284.453 167.879 281.371 167.879 c h
281.371 167.879 m f
Q Q
showpage
%%Trailer
end
%%EOF
