%!PS-Adobe-3.0 EPSF-3.0
%%Creator: cairo 1.16.0 (https://cairographics.org)
%%CreationDate: Thu Sep 19 06:52:25 2019
%%Pages: 1
%%DocumentData: Clean7Bit
%%LanguageLevel: 2
%%BoundingBox: 57 43 327 341
%%EndComments
%%BeginProlog
50 dict begin
/q { gsave } bind def
/Q { grestore } bind def
/cm { 6 array astore concat } bind def
/w { setlinewidth } bind def
/J { setlinecap } bind def
/j { setlinejoin } bind def
/M { setmiterlimit } bind def
/d { setdash } bind def
/m { moveto } bind def
/l { lineto } bind def
/c { curveto } bind def
/h { closepath } bind def
/re { exch dup neg 3 1 roll 5 3 roll moveto 0 rlineto
      0 exch rlineto 0 rlineto closepath } bind def
/S { stroke } bind def
/f { fill } bind def
/f* { eofill } bind def
/n { newpath } bind def
/W { clip } bind def
/W* { eoclip } bind def
/BT { } bind def
/ET { } bind def
/BDC { mark 3 1 roll /BDC pdfmark } bind def
/EMC { mark /EMC pdfmark } bind def
/cairo_store_point { /cairo_point_y exch def /cairo_point_x exch def } def
/Tj { show currentpoint cairo_store_point } bind def
/TJ {
  {
    dup
    type /stringtype eq
    { show } { -0.001 mul 0 cairo_font_matrix dtransform rmoveto } ifelse
  } forall
  currentpoint cairo_store_point
} bind def
/cairo_selectfont { cairo_font_matrix aload pop pop pop 0 0 6 array astore
    cairo_font exch selectfont cairo_point_x cairo_point_y moveto } bind def
/Tf { pop /cairo_font exch def /cairo_font_matrix where
      { pop cairo_selectfont } if } bind def
/Td { matrix translate cairo_font_matrix matrix concatmatrix dup
      /cairo_font_matrix exch def dup 4 get exch 5 get cairo_store_point
      /cairo_font where { pop cairo_selectfont } if } bind def
/Tm { 2 copy 8 2 roll 6 array astore /cairo_font_matrix exch def
      cairo_store_point /cairo_font where { pop cairo_selectfont } if } bind def
/g { setgray } bind def
/rg { setrgbcolor } bind def
/d1 { setcachedevice } bind def
/cairo_data_source {
  CairoDataIndex CairoData length lt
    { CairoData CairoDataIndex get /CairoDataIndex CairoDataIndex 1 add def }
    { () } ifelse
} def
/cairo_flush_ascii85_file { cairo_ascii85_file status { cairo_ascii85_file flushfile } if } def
/cairo_image { image cairo_flush_ascii85_file } def
/cairo_imagemask { imagemask cairo_flush_ascii85_file } def
%%EndProlog
%%BeginSetup
%%EndSetup
%%Page: 1 1
%%BeginPageSetup
%%PageBoundingBox: 57 43 327 341
%%EndPageSetup
q 57 43 270 298 rectclip
1 0 0 -1 0 384 cm q
0 g
313.648 94.367 m 307.965 82.418 300.582 71.711 292.297 63.398 c 279.27 
50.332 264.43 43.426 249.383 43.426 c 234.336 43.426 219.5 50.332 206.469
 63.398 c 201.336 68.547 196.598 74.539 192.355 81.234 c 182.59 76.68 172.496
 74.336 162.344 74.336 c 142.027 74.336 121.941 83.711 104.262 101.441 c
 92.938 112.801 82.836 127.457 75.055 143.816 c 63.844 167.387 57.668 193.773
 57.668 218.125 c 57.668 236.57 61.086 254.305 67.828 270.832 c 74.543 287.289
 84.559 302.074 96.797 313.586 c 115.301 330.992 138.578 340.578 162.344
 340.578 c 186.105 340.578 209.387 330.992 227.891 313.586 c 240.129 302.074
 250.148 287.285 256.859 270.832 c 261.355 259.805 264.367 248.242 265.879
 236.289 c 277.449 233.332 288.379 227.234 297.656 218.512 c 306.633 210.066
 313.977 199.227 318.898 187.16 c 323.832 175.066 326.336 162.09 326.336
 148.594 c 326.332 130.82 321.828 111.562 313.648 94.367 c h
162.344 84.578 m 176.289 84.578 190.262 89.848 203.305 99.938 c 121.379
 99.938 l 134.422 89.848 148.395 84.578 162.344 84.578 c h
214.609 110.176 m 222.848 118.754 230.379 129.219 236.676 140.898 c 88.02
 140.898 l 94.305 129.23 101.816 118.75 110.051 110.176 c h
241.723 151.137 m 248.406 165.902 253.016 181.699 255.238 197.246 c 250.891
 197.867 246.883 199.922 243.848 203.145 c 240.605 206.598 l 238.801 208.516
 236.355 209.555 233.719 209.484 c 231.086 209.426 228.691 208.293 226.973
 206.301 c 223.316 202.047 218 199.586 212.391 199.551 c 212.344 199.547
 212.305 199.547 212.262 199.547 c 206.695 199.547 201.402 201.934 197.715
 206.105 c 197.336 206.535 l 195.605 208.492 193.215 209.594 190.605 209.629
 c 187.953 209.672 185.566 208.645 183.789 206.746 c 183.602 206.547 l 179.949
 202.656 174.789 200.422 169.453 200.422 c 164.113 200.422 158.957 202.656
 155.301 206.547 c 153.414 208.559 l 150.164 212.016 144.715 212.406 141.008
 209.445 c 133.176 203.191 l 125.328 196.918 113.789 197.746 106.91 205.07
 c 105.023 207.078 l 103.273 208.945 100.898 209.973 98.34 209.973 c 95.781
 209.973 93.406 208.945 91.656 207.082 c 91.074 206.461 l 87.387 202.535
 82.387 200.359 77 200.34 c 76.973 200.34 76.949 200.34 76.922 200.34 c 
74.07 200.34 71.328 200.961 68.824 202.113 c 70.73 185.02 75.574 167.445
 82.957 151.137 c h
76.062 263.777 m 70.652 249.395 67.906 234.059 67.906 218.125 c 67.906 
217.02 67.934 215.91 67.961 214.801 c 68.82 214.562 69.633 214.113 70.293
 213.422 c 72.039 211.586 74.395 210.578 76.926 210.578 c 76.961 210.578
 l 79.508 210.59 81.871 211.617 83.609 213.469 c 84.191 214.09 l 87.844 
217.98 93.004 220.211 98.34 220.211 c 103.68 220.211 108.836 217.98 112.492
 214.086 c 114.379 212.078 l 117.629 208.617 123.078 208.23 126.785 211.191
 c 134.617 217.445 l 138.152 220.27 142.434 221.656 146.703 221.656 c 151.91
 221.656 157.098 219.594 160.879 215.566 c 162.766 213.559 l 164.52 211.691
 166.895 210.664 169.453 210.664 c 172.012 210.664 174.387 211.691 176.129
 213.547 c 176.316 213.75 l 179.98 217.648 185.125 219.871 190.469 219.871
 c 190.566 219.871 190.664 219.871 190.762 219.871 c 196.211 219.789 201.402
 217.398 205.016 213.316 c 205.391 212.887 l 207.133 210.914 209.633 209.789
 212.262 209.789 c 212.281 209.789 212.305 209.789 212.324 209.789 c 214.973
 209.809 217.484 210.969 219.211 212.977 c 222.797 217.145 228.004 219.602
 233.496 219.723 c 239.012 219.883 244.301 217.617 248.066 213.613 c 251.312
 210.16 l 252.664 208.723 254.43 207.77 256.352 207.422 c 256.625 211.023
 256.781 214.602 256.781 218.125 c 256.781 234.059 254.035 249.395 248.621
 263.777 c h
162.344 330.336 m 145.32 330.336 129.062 325.066 114.66 314.977 c 210.023
 314.977 l 195.625 325.066 179.363 330.336 162.344 330.336 c h
222.281 304.738 m 102.402 304.738 l 93.617 296.133 86.121 285.664 80.457
 274.016 c 244.227 274.016 l 238.566 285.66 231.07 296.133 222.281 304.738
 c h
309.414 183.293 m 305.047 194.008 298.551 203.605 290.637 211.051 c 283.574
 217.695 275.441 222.566 266.836 225.363 c 266.953 222.965 267.016 220.551
 267.016 218.125 c 267.016 193.777 260.844 167.391 249.629 143.816 c 241.848
 127.457 231.746 112.801 220.422 101.441 c 214.324 95.328 207.941 90.234
 201.363 86.152 c 205.109 80.316 209.254 75.105 213.715 70.629 c 224.785
 59.527 237.117 53.664 249.379 53.664 c 261.645 53.664 273.977 59.527 285.043
 70.629 c 292.516 78.125 299.207 87.855 304.398 98.766 c 311.938 114.613
 316.09 132.309 316.09 148.594 c 316.094 160.754 313.848 172.43 309.414 
183.293 c h
309.414 183.293 m f
115.125 176.738 m 115.125 182.395 110.539 186.977 104.883 186.977 c 99.23
 186.977 94.645 182.395 94.645 176.738 c 94.645 171.082 99.23 166.496 104.883
 166.496 c 110.539 166.496 115.125 171.082 115.125 176.738 c h
115.125 176.738 m f
139.953 176.738 m 139.953 179.141 138.008 181.086 135.605 181.086 c 133.203
 181.086 131.258 179.141 131.258 176.738 c 131.258 174.336 133.203 172.391
 135.605 172.391 c 138.008 172.391 139.953 174.336 139.953 176.738 c h
139.953 176.738 m f
196.273 176.738 m 196.273 179.141 194.324 181.086 191.926 181.086 c 189.523
 181.086 187.578 179.141 187.578 176.738 c 187.578 174.336 189.523 172.391
 191.926 172.391 c 194.324 172.391 196.273 174.336 196.273 176.738 c h
196.273 176.738 m f
139.953 243.297 m 139.953 245.699 138.008 247.645 135.605 247.645 c 133.203
 247.645 131.258 245.699 131.258 243.297 c 131.258 240.895 133.203 238.949
 135.605 238.949 c 138.008 238.949 139.953 240.895 139.953 243.297 c h
139.953 243.297 m f
196.273 243.297 m 196.273 245.699 194.324 247.645 191.926 247.645 c 189.523
 247.645 187.578 245.699 187.578 243.297 c 187.578 240.895 189.523 238.949
 191.926 238.949 c 194.324 238.949 196.273 240.895 196.273 243.297 c h
196.273 243.297 m f
171.445 176.738 m 171.445 182.395 166.859 186.977 161.203 186.977 c 155.551
 186.977 150.965 182.395 150.965 176.738 c 150.965 171.082 155.551 166.496
 161.203 166.496 c 166.859 166.496 171.445 171.082 171.445 176.738 c h
171.445 176.738 m f
227.766 176.738 m 227.766 182.395 223.18 186.977 217.523 186.977 c 211.867
 186.977 207.285 182.395 207.285 176.738 c 207.285 171.082 211.867 166.496
 217.523 166.496 c 223.18 166.496 227.766 171.082 227.766 176.738 c h
227.766 176.738 m f
115.125 243.297 m 115.125 248.953 110.539 253.539 104.883 253.539 c 99.23
 253.539 94.645 248.953 94.645 243.297 c 94.645 237.641 99.23 233.059 104.883
 233.059 c 110.539 233.059 115.125 237.641 115.125 243.297 c h
115.125 243.297 m f
171.445 243.297 m 171.445 248.953 166.859 253.539 161.203 253.539 c 155.551
 253.539 150.965 248.953 150.965 243.297 c 150.965 237.641 155.551 233.059
 161.203 233.059 c 166.859 233.059 171.445 237.641 171.445 243.297 c h
171.445 243.297 m f
227.766 243.297 m 227.766 248.953 223.18 253.539 217.523 253.539 c 211.867
 253.539 207.285 248.953 207.285 243.297 c 207.285 237.641 211.867 233.059
 217.523 233.059 c 223.18 233.059 227.766 237.641 227.766 243.297 c h
227.766 243.297 m f
Q Q
showpage
%%Trailer
end
%%EOF
