%!PS-Adobe-3.0 EPSF-3.0
%%Creator: cairo 1.16.0 (https://cairographics.org)
%%CreationDate: Thu Sep 19 06:52:25 2019
%%Pages: 1
%%DocumentData: Clean7Bit
%%LanguageLevel: 2
%%BoundingBox: 61 60 323 324
%%EndComments
%%BeginProlog
50 dict begin
/q { gsave } bind def
/Q { grestore } bind def
/cm { 6 array astore concat } bind def
/w { setlinewidth } bind def
/J { setlinecap } bind def
/j { setlinejoin } bind def
/M { setmiterlimit } bind def
/d { setdash } bind def
/m { moveto } bind def
/l { lineto } bind def
/c { curveto } bind def
/h { closepath } bind def
/re { exch dup neg 3 1 roll 5 3 roll moveto 0 rlineto
      0 exch rlineto 0 rlineto closepath } bind def
/S { stroke } bind def
/f { fill } bind def
/f* { eofill } bind def
/n { newpath } bind def
/W { clip } bind def
/W* { eoclip } bind def
/BT { } bind def
/ET { } bind def
/BDC { mark 3 1 roll /BDC pdfmark } bind def
/EMC { mark /EMC pdfmark } bind def
/cairo_store_point { /cairo_point_y exch def /cairo_point_x exch def } def
/Tj { show currentpoint cairo_store_point } bind def
/TJ {
  {
    dup
    type /stringtype eq
    { show } { -0.001 mul 0 cairo_font_matrix dtransform rmoveto } ifelse
  } forall
  currentpoint cairo_store_point
} bind def
/cairo_selectfont { cairo_font_matrix aload pop pop pop 0 0 6 array astore
    cairo_font exch selectfont cairo_point_x cairo_point_y moveto } bind def
/Tf { pop /cairo_font exch def /cairo_font_matrix where
      { pop cairo_selectfont } if } bind def
/Td { matrix translate cairo_font_matrix matrix concatmatrix dup
      /cairo_font_matrix exch def dup 4 get exch 5 get cairo_store_point
      /cairo_font where { pop cairo_selectfont } if } bind def
/Tm { 2 copy 8 2 roll 6 array astore /cairo_font_matrix exch def
      cairo_store_point /cairo_font where { pop cairo_selectfont } if } bind def
/g { setgray } bind def
/rg { setrgbcolor } bind def
/d1 { setcachedevice } bind def
/cairo_data_source {
  CairoDataIndex CairoData length lt
    { CairoData CairoDataIndex get /CairoDataIndex CairoDataIndex 1 add def }
    { () } ifelse
} def
/cairo_flush_ascii85_file { cairo_ascii85_file status { cairo_ascii85_file flushfile } if } def
/cairo_image { image cairo_flush_ascii85_file } def
/cairo_imagemask { imagemask cairo_flush_ascii85_file } def
%%EndProlog
%%BeginSetup
%%EndSetup
%%Page: 1 1
%%BeginPageSetup
%%PageBoundingBox: 61 60 323 324
%%EndPageSetup
q 61 60 262 264 rectclip
1 0 0 -1 0 384 cm q
0 g
243.961 161.77 m 251.828 135.285 235.781 109.426 235.094 108.34 c 234.066
 106.715 232.219 105.801 230.301 105.977 c 228.383 106.152 226.727 107.387
 226.012 109.172 c 225.742 109.848 225.477 110.473 225.219 111.051 c 224.266
 79.789 191.598 61.801 191.223 61.602 c 190.008 60.945 188.578 60.812 187.254
 61.227 c 185.938 61.645 184.84 62.578 184.219 63.812 c 184.16 63.934 177.809
 76.426 148.48 123.352 c 139.453 137.797 136.84 151.547 140.715 164.219 
c 146.805 184.141 166.961 194.969 175.344 198.699 c 177.48 199.652 179.777
 200.133 182.168 200.133 c 201.242 200.133 l 203.688 200.133 206.113 199.613
 208.258 198.633 c 227.273 189.914 239.281 177.512 243.961 161.77 c h
185.867 189.891 m 185.867 189.84 l 182.93 189.766 180.254 188.273 178.699
 185.844 c 173.039 176.988 171.723 167.582 174.75 157.789 c 177.645 161.168
 181.438 164.156 185.797 164.156 c 187.254 164.156 188.641 163.539 189.613
 162.453 c 190.586 161.367 191.047 159.918 190.887 158.473 c 190.391 154.023
 190.168 144.168 192.398 135.512 c 195.043 143.449 200.246 152.5 210.488
 157.621 c 212.543 158.648 213.758 160.059 214.32 162.07 c 215.77 167.258
 212.941 176.219 206.75 186.047 c 205.156 188.578 202.68 189.891 199.746
 189.891 c h
222.508 177.254 m 224.613 171.371 225.762 164.965 224.184 159.316 c 222.844
 154.527 219.691 150.773 215.07 148.461 c 200.195 141.023 199.914 120.262
 199.914 120.066 c 199.914 117.996 198.664 116.129 196.75 115.336 c 194.84
 114.543 192.637 114.98 191.172 116.445 c 182.91 124.707 180.781 138.449
 180.41 148.215 c 179.676 147.105 178.977 145.926 178.391 144.758 c 177.539
 143.051 175.809 141.961 173.902 141.926 c 171.961 141.902 170.227 142.922
 169.316 144.594 c 161.562 158.805 161.863 171.055 164.957 180.602 c 158.973
 175.91 153.027 169.461 150.508 161.223 c 147.539 151.512 149.777 140.594
 157.164 128.777 c 177.32 96.527 186.668 80.496 190.684 73.352 c 199.867
 79.73 220.027 96.945 213.809 121.824 c 213.227 124.152 214.34 126.57 216.484
 127.645 c 217.246 128.027 220.02 129.16 223.734 127.742 c 226.242 126.789
 228.512 124.953 230.586 122.195 c 234.203 130.875 238.266 145.078 234.129
 158.914 c 232.074 165.777 228.176 171.898 222.508 177.254 c h
222.508 177.254 m f
304.641 107.973 m 294.812 107.973 286.805 115.926 286.723 125.734 c 283.582
 180.773 l 282.91 180.629 282.227 180.527 281.531 180.469 c 276.84 180.078
 272.242 181.766 268.914 185.094 c 229.414 224.598 l 220.145 233.863 215.043
 246.188 215.043 259.297 c 215.043 317.891 l 215.043 320.719 217.332 323.012
 220.16 323.012 c 266.242 323.012 l 269.07 323.012 271.359 320.719 271.359
 317.891 c 271.359 300.574 l 271.359 293.055 273.887 285.629 278.473 279.668
 c 308.535 240.586 l 317.578 228.828 322.562 214.18 322.562 199.344 c 322.562
 125.891 l 322.559 116.012 314.523 107.973 304.641 107.973 c h
312.32 199.344 m 312.32 211.934 308.094 224.363 300.414 234.344 c 270.352
 273.426 l 264.398 281.168 261.121 290.809 261.121 300.574 c 261.121 312.77
 l 225.281 312.77 l 225.281 259.297 l 225.281 248.926 229.32 239.172 236.652
 231.836 c 276.152 192.336 l 277.367 191.125 278.977 190.535 280.688 190.676
 c 281.898 190.773 283 191.23 283.895 191.98 c 284.191 192.457 284.566 192.879
 285.004 193.234 c 286.512 195.508 286.215 198.516 284.273 200.457 c 257.5
 227.23 l 255.5 229.23 255.5 232.473 257.5 234.473 c 259.5 236.473 262.742
 236.473 264.738 234.473 c 291.512 207.699 l 296.961 202.25 297.75 193.797
 293.457 187.449 c 296.949 126.184 l 296.957 126.086 296.961 125.988 296.961
 125.891 c 296.961 121.656 300.406 118.211 304.641 118.211 c 308.875 118.211
 312.32 121.656 312.32 125.891 c h
312.32 199.344 m f
115.086 185.098 m 111.758 181.77 107.16 180.082 102.469 180.473 c 101.934
 180.516 101.402 180.586 100.879 180.684 c 97.281 125.711 l 97.18 115.91
 89.18 107.973 79.359 107.973 c 69.477 107.973 61.441 116.012 61.441 125.891
 c 61.441 199.348 l 61.441 214.184 66.422 228.828 75.469 240.59 c 105.527
 279.672 l 110.113 285.629 112.641 293.055 112.641 300.574 c 112.641 317.891
 l 112.641 320.719 114.934 323.012 117.762 323.012 c 163.84 323.012 l 166.668
 323.012 168.961 320.719 168.961 317.891 c 168.961 259.297 l 168.961 246.191
 163.855 233.867 154.586 224.598 c h
158.719 312.773 m 122.879 312.773 l 122.879 300.574 l 122.879 290.809 119.602
 281.168 113.645 273.426 c 83.586 234.348 l 75.906 224.367 71.68 211.938
 71.68 199.344 c 71.68 125.891 l 71.68 121.656 75.125 118.211 79.359 118.211
 c 83.594 118.211 87.039 121.656 87.039 125.891 c 87.039 126.004 87.043 
126.113 87.051 126.227 c 91.016 186.789 l 90.938 186.895 90.859 187 90.781
 187.109 c 86.223 193.492 86.938 202.152 92.488 207.695 c 119.262 234.469
 l 121.258 236.469 124.504 236.469 126.5 234.469 c 128.5 232.473 128.5 229.23
 126.5 227.23 c 99.727 200.453 l 97.73 198.461 97.473 195.352 99.113 193.059
 c 100.109 191.664 101.602 190.816 103.312 190.676 c 105.02 190.535 106.633
 191.125 107.844 192.336 c 147.344 231.836 l 154.68 239.172 158.719 248.926
 158.719 259.297 c h
158.719 312.773 m f
Q Q
showpage
%%Trailer
end
%%EOF
