%!PS-Adobe-3.0 EPSF-3.0
%%Creator: cairo 1.16.0 (https://cairographics.org)
%%CreationDate: Thu Sep 19 06:52:26 2019
%%Pages: 1
%%DocumentData: Clean7Bit
%%LanguageLevel: 2
%%BoundingBox: 51 61 333 323
%%EndComments
%%BeginProlog
50 dict begin
/q { gsave } bind def
/Q { grestore } bind def
/cm { 6 array astore concat } bind def
/w { setlinewidth } bind def
/J { setlinecap } bind def
/j { setlinejoin } bind def
/M { setmiterlimit } bind def
/d { setdash } bind def
/m { moveto } bind def
/l { lineto } bind def
/c { curveto } bind def
/h { closepath } bind def
/re { exch dup neg 3 1 roll 5 3 roll moveto 0 rlineto
      0 exch rlineto 0 rlineto closepath } bind def
/S { stroke } bind def
/f { fill } bind def
/f* { eofill } bind def
/n { newpath } bind def
/W { clip } bind def
/W* { eoclip } bind def
/BT { } bind def
/ET { } bind def
/BDC { mark 3 1 roll /BDC pdfmark } bind def
/EMC { mark /EMC pdfmark } bind def
/cairo_store_point { /cairo_point_y exch def /cairo_point_x exch def } def
/Tj { show currentpoint cairo_store_point } bind def
/TJ {
  {
    dup
    type /stringtype eq
    { show } { -0.001 mul 0 cairo_font_matrix dtransform rmoveto } ifelse
  } forall
  currentpoint cairo_store_point
} bind def
/cairo_selectfont { cairo_font_matrix aload pop pop pop 0 0 6 array astore
    cairo_font exch selectfont cairo_point_x cairo_point_y moveto } bind def
/Tf { pop /cairo_font exch def /cairo_font_matrix where
      { pop cairo_selectfont } if } bind def
/Td { matrix translate cairo_font_matrix matrix concatmatrix dup
      /cairo_font_matrix exch def dup 4 get exch 5 get cairo_store_point
      /cairo_font where { pop cairo_selectfont } if } bind def
/Tm { 2 copy 8 2 roll 6 array astore /cairo_font_matrix exch def
      cairo_store_point /cairo_font where { pop cairo_selectfont } if } bind def
/g { setgray } bind def
/rg { setrgbcolor } bind def
/d1 { setcachedevice } bind def
/cairo_data_source {
  CairoDataIndex CairoData length lt
    { CairoData CairoDataIndex get /CairoDataIndex CairoDataIndex 1 add def }
    { () } ifelse
} def
/cairo_flush_ascii85_file { cairo_ascii85_file status { cairo_ascii85_file flushfile } if } def
/cairo_image { image cairo_flush_ascii85_file } def
/cairo_imagemask { imagemask cairo_flush_ascii85_file } def
%%EndProlog
%%BeginSetup
%%EndSetup
%%Page: 1 1
%%BeginPageSetup
%%PageBoundingBox: 51 61 333 323
%%EndPageSetup
q 51 61 282 262 rectclip
1 0 0 -1 0 384 cm q
0 g
329.516 251.938 m 325.918 246.301 320.188 237.871 312.57 228.422 c 320.188
 218.98 325.918 210.551 329.516 204.91 c 334.543 197.031 332.461 186.641
 324.777 181.258 c 320.883 178.531 316.168 177.512 311.504 178.383 c 306.891
 179.25 302.918 181.871 300.32 185.766 c 296.594 191.352 292.516 196.84 
288.164 202.145 c 253.82 170.172 214.609 153.312 174.449 153.312 c 109.684
 153.312 70.332 196.809 52.637 222.734 c 51.449 224.477 51.449 226.766 52.637
 228.508 c 86.133 277.59 128.254 303.531 174.449 303.531 c 214.609 303.531
 253.82 286.672 288.164 254.699 c 292.516 260.004 296.59 265.496 300.32 
271.078 c 302.918 274.973 306.891 277.594 311.504 278.461 c 316.168 279.336
 320.883 278.316 324.777 275.586 c 332.461 270.207 334.543 259.816 329.516
 251.938 c h
318.902 267.199 m 317.285 268.336 315.324 268.758 313.395 268.398 c 311.512
 268.043 309.895 266.977 308.836 265.395 c 303.902 258 298.387 250.766 292.445
 243.891 c 291.523 242.824 290.199 242.184 288.789 242.125 c 287.383 242.062
 286.004 242.59 284.996 243.574 c 251.195 276.566 214.004 293.293 174.453
 293.293 c 132.082 293.293 94.637 270.531 63.102 225.629 c 83.664 196.641
 119.238 163.555 174.453 163.555 c 214 163.555 251.195 180.281 284.996 213.27
 c 286.004 214.258 287.367 214.777 288.789 214.723 c 290.199 214.664 291.52
 214.023 292.445 212.953 c 298.387 206.078 303.902 198.844 308.836 191.449
 c 309.895 189.867 311.512 188.801 313.395 188.449 c 315.328 188.09 317.285
 188.512 318.906 189.645 c 322.082 191.875 322.953 196.16 320.883 199.402
 c 317.035 205.438 310.637 214.801 302.016 225.145 c 300.434 227.043 300.434
 229.801 302.016 231.699 c 310.637 242.047 317.035 251.41 320.883 257.445
 c 322.953 260.688 322.082 264.973 318.902 267.199 c h
318.902 267.199 m f
227.133 193.047 m 184.762 171.863 148.293 180.965 125.16 192.332 c 100.289
 204.555 85.52 221.57 84.902 222.289 c 83.305 224.152 83.25 226.883 84.773
 228.805 c 85.387 229.578 100.117 247.969 124.953 261.609 c 138.578 269.09
 156.824 275.875 178.188 275.875 c 193.148 275.875 209.637 272.547 227.133
 263.797 c 243.926 255.402 259.531 244.781 273.52 232.234 c 274.602 231.262
 275.219 229.879 275.219 228.422 c 275.219 226.969 274.602 225.582 273.52
 224.609 c 259.535 212.066 243.926 201.445 227.133 193.047 c h
222.555 254.641 m 191.746 270.043 160.668 269.426 130.184 252.797 c 113.129
 243.492 100.965 231.492 95.703 225.766 c 100.973 220.504 112.891 209.77
 129.676 201.523 c 160.301 186.477 191.551 186.703 222.555 202.207 c 236.801
 209.332 250.152 218.137 262.309 228.422 c 250.148 238.711 236.801 247.516
 222.555 254.641 c h
222.555 254.641 m f
129.688 222.25 m 130.293 225.98 127.758 229.492 124.031 230.098 c 120.301
 230.703 116.789 228.168 116.184 224.441 c 115.582 220.711 118.113 217.199
 121.84 216.594 c 125.57 215.992 129.082 218.523 129.688 222.25 c h
129.688 222.25 m f
111.953 133.121 m 117.074 133.121 l 117.074 138.238 l 117.074 141.066 119.363
 143.359 122.191 143.359 c 125.02 143.359 127.312 141.066 127.312 138.238
 c 127.312 133.121 l 132.434 133.121 l 135.262 133.121 137.551 130.828 137.551
 128 c 137.551 125.172 135.262 122.879 132.434 122.879 c 127.312 122.879
 l 127.312 117.762 l 127.312 114.934 125.02 112.641 122.191 112.641 c 119.363
 112.641 117.074 114.934 117.074 117.762 c 117.074 122.879 l 111.953 122.879
 l 109.125 122.879 106.832 125.172 106.832 128 c 106.832 130.828 109.125
 133.121 111.953 133.121 c h
111.953 133.121 m f
214.352 81.922 m 219.473 81.922 l 219.473 87.039 l 219.473 89.867 221.766
 92.16 224.59 92.16 c 227.418 92.16 229.711 89.867 229.711 87.039 c 229.711
 81.922 l 234.832 81.922 l 237.66 81.922 239.953 79.629 239.953 76.801 c
 239.953 73.973 237.66 71.68 234.832 71.68 c 229.711 71.68 l 229.711 66.559
 l 229.711 63.734 227.418 61.441 224.59 61.441 c 221.766 61.441 219.473 
63.734 219.473 66.559 c 219.473 71.68 l 214.352 71.68 l 211.523 71.68 209.23
 73.973 209.23 76.801 c 209.23 79.629 211.523 81.922 214.352 81.922 c h
214.352 81.922 m f
286.031 302.078 m 280.91 302.078 l 280.91 296.961 l 280.91 294.133 278.617
 291.84 275.793 291.84 c 272.965 291.84 270.672 294.133 270.672 296.961 
c 270.672 302.078 l 265.551 302.078 l 262.723 302.078 260.43 304.371 260.43
 307.199 c 260.43 310.027 262.723 312.32 265.551 312.32 c 270.672 312.32
 l 270.672 317.441 l 270.672 320.266 272.965 322.559 275.793 322.559 c 278.617
 322.559 280.91 320.266 280.91 317.441 c 280.91 312.32 l 286.031 312.32 
l 288.859 312.32 291.152 310.027 291.152 307.199 c 291.152 304.371 288.859
 302.078 286.031 302.078 c h
286.031 302.078 m f
Q Q
showpage
%%Trailer
end
%%EOF
