%!PS-Adobe-3.0 EPSF-3.0
%%Creator: cairo 1.16.0 (https://cairographics.org)
%%CreationDate: Thu Sep 19 06:52:26 2019
%%Pages: 1
%%DocumentData: Clean7Bit
%%LanguageLevel: 2
%%BoundingBox: 41 55 343 329
%%EndComments
%%BeginProlog
50 dict begin
/q { gsave } bind def
/Q { grestore } bind def
/cm { 6 array astore concat } bind def
/w { setlinewidth } bind def
/J { setlinecap } bind def
/j { setlinejoin } bind def
/M { setmiterlimit } bind def
/d { setdash } bind def
/m { moveto } bind def
/l { lineto } bind def
/c { curveto } bind def
/h { closepath } bind def
/re { exch dup neg 3 1 roll 5 3 roll moveto 0 rlineto
      0 exch rlineto 0 rlineto closepath } bind def
/S { stroke } bind def
/f { fill } bind def
/f* { eofill } bind def
/n { newpath } bind def
/W { clip } bind def
/W* { eoclip } bind def
/BT { } bind def
/ET { } bind def
/BDC { mark 3 1 roll /BDC pdfmark } bind def
/EMC { mark /EMC pdfmark } bind def
/cairo_store_point { /cairo_point_y exch def /cairo_point_x exch def } def
/Tj { show currentpoint cairo_store_point } bind def
/TJ {
  {
    dup
    type /stringtype eq
    { show } { -0.001 mul 0 cairo_font_matrix dtransform rmoveto } ifelse
  } forall
  currentpoint cairo_store_point
} bind def
/cairo_selectfont { cairo_font_matrix aload pop pop pop 0 0 6 array astore
    cairo_font exch selectfont cairo_point_x cairo_point_y moveto } bind def
/Tf { pop /cairo_font exch def /cairo_font_matrix where
      { pop cairo_selectfont } if } bind def
/Td { matrix translate cairo_font_matrix matrix concatmatrix dup
      /cairo_font_matrix exch def dup 4 get exch 5 get cairo_store_point
      /cairo_font where { pop cairo_selectfont } if } bind def
/Tm { 2 copy 8 2 roll 6 array astore /cairo_font_matrix exch def
      cairo_store_point /cairo_font where { pop cairo_selectfont } if } bind def
/g { setgray } bind def
/rg { setrgbcolor } bind def
/d1 { setcachedevice } bind def
/cairo_data_source {
  CairoDataIndex CairoData length lt
    { CairoData CairoDataIndex get /CairoDataIndex CairoDataIndex 1 add def }
    { () } ifelse
} def
/cairo_flush_ascii85_file { cairo_ascii85_file status { cairo_ascii85_file flushfile } if } def
/cairo_image { image cairo_flush_ascii85_file } def
/cairo_imagemask { imagemask cairo_flush_ascii85_file } def
%%EndProlog
%%BeginSetup
%%EndSetup
%%Page: 1 1
%%BeginPageSetup
%%PageBoundingBox: 41 55 343 329
%%EndPageSetup
q 41 55 302 274 rectclip
1 0 0 -1 0 384 cm q
0 g
337.266 182.117 m 333.406 178.156 328.289 176.035 322.711 176.074 c 318.719
 176.117 314.945 177.328 311.734 179.512 c 288.605 177.113 273.242 187.703
 256.98 198.918 c 254.863 200.379 252.68 201.871 250.465 203.359 c 246.574
 197.988 240.418 194.824 233.707 194.824 c 134.848 194.824 l 116.336 194.824
 98.934 202.031 85.848 215.121 c 61.57 239.395 l 42.594 258.375 l 40.715
 260.25 40.586 263.254 42.293 265.285 c 93.492 326.27 l 94.5 327.465 95.949
 328.098 97.414 328.098 c 98.391 328.098 99.375 327.816 100.242 327.242 
c 120.98 313.484 l 132.129 306.09 l 140.723 300.391 150.715 297.375 161.027
 297.375 c 236.051 297.375 l 252.094 297.375 267.332 290.438 277.859 278.34
 c 338.031 209.215 l 344.816 201.418 344.48 189.516 337.266 182.117 c h
262.797 207.348 m 276.113 198.16 287.109 190.605 301.684 189.547 c 251.738
 243.195 l 243.645 251.887 232.188 256.875 220.309 256.875 c 192.477 256.875
 l 187.969 256.875 184.301 253.207 184.301 248.699 c 184.301 244.188 187.965
 240.52 192.477 240.52 c 226.84 240.52 l 237.668 240.52 247.402 234.504 
252.25 224.816 c 254.102 221.109 254.777 217.055 254.305 213.109 c 257.23
 211.176 260.066 209.234 262.797 207.348 c h
98.391 316.18 m 53.152 262.297 l 64.766 250.68 l 110.656 308.043 l h
330.309 202.492 m 270.137 271.613 l 261.551 281.477 249.129 287.133 236.051
 287.133 c 161.027 287.133 l 148.695 287.133 136.746 290.738 126.469 297.555
 c 119.223 302.363 l 72.051 243.398 l 93.086 222.363 l 104.242 211.207 119.07
 205.062 134.848 205.062 c 233.707 205.062 l 237.371 205.062 240.703 206.922
 242.629 210.035 c 244.555 213.152 244.727 216.965 243.086 220.238 c 239.988
 226.434 233.766 230.281 226.84 230.281 c 192.477 230.281 l 182.32 230.281
 174.059 238.543 174.059 248.699 c 174.059 258.852 182.32 267.113 192.477
 267.113 c 220.309 267.113 l 235.02 267.113 249.207 260.938 259.234 250.168
 c 315.789 189.422 l 317.629 187.449 320.129 186.344 322.828 186.312 c 322.941
 186.312 l 325.598 186.312 328.078 187.355 329.934 189.262 c 333.457 192.875
 333.621 198.688 330.309 202.492 c h
330.309 202.492 m f
156.293 177.414 m 169.309 177.414 181.707 171.934 190.496 162.363 c 195.852
 164.121 201.559 165.086 207.492 165.086 c 237.594 165.086 262.082 140.598
 262.082 110.496 c 262.082 80.395 237.594 55.902 207.492 55.902 c 186.734
 55.902 168.648 67.551 159.422 84.652 c 158.379 84.582 157.336 84.535 156.293
 84.535 c 130.688 84.535 109.855 105.367 109.855 130.977 c 109.855 156.582
 130.688 177.414 156.293 177.414 c h
207.492 66.145 m 231.949 66.145 251.844 86.039 251.844 110.496 c 251.844
 134.953 231.949 154.848 207.492 154.848 c 183.039 154.848 163.141 134.953
 163.141 110.496 c 163.141 86.039 183.039 66.145 207.492 66.145 c h
153.086 114.77 m 153.973 126.145 158.348 136.551 165.156 144.91 c 162.527
 146.586 159.484 147.496 156.293 147.496 c 147.184 147.496 139.77 140.086
 139.77 130.977 c 139.77 122.965 145.504 116.27 153.086 114.77 c h
155.211 94.805 m 154.281 97.895 153.617 101.102 153.25 104.398 c 139.922
 105.914 129.531 117.246 129.531 130.977 c 129.531 145.73 141.535 157.738
 156.293 157.738 c 162.203 157.738 167.805 155.809 172.43 152.293 c 174.93
 154.395 177.621 156.27 180.473 157.898 c 173.863 163.832 165.266 167.176
 156.293 167.176 c 136.332 167.176 120.094 150.934 120.094 130.977 c 120.094
 111.379 135.75 95.379 155.211 94.805 c h
155.211 94.805 m f
207.492 147.906 m 228.121 147.906 244.906 131.125 244.906 110.496 c 244.906
 89.867 228.121 73.086 207.492 73.086 c 186.863 73.086 170.082 89.867 170.082
 110.496 c 170.082 131.125 186.863 147.906 207.492 147.906 c h
207.492 83.324 m 222.477 83.324 234.664 95.512 234.664 110.496 c 234.664
 125.477 222.477 137.664 207.492 137.664 c 192.508 137.664 180.32 125.477
 180.32 110.496 c 180.32 95.512 192.512 83.324 207.492 83.324 c h
207.492 83.324 m f
Q Q
showpage
%%Trailer
end
%%EOF
