%!PS-Adobe-3.0 EPSF-3.0
%%Creator: cairo 1.16.0 (https://cairographics.org)
%%CreationDate: Thu Sep 19 06:52:26 2019
%%Pages: 1
%%DocumentData: Clean7Bit
%%LanguageLevel: 2
%%BoundingBox: 38 35 346 349
%%EndComments
%%BeginProlog
50 dict begin
/q { gsave } bind def
/Q { grestore } bind def
/cm { 6 array astore concat } bind def
/w { setlinewidth } bind def
/J { setlinecap } bind def
/j { setlinejoin } bind def
/M { setmiterlimit } bind def
/d { setdash } bind def
/m { moveto } bind def
/l { lineto } bind def
/c { curveto } bind def
/h { closepath } bind def
/re { exch dup neg 3 1 roll 5 3 roll moveto 0 rlineto
      0 exch rlineto 0 rlineto closepath } bind def
/S { stroke } bind def
/f { fill } bind def
/f* { eofill } bind def
/n { newpath } bind def
/W { clip } bind def
/W* { eoclip } bind def
/BT { } bind def
/ET { } bind def
/BDC { mark 3 1 roll /BDC pdfmark } bind def
/EMC { mark /EMC pdfmark } bind def
/cairo_store_point { /cairo_point_y exch def /cairo_point_x exch def } def
/Tj { show currentpoint cairo_store_point } bind def
/TJ {
  {
    dup
    type /stringtype eq
    { show } { -0.001 mul 0 cairo_font_matrix dtransform rmoveto } ifelse
  } forall
  currentpoint cairo_store_point
} bind def
/cairo_selectfont { cairo_font_matrix aload pop pop pop 0 0 6 array astore
    cairo_font exch selectfont cairo_point_x cairo_point_y moveto } bind def
/Tf { pop /cairo_font exch def /cairo_font_matrix where
      { pop cairo_selectfont } if } bind def
/Td { matrix translate cairo_font_matrix matrix concatmatrix dup
      /cairo_font_matrix exch def dup 4 get exch 5 get cairo_store_point
      /cairo_font where { pop cairo_selectfont } if } bind def
/Tm { 2 copy 8 2 roll 6 array astore /cairo_font_matrix exch def
      cairo_store_point /cairo_font where { pop cairo_selectfont } if } bind def
/g { setgray } bind def
/rg { setrgbcolor } bind def
/d1 { setcachedevice } bind def
/cairo_data_source {
  CairoDataIndex CairoData length lt
    { CairoData CairoDataIndex get /CairoDataIndex CairoDataIndex 1 add def }
    { () } ifelse
} def
/cairo_flush_ascii85_file { cairo_ascii85_file status { cairo_ascii85_file flushfile } if } def
/cairo_image { image cairo_flush_ascii85_file } def
/cairo_imagemask { imagemask cairo_flush_ascii85_file } def
%%EndProlog
%%BeginSetup
%%EndSetup
%%Page: 1 1
%%BeginPageSetup
%%PageBoundingBox: 38 35 346 349
%%EndPageSetup
q 38 35 308 314 rectclip
1 0 0 -1 0 384 cm q
0 g
289.281 261.617 m 289.281 194.559 l 314.879 194.559 l 317.707 194.559 320
 192.266 320 189.441 c 320 174.078 l 320 171.254 317.707 168.961 314.879
 168.961 c 289.281 168.961 l 289.281 143.359 l 289.281 140.531 286.988 138.238
 284.16 138.238 c 268.801 138.238 l 265.973 138.238 263.68 140.531 263.68
 143.359 c 263.68 168.961 l 238.078 168.961 l 235.254 168.961 232.961 171.254
 232.961 174.078 c 232.961 189.441 l 232.961 192.266 235.254 194.559 238.078
 194.559 c 263.68 194.559 l 263.68 256.164 l 261.984 256.062 260.281 256
 258.559 256 c 207.359 256 l 207.359 143.359 l 248.32 143.359 l 251.148 
143.359 253.441 141.066 253.441 138.238 c 253.441 117.762 l 253.441 114.934
 251.148 112.641 248.32 112.641 c 207.359 112.641 l 207.359 76.801 l 207.359
 73.973 205.066 71.68 202.238 71.68 c 181.762 71.68 l 178.934 71.68 176.641
 73.973 176.641 76.801 c 176.641 112.641 l 135.68 112.641 l 132.852 112.641
 130.559 114.934 130.559 117.762 c 130.559 138.238 l 130.559 141.066 132.852
 143.359 135.68 143.359 c 176.641 143.359 l 176.641 256 l 125.441 256 l 
123.719 256 122.016 256.062 120.32 256.164 c 120.32 194.559 l 145.922 194.559
 l 148.746 194.559 151.039 192.266 151.039 189.441 c 151.039 174.078 l 151.039
 171.254 148.746 168.961 145.922 168.961 c 120.32 168.961 l 120.32 143.359
 l 120.32 140.531 118.027 138.238 115.199 138.238 c 99.84 138.238 l 97.012
 138.238 94.719 140.531 94.719 143.359 c 94.719 168.961 l 69.121 168.961
 l 66.293 168.961 64 171.254 64 174.078 c 64 189.441 l 64 192.266 66.293
 194.559 69.121 194.559 c 94.719 194.559 l 94.719 261.617 l 61.844 274.062
 38.398 305.855 38.398 343.039 c 38.398 345.867 40.691 348.16 43.52 348.16
 c 340.48 348.16 l 343.309 348.16 345.602 345.867 345.602 343.039 c 345.602
 305.855 322.156 274.062 289.281 261.617 c h
268.801 184.32 m 243.199 184.32 l 243.199 179.199 l 268.801 179.199 l 271.629
 179.199 273.922 176.906 273.922 174.078 c 273.922 148.48 l 279.039 148.48
 l 279.039 174.078 l 279.039 176.906 281.332 179.199 284.16 179.199 c 309.762
 179.199 l 309.762 184.32 l 284.16 184.32 l 281.332 184.32 279.039 186.613
 279.039 189.441 c 279.039 258.457 l 277.352 258.047 275.645 257.695 273.922
 257.387 c 273.922 189.441 l 273.922 186.613 271.629 184.32 268.801 184.32
 c h
181.762 133.121 m 140.801 133.121 l 140.801 122.879 l 181.762 122.879 l
 184.586 122.879 186.879 120.586 186.879 117.762 c 186.879 81.922 l 197.121
 81.922 l 197.121 117.762 l 197.121 120.586 199.414 122.879 202.238 122.879
 c 243.199 122.879 l 243.199 133.121 l 202.238 133.121 l 199.414 133.121
 197.121 135.414 197.121 138.238 c 197.121 256 l 186.879 256 l 186.879 138.238
 l 186.879 135.414 184.586 133.121 181.762 133.121 c h
99.84 184.32 m 74.238 184.32 l 74.238 179.199 l 99.84 179.199 l 102.668
 179.199 104.961 176.906 104.961 174.078 c 104.961 148.48 l 110.078 148.48
 l 110.078 174.078 l 110.078 176.906 112.371 179.199 115.199 179.199 c 140.801
 179.199 l 140.801 184.32 l 115.199 184.32 l 112.371 184.32 110.078 186.613
 110.078 189.441 c 110.078 257.387 l 108.355 257.695 106.648 258.047 104.961
 258.457 c 104.961 189.441 l 104.961 186.613 102.668 184.32 99.84 184.32
 c h
48.809 337.922 m 51.453 297.949 84.812 266.238 125.441 266.238 c 258.559
 266.238 l 299.188 266.238 332.547 297.949 335.191 337.922 c h
48.809 337.922 m f
158 101.215 m 158.961 102.012 160.121 102.398 161.277 102.398 c 162.746
 102.398 164.199 101.773 165.215 100.559 c 167.023 98.387 166.73 95.156 
164.559 93.348 c 133.836 67.746 l 131.664 65.938 128.438 66.23 126.625 68.402
 c 124.816 70.574 125.109 73.805 127.281 75.613 c h
158 101.215 m f
213.668 100.559 m 214.68 101.773 216.137 102.398 217.602 102.398 c 218.758
 102.398 219.922 102.012 220.879 101.215 c 251.598 75.613 l 253.77 73.801
 254.066 70.574 252.254 68.402 c 250.445 66.23 247.215 65.938 245.043 67.746
 c 214.324 93.344 l 212.148 95.156 211.855 98.383 213.668 100.559 c h
213.668 100.559 m f
209.641 65.699 m 210.512 66.281 211.5 66.559 212.477 66.559 c 214.129 66.559
 215.754 65.762 216.738 64.281 c 226.98 48.922 l 228.551 46.566 227.914 
43.391 225.559 41.82 c 223.207 40.25 220.031 40.887 218.461 43.238 c 208.219
 58.602 l 206.652 60.953 207.285 64.133 209.641 65.699 c h
209.641 65.699 m f
167.262 64.281 m 168.246 65.762 169.871 66.559 171.523 66.559 c 172.5 66.559
 173.488 66.281 174.359 65.699 c 176.715 64.129 177.348 60.953 175.781 58.602
 c 165.539 43.238 l 163.973 40.887 160.793 40.246 158.441 41.82 c 156.086
 43.391 155.449 46.566 157.02 48.922 c h
167.262 64.281 m f
192 61.441 m 194.828 61.441 197.121 59.148 197.121 56.32 c 197.121 40.961
 l 197.121 38.133 194.828 35.84 192 35.84 c 189.172 35.84 186.879 38.133
 186.879 40.961 c 186.879 56.32 l 186.879 59.148 189.172 61.441 192 61.441
 c h
192 61.441 m f
Q Q
showpage
%%Trailer
end
%%EOF
