%!PS-Adobe-3.0 EPSF-3.0
%%Creator: cairo 1.16.0 (https://cairographics.org)
%%CreationDate: Thu Sep 19 06:52:27 2019
%%Pages: 1
%%DocumentData: Clean7Bit
%%LanguageLevel: 2
%%BoundingBox: 80 52 304 332
%%EndComments
%%BeginProlog
50 dict begin
/q { gsave } bind def
/Q { grestore } bind def
/cm { 6 array astore concat } bind def
/w { setlinewidth } bind def
/J { setlinecap } bind def
/j { setlinejoin } bind def
/M { setmiterlimit } bind def
/d { setdash } bind def
/m { moveto } bind def
/l { lineto } bind def
/c { curveto } bind def
/h { closepath } bind def
/re { exch dup neg 3 1 roll 5 3 roll moveto 0 rlineto
      0 exch rlineto 0 rlineto closepath } bind def
/S { stroke } bind def
/f { fill } bind def
/f* { eofill } bind def
/n { newpath } bind def
/W { clip } bind def
/W* { eoclip } bind def
/BT { } bind def
/ET { } bind def
/BDC { mark 3 1 roll /BDC pdfmark } bind def
/EMC { mark /EMC pdfmark } bind def
/cairo_store_point { /cairo_point_y exch def /cairo_point_x exch def } def
/Tj { show currentpoint cairo_store_point } bind def
/TJ {
  {
    dup
    type /stringtype eq
    { show } { -0.001 mul 0 cairo_font_matrix dtransform rmoveto } ifelse
  } forall
  currentpoint cairo_store_point
} bind def
/cairo_selectfont { cairo_font_matrix aload pop pop pop 0 0 6 array astore
    cairo_font exch selectfont cairo_point_x cairo_point_y moveto } bind def
/Tf { pop /cairo_font exch def /cairo_font_matrix where
      { pop cairo_selectfont } if } bind def
/Td { matrix translate cairo_font_matrix matrix concatmatrix dup
      /cairo_font_matrix exch def dup 4 get exch 5 get cairo_store_point
      /cairo_font where { pop cairo_selectfont } if } bind def
/Tm { 2 copy 8 2 roll 6 array astore /cairo_font_matrix exch def
      cairo_store_point /cairo_font where { pop cairo_selectfont } if } bind def
/g { setgray } bind def
/rg { setrgbcolor } bind def
/d1 { setcachedevice } bind def
/cairo_data_source {
  CairoDataIndex CairoData length lt
    { CairoData CairoDataIndex get /CairoDataIndex CairoDataIndex 1 add def }
    { () } ifelse
} def
/cairo_flush_ascii85_file { cairo_ascii85_file status { cairo_ascii85_file flushfile } if } def
/cairo_image { image cairo_flush_ascii85_file } def
/cairo_imagemask { imagemask cairo_flush_ascii85_file } def
%%EndProlog
%%BeginSetup
%%EndSetup
%%Page: 1 1
%%BeginPageSetup
%%PageBoundingBox: 80 52 304 332
%%EndPageSetup
q 80 52 224 280 rectclip
1 0 0 -1 0 384 cm q
0 g
283.883 149.094 m 287.906 144.57 290.375 138.637 290.375 132.117 c 290.375
 122.211 284.703 113.613 276.445 109.363 c 280.18 107.641 283.797 105.414
 287.039 102.492 c 304.359 86.871 303.574 58.773 303.531 57.586 c 303.441
 55.102 301.586 53.039 299.125 52.695 c 297.945 52.531 270.078 48.848 252.754
 64.469 c 246.25 70.328 242.301 77.945 239.906 85.242 c 233.594 71.527 222.633
 62.18 221.988 61.637 c 220.086 60.039 217.309 60.039 215.402 61.637 c 214.492
 62.402 193.094 80.633 193.094 103.961 c 193.094 112.996 196.309 121.262
 200.297 128.047 c 198.012 127.375 195.598 127 193.094 127 c 192.105 127
 191.129 127.07 190.164 127.18 c 186.793 122.023 183.531 117.605 180.359
 113.922 c 184.246 100.949 186.422 84.543 178.254 73.141 c 172.219 64.715
 161.707 60.438 147.016 60.438 c 123.285 60.438 108.832 68.281 100.055 77.305
 c 96.434 75.324 92.332 73.277 87.719 71.148 c 85.152 69.965 82.109 71.086
 80.926 73.652 c 79.738 76.223 80.863 79.262 83.43 80.449 c 87.359 82.262
 90.734 83.941 93.641 85.488 c 93.246 86.117 92.875 86.742 92.523 87.363
 c 88.625 94.238 90.117 102.801 96.152 108.191 c 101.945 113.367 109.965
 113.848 116.105 109.383 c 121.18 105.691 121.898 101.434 121.613 98.512
 c 121.109 93.395 117.113 88.301 109.074 82.773 c 117.867 74.742 130.574
 70.68 147.016 70.68 c 158.219 70.68 165.926 73.516 169.93 79.105 c 174 
84.785 174.672 94.055 171.965 105.695 c 167.836 102.441 163.859 100.531 
159.988 99.93 c 155.172 99.176 150.543 100.5 146.605 103.754 c 140.336 108.941
 137.383 113.922 137.57 118.98 c 137.68 121.805 138.887 125.938 144.051 
129.594 c 149.855 133.703 157.152 134.777 164.066 132.535 c 168.715 131.027
 172.742 128.121 175.629 124.332 c 177.043 126.164 178.543 128.25 180.117
 130.574 c 172.578 135.031 167.496 143.223 167.496 152.602 c 167.496 154.602
 167.75 156.539 168.188 158.41 c 166.316 157.973 164.379 157.719 162.375
 157.719 c 148.262 157.719 136.777 169.203 136.777 183.32 c 136.777 195.816
 145.785 206.234 157.645 208.465 c 154.207 212.824 152.137 218.309 152.137
 224.281 c 152.137 235.273 159.117 244.645 168.867 248.266 c 164.844 252.789
 162.375 258.723 162.375 265.242 c 162.375 276.234 169.355 285.605 179.109
 289.223 c 175.082 293.746 172.617 299.684 172.617 306.199 c 172.617 320.316
 184.102 331.801 198.215 331.801 c 212.332 331.801 223.816 320.316 223.816
 306.199 c 223.816 304.199 223.562 302.262 223.125 300.391 c 224.996 300.828
 226.934 301.082 228.938 301.082 c 243.051 301.082 254.535 289.598 254.535
 275.48 c 254.535 264.488 247.555 255.117 237.805 251.496 c 241.828 246.973
 244.297 241.035 244.297 234.52 c 244.297 232.762 244.117 231.039 243.777
 229.379 c 243.949 229.383 244.121 229.398 244.297 229.398 c 258.41 229.398
 269.895 217.918 269.895 203.801 c 269.895 201.801 269.641 199.859 269.203
 197.992 c 271.074 198.426 273.016 198.68 275.016 198.68 c 289.133 198.68
 300.617 187.195 300.617 173.082 c 300.613 162.082 293.633 152.715 283.883
 149.094 c h
111.422 99.516 m 111.477 100.055 110.316 100.93 110.082 101.098 c 106.758
 103.516 103.801 101.293 102.973 100.555 c 101.086 98.867 99.551 95.727 
101.43 92.414 c 101.766 91.824 102.109 91.246 102.469 90.684 c 110.766 96.195
 111.379 99.074 111.422 99.516 c h
160.91 122.793 m 157.094 124.027 153.109 123.457 149.969 121.234 c 149.176
 120.672 147.84 119.586 147.805 118.598 c 147.789 118.184 147.973 115.91
 153.133 111.645 c 154.516 110.5 155.852 109.957 157.348 109.957 c 157.691
 109.957 158.047 109.988 158.41 110.043 c 160.422 110.359 163.801 111.723
 168.617 116.359 c 167.012 119.371 164.246 121.711 160.91 122.793 c h
242.879 114.496 m 243.738 114.57 244.805 114.641 246.074 114.691 c 241.809
 119.266 239.176 125.383 239.176 132.117 c 239.176 134.121 239.43 136.059
 239.867 137.93 c 237.996 137.492 236.055 137.238 234.055 137.238 c 232.824
 137.238 231.621 137.355 230.438 137.527 c 235.086 131.879 240.398 123.859
 242.879 114.496 c h
249.414 162.84 m 249.414 171.309 242.523 178.199 234.055 178.199 c 225.586
 178.199 218.695 171.309 218.695 162.84 c 218.695 154.371 225.586 147.48
 234.055 147.48 c 242.523 147.48 249.414 154.371 249.414 162.84 c h
203.336 178.199 m 211.805 178.199 218.695 185.09 218.695 193.559 c 218.695
 202.027 211.805 208.918 203.336 208.918 c 194.863 208.918 187.973 202.027
 187.973 193.559 c 187.973 185.09 194.863 178.199 203.336 178.199 c h
203.336 234.52 m 203.336 226.051 210.227 219.16 218.695 219.16 c 227.164
 219.16 234.055 226.051 234.055 234.52 c 234.055 242.988 227.164 249.879
 218.695 249.879 c 210.227 249.879 203.336 242.988 203.336 234.52 c h
264.773 147.48 m 256.305 147.48 249.414 140.59 249.414 132.117 c 249.414
 123.648 256.305 116.758 264.773 116.758 c 273.246 116.758 280.133 123.648
 280.133 132.117 c 280.133 140.59 273.246 147.48 264.773 147.48 c h
259.609 72.07 m 269.727 62.949 285.461 62.227 293.156 62.508 c 292.633 
70.195 290.297 85.766 280.18 94.887 c 270.059 104.012 254.312 104.727 246.621
 104.449 c 247.129 96.781 249.441 81.238 259.609 72.07 c h
218.703 72.633 m 224.059 78.148 234.055 90.27 234.055 103.961 c 234.055
 117.59 224.039 129.758 218.688 135.285 c 213.328 129.773 203.336 117.648
 203.336 103.961 c 203.336 90.328 213.348 78.16 218.703 72.633 c h
193.094 137.238 m 201.562 137.238 208.453 144.129 208.453 152.598 c 208.453
 161.07 201.562 167.961 193.094 167.961 c 184.625 167.961 177.734 161.07
 177.734 152.598 c 177.734 144.129 184.625 137.238 193.094 137.238 c h
147.016 183.32 m 147.016 174.848 153.906 167.961 162.375 167.961 c 170.844
 167.961 177.734 174.848 177.734 183.32 c 177.734 191.789 170.844 198.68
 162.375 198.68 c 153.906 198.68 147.016 191.789 147.016 183.32 c h
162.375 224.277 m 162.375 215.809 169.266 208.918 177.734 208.918 c 179.922
 208.918 182.016 209.391 183.984 210.27 c 185.816 212.391 187.992 214.199
 190.426 215.629 c 192.168 218.18 193.094 221.168 193.094 224.277 c 193.094
 232.75 186.203 239.641 177.734 239.641 c 169.266 239.641 162.375 232.746
 162.375 224.277 c h
172.613 265.238 m 172.613 256.77 179.504 249.879 187.973 249.879 c 196.445
 249.879 203.336 256.77 203.336 265.238 c 203.336 273.707 196.445 280.598
 187.973 280.598 c 179.504 280.598 172.613 273.707 172.613 265.238 c h
198.215 321.559 m 189.746 321.559 182.855 314.668 182.855 306.199 c 182.855
 297.73 189.746 290.84 198.215 290.84 c 206.684 290.84 213.574 297.73 213.574
 306.199 c 213.574 314.668 206.684 321.559 198.215 321.559 c h
244.293 275.48 m 244.293 283.949 237.402 290.84 228.934 290.84 c 220.465
 290.84 213.574 283.949 213.574 275.48 c 213.574 267.008 220.465 260.117
 228.934 260.117 c 237.402 260.117 244.293 267.008 244.293 275.48 c h
244.293 219.16 m 242.551 219.16 240.844 218.871 239.219 218.301 c 238.91
 218.195 238.602 218.125 238.289 218.078 c 236.41 215.84 234.145 213.945
 231.609 212.453 c 229.863 209.902 228.934 206.914 228.934 203.801 c 228.934
 195.328 235.824 188.438 244.293 188.438 c 252.762 188.438 259.652 195.328
 259.652 203.801 c 259.652 212.27 252.766 219.16 244.293 219.16 c h
275.016 188.438 m 266.543 188.438 259.656 181.547 259.656 173.078 c 259.656
 164.609 266.543 157.719 275.016 157.719 c 283.484 157.719 290.375 164.609
 290.375 173.078 c 290.375 181.547 283.484 188.438 275.016 188.438 c h
275.016 188.438 m f
Q Q
showpage
%%Trailer
end
%%EOF
