%!PS-Adobe-3.0 EPSF-3.0
%%Creator: cairo 1.16.0 (https://cairographics.org)
%%CreationDate: Thu Sep 19 06:52:27 2019
%%Pages: 1
%%DocumentData: Clean7Bit
%%LanguageLevel: 2
%%BoundingBox: 56 58 328 326
%%EndComments
%%BeginProlog
50 dict begin
/q { gsave } bind def
/Q { grestore } bind def
/cm { 6 array astore concat } bind def
/w { setlinewidth } bind def
/J { setlinecap } bind def
/j { setlinejoin } bind def
/M { setmiterlimit } bind def
/d { setdash } bind def
/m { moveto } bind def
/l { lineto } bind def
/c { curveto } bind def
/h { closepath } bind def
/re { exch dup neg 3 1 roll 5 3 roll moveto 0 rlineto
      0 exch rlineto 0 rlineto closepath } bind def
/S { stroke } bind def
/f { fill } bind def
/f* { eofill } bind def
/n { newpath } bind def
/W { clip } bind def
/W* { eoclip } bind def
/BT { } bind def
/ET { } bind def
/BDC { mark 3 1 roll /BDC pdfmark } bind def
/EMC { mark /EMC pdfmark } bind def
/cairo_store_point { /cairo_point_y exch def /cairo_point_x exch def } def
/Tj { show currentpoint cairo_store_point } bind def
/TJ {
  {
    dup
    type /stringtype eq
    { show } { -0.001 mul 0 cairo_font_matrix dtransform rmoveto } ifelse
  } forall
  currentpoint cairo_store_point
} bind def
/cairo_selectfont { cairo_font_matrix aload pop pop pop 0 0 6 array astore
    cairo_font exch selectfont cairo_point_x cairo_point_y moveto } bind def
/Tf { pop /cairo_font exch def /cairo_font_matrix where
      { pop cairo_selectfont } if } bind def
/Td { matrix translate cairo_font_matrix matrix concatmatrix dup
      /cairo_font_matrix exch def dup 4 get exch 5 get cairo_store_point
      /cairo_font where { pop cairo_selectfont } if } bind def
/Tm { 2 copy 8 2 roll 6 array astore /cairo_font_matrix exch def
      cairo_store_point /cairo_font where { pop cairo_selectfont } if } bind def
/g { setgray } bind def
/rg { setrgbcolor } bind def
/d1 { setcachedevice } bind def
/cairo_data_source {
  CairoDataIndex CairoData length lt
    { CairoData CairoDataIndex get /CairoDataIndex CairoDataIndex 1 add def }
    { () } ifelse
} def
/cairo_flush_ascii85_file { cairo_ascii85_file status { cairo_ascii85_file flushfile } if } def
/cairo_image { image cairo_flush_ascii85_file } def
/cairo_imagemask { imagemask cairo_flush_ascii85_file } def
%%EndProlog
%%BeginSetup
%%EndSetup
%%Page: 1 1
%%BeginPageSetup
%%PageBoundingBox: 56 58 328 326
%%EndPageSetup
q 56 58 272 268 rectclip
1 0 0 -1 0 384 cm q
0 g
327.672 104.961 m 327.672 103.621 327.156 102.281 326.117 101.277 c 319.27
 94.66 315.914 88.527 316.148 83.043 c 316.363 78.066 319.605 72.996 325.789
 67.973 c 327.469 66.605 328.109 64.328 327.383 62.285 c 326.66 60.242 324.727
 58.879 322.559 58.879 c 122.879 58.879 l 108.766 58.879 97.281 70.363 97.281
 84.48 c 97.281 87.066 97.664 89.621 98.426 92.07 c 98.535 92.43 98.691 
92.766 98.867 93.082 c 97.859 95.125 97.281 97.414 97.281 99.84 c 97.281
 105.855 l 95.676 105.285 93.957 104.961 92.16 104.961 c 83.691 104.961 
76.801 111.852 76.801 120.32 c 76.801 121.215 l 75.195 120.645 73.477 120.32
 71.68 120.32 c 63.211 120.32 56.32 127.211 56.32 135.68 c 56.32 239.816
 l 56.32 247.781 57.75 254.902 60.566 260.977 c 67.363 275.629 80.457 285.195
 97.281 288.203 c 97.281 304.723 l 97.281 315.969 106.43 325.121 117.676
 325.121 c 307.281 325.121 l 318.527 325.121 327.68 315.969 327.68 304.723
 c 327.68 104.961 l h
122.879 69.121 m 310.691 69.121 l 307.719 73.441 306.117 77.949 305.922
 82.605 c 305.676 88.273 307.551 94.043 311.477 99.84 c 128 99.84 l 128 
91.371 121.109 84.48 112.641 84.48 c 110.855 84.48 109.148 84.801 107.555
 85.363 c 107.535 85.07 107.52 84.777 107.52 84.48 c 107.52 76.012 114.41
 69.121 122.879 69.121 c h
69.855 256.668 m 67.668 251.953 66.559 246.285 66.559 239.816 c 66.559 
135.68 l 66.559 132.855 68.855 130.559 71.68 130.559 c 74.504 130.559 76.801
 132.855 76.801 135.68 c 76.801 189.562 l 76.801 192.391 79.094 194.68 81.922
 194.68 c 84.746 194.68 87.039 192.391 87.039 189.562 c 87.039 120.32 l 
87.039 117.496 89.336 115.199 92.16 115.199 c 94.984 115.199 97.281 117.496
 97.281 120.32 c 97.281 189.562 l 97.281 192.391 99.574 194.68 102.398 194.68
 c 105.227 194.68 107.52 192.391 107.52 189.562 c 107.52 99.84 l 107.52 
97.016 109.816 94.719 112.641 94.719 c 115.465 94.719 117.762 97.016 117.762
 99.84 c 117.762 189.562 l 117.762 192.391 120.051 194.68 122.879 194.68
 c 125.707 194.68 128 192.391 128 189.562 c 128 120.32 l 128 117.496 130.297
 115.199 133.121 115.199 c 135.945 115.199 138.238 117.496 138.238 120.32
 c 138.238 207.145 l 138.238 209.297 139.586 211.219 141.605 211.957 c 143.629
 212.691 145.895 212.09 147.277 210.441 c 173.547 179.242 l 175.074 177.43
 177.746 177.137 179.629 178.574 c 181.418 179.941 181.902 182.43 180.75
 184.363 c 180.59 184.633 180.457 184.914 180.348 185.207 c 159.168 242.57
 l 151.09 264.438 130.945 279 108.887 279 c 108.652 279 108.418 279 108.188
 278.996 c 83.688 278.656 73.656 264.859 69.855 256.668 c h
307.281 314.879 m 117.676 314.879 l 112.074 314.879 107.52 310.324 107.52
 304.723 c 107.52 289.211 l 107.695 289.215 107.867 289.234 108.043 289.234
 c 108.324 289.238 108.602 289.242 108.883 289.242 c 135.215 289.242 159.211
 272.004 168.77 246.117 c 189.809 189.148 l 193.281 182.809 191.625 174.848
 185.836 170.434 c 179.605 165.68 170.762 166.648 165.711 172.648 c 148.48
 193.113 l 148.48 120.32 l 148.48 116.383 146.98 112.801 144.535 110.078
 c 317.441 110.078 l 317.441 304.723 l 317.441 310.324 312.883 314.879 307.281
 314.879 c h
307.281 314.879 m f
276.48 166.398 m 261.121 166.398 l 261.121 156.16 l 261.121 147.691 254.23
 140.801 245.762 140.801 c 237.289 140.801 230.398 147.691 230.398 156.16
 c 230.398 166.398 l 215.039 166.398 l 206.57 166.398 199.68 173.289 199.68
 181.762 c 199.68 190.23 206.57 197.121 215.039 197.121 c 230.398 197.121
 l 230.398 263.68 l 230.398 272.148 237.289 279.039 245.762 279.039 c 254.23
 279.039 261.121 272.148 261.121 263.68 c 261.121 197.121 l 276.48 197.121
 l 284.949 197.121 291.84 190.23 291.84 181.762 c 291.84 173.289 284.949
 166.398 276.48 166.398 c h
276.48 186.879 m 256 186.879 l 253.172 186.879 250.879 189.172 250.879 
192 c 250.879 263.68 l 250.879 266.504 248.582 268.801 245.762 268.801 c
 242.938 268.801 240.641 266.504 240.641 263.68 c 240.641 192 l 240.641 
189.172 238.348 186.879 235.52 186.879 c 215.039 186.879 l 212.215 186.879
 209.922 184.582 209.922 181.762 c 209.922 178.938 212.215 176.641 215.039
 176.641 c 235.52 176.641 l 238.348 176.641 240.641 174.348 240.641 171.52
 c 240.641 156.16 l 240.641 153.336 242.938 151.039 245.762 151.039 c 248.582
 151.039 250.879 153.336 250.879 156.16 c 250.879 171.52 l 250.879 174.348
 253.172 176.641 256 176.641 c 276.48 176.641 l 279.305 176.641 281.602 
178.938 281.602 181.762 c 281.602 184.582 279.305 186.879 276.48 186.879
 c h
276.48 186.879 m f
Q Q
showpage
%%Trailer
end
%%EOF
