%!PS-Adobe-3.0 EPSF-3.0
%%Creator: cairo 1.16.0 (https://cairographics.org)
%%CreationDate: Thu Sep 19 06:52:27 2019
%%Pages: 1
%%DocumentData: Clean7Bit
%%LanguageLevel: 2
%%BoundingBox: 76 58 308 326
%%EndComments
%%BeginProlog
50 dict begin
/q { gsave } bind def
/Q { grestore } bind def
/cm { 6 array astore concat } bind def
/w { setlinewidth } bind def
/J { setlinecap } bind def
/j { setlinejoin } bind def
/M { setmiterlimit } bind def
/d { setdash } bind def
/m { moveto } bind def
/l { lineto } bind def
/c { curveto } bind def
/h { closepath } bind def
/re { exch dup neg 3 1 roll 5 3 roll moveto 0 rlineto
      0 exch rlineto 0 rlineto closepath } bind def
/S { stroke } bind def
/f { fill } bind def
/f* { eofill } bind def
/n { newpath } bind def
/W { clip } bind def
/W* { eoclip } bind def
/BT { } bind def
/ET { } bind def
/BDC { mark 3 1 roll /BDC pdfmark } bind def
/EMC { mark /EMC pdfmark } bind def
/cairo_store_point { /cairo_point_y exch def /cairo_point_x exch def } def
/Tj { show currentpoint cairo_store_point } bind def
/TJ {
  {
    dup
    type /stringtype eq
    { show } { -0.001 mul 0 cairo_font_matrix dtransform rmoveto } ifelse
  } forall
  currentpoint cairo_store_point
} bind def
/cairo_selectfont { cairo_font_matrix aload pop pop pop 0 0 6 array astore
    cairo_font exch selectfont cairo_point_x cairo_point_y moveto } bind def
/Tf { pop /cairo_font exch def /cairo_font_matrix where
      { pop cairo_selectfont } if } bind def
/Td { matrix translate cairo_font_matrix matrix concatmatrix dup
      /cairo_font_matrix exch def dup 4 get exch 5 get cairo_store_point
      /cairo_font where { pop cairo_selectfont } if } bind def
/Tm { 2 copy 8 2 roll 6 array astore /cairo_font_matrix exch def
      cairo_store_point /cairo_font where { pop cairo_selectfont } if } bind def
/g { setgray } bind def
/rg { setrgbcolor } bind def
/d1 { setcachedevice } bind def
/cairo_data_source {
  CairoDataIndex CairoData length lt
    { CairoData CairoDataIndex get /CairoDataIndex CairoDataIndex 1 add def }
    { () } ifelse
} def
/cairo_flush_ascii85_file { cairo_ascii85_file status { cairo_ascii85_file flushfile } if } def
/cairo_image { image cairo_flush_ascii85_file } def
/cairo_imagemask { imagemask cairo_flush_ascii85_file } def
%%EndProlog
%%BeginSetup
%%EndSetup
%%Page: 1 1
%%BeginPageSetup
%%PageBoundingBox: 76 58 308 326
%%EndPageSetup
q 76 58 232 268 rectclip
1 0 0 -1 0 384 cm q
0 g
302.078 58.879 m 102.398 58.879 l 88.285 58.879 76.801 70.363 76.801 84.48
 c 76.801 304.723 l 76.801 315.969 85.949 325.121 97.195 325.121 c 286.805
 325.121 l 298.051 325.121 307.203 315.969 307.203 304.723 c 307.203 64 
l 307.199 61.172 304.906 58.879 302.078 58.879 c h
102.398 69.121 m 296.961 69.121 l 296.961 99.84 l 143.359 99.84 l 143.359
 89.602 l 168.961 89.602 l 171.789 89.602 174.078 87.309 174.078 84.48 c
 174.078 81.652 171.789 79.359 168.961 79.359 c 87.938 79.359 l 90.051 73.402
 95.727 69.121 102.398 69.121 c h
102.398 99.84 m 95.727 99.84 90.051 95.555 87.938 89.602 c 102.398 89.602
 l h
112.641 89.602 m 133.121 89.602 l 133.121 156.16 l 126.977 147.969 l 126.008
 146.68 124.492 145.922 122.879 145.922 c 121.27 145.922 119.75 146.68 118.785
 147.969 c 112.641 156.16 l h
286.805 314.879 m 97.195 314.879 l 91.598 314.879 87.039 310.324 87.039
 304.723 c 87.039 104.91 l 91.324 108.141 96.633 110.078 102.398 110.078
 c 102.398 171.52 l 102.398 173.723 103.812 175.68 105.902 176.379 c 107.992
 177.074 110.293 176.355 111.617 174.594 c 122.879 159.574 l 134.145 174.594
 l 135.129 175.906 136.66 176.641 138.242 176.641 c 138.781 176.641 139.328
 176.555 139.859 176.379 c 141.949 175.68 143.359 173.723 143.359 171.52
 c 143.359 110.078 l 296.961 110.078 l 296.961 304.723 l 296.961 310.324
 292.402 314.879 286.805 314.879 c h
286.805 314.879 m f
191.375 130.941 m 189.797 130.293 188 130.48 186.586 131.43 c 185.168 132.383
 184.32 133.977 184.32 135.68 c 184.32 233.578 l 178.922 229.996 171.781
 227.84 163.84 227.84 c 146.613 227.84 133.121 237.961 133.121 250.879 c
 133.121 263.801 146.613 273.922 163.84 273.922 c 178.652 273.922 190.695
 266.434 193.781 256.121 c 194.266 255.34 194.559 254.43 194.559 253.441
 c 194.559 143.832 l 197.059 145.168 200.02 146.875 203.098 148.934 c 210.379
 153.797 219.738 161.586 222.98 171.082 c 225.168 177.477 224.348 183.84
 220.473 190.535 c 219.055 192.984 219.891 196.117 222.34 197.531 c 224.785
 198.949 227.918 198.113 229.332 195.664 c 234.703 186.387 235.824 177.004
 232.672 167.77 c 224.832 144.824 192.738 131.496 191.375 130.941 c h
163.84 263.68 m 152.738 263.68 143.359 257.816 143.359 250.879 c 143.359
 243.941 152.738 238.078 163.84 238.078 c 174.941 238.078 184.32 243.941
 184.32 250.879 c 184.32 257.816 174.941 263.68 163.84 263.68 c h
163.84 263.68 m f
Q Q
showpage
%%Trailer
end
%%EOF
