%!PS-Adobe-3.0 EPSF-3.0
%%Creator: cairo 1.16.0 (https://cairographics.org)
%%CreationDate: Thu Sep 19 06:52:28 2019
%%Pages: 1
%%DocumentData: Clean7Bit
%%LanguageLevel: 2
%%BoundingBox: 56 46 328 338
%%EndComments
%%BeginProlog
50 dict begin
/q { gsave } bind def
/Q { grestore } bind def
/cm { 6 array astore concat } bind def
/w { setlinewidth } bind def
/J { setlinecap } bind def
/j { setlinejoin } bind def
/M { setmiterlimit } bind def
/d { setdash } bind def
/m { moveto } bind def
/l { lineto } bind def
/c { curveto } bind def
/h { closepath } bind def
/re { exch dup neg 3 1 roll 5 3 roll moveto 0 rlineto
      0 exch rlineto 0 rlineto closepath } bind def
/S { stroke } bind def
/f { fill } bind def
/f* { eofill } bind def
/n { newpath } bind def
/W { clip } bind def
/W* { eoclip } bind def
/BT { } bind def
/ET { } bind def
/BDC { mark 3 1 roll /BDC pdfmark } bind def
/EMC { mark /EMC pdfmark } bind def
/cairo_store_point { /cairo_point_y exch def /cairo_point_x exch def } def
/Tj { show currentpoint cairo_store_point } bind def
/TJ {
  {
    dup
    type /stringtype eq
    { show } { -0.001 mul 0 cairo_font_matrix dtransform rmoveto } ifelse
  } forall
  currentpoint cairo_store_point
} bind def
/cairo_selectfont { cairo_font_matrix aload pop pop pop 0 0 6 array astore
    cairo_font exch selectfont cairo_point_x cairo_point_y moveto } bind def
/Tf { pop /cairo_font exch def /cairo_font_matrix where
      { pop cairo_selectfont } if } bind def
/Td { matrix translate cairo_font_matrix matrix concatmatrix dup
      /cairo_font_matrix exch def dup 4 get exch 5 get cairo_store_point
      /cairo_font where { pop cairo_selectfont } if } bind def
/Tm { 2 copy 8 2 roll 6 array astore /cairo_font_matrix exch def
      cairo_store_point /cairo_font where { pop cairo_selectfont } if } bind def
/g { setgray } bind def
/rg { setrgbcolor } bind def
/d1 { setcachedevice } bind def
/cairo_data_source {
  CairoDataIndex CairoData length lt
    { CairoData CairoDataIndex get /CairoDataIndex CairoDataIndex 1 add def }
    { () } ifelse
} def
/cairo_flush_ascii85_file { cairo_ascii85_file status { cairo_ascii85_file flushfile } if } def
/cairo_image { image cairo_flush_ascii85_file } def
/cairo_imagemask { imagemask cairo_flush_ascii85_file } def
%%EndProlog
%%BeginSetup
%%EndSetup
%%Page: 1 1
%%BeginPageSetup
%%PageBoundingBox: 56 46 328 338
%%EndPageSetup
q 56 46 272 292 rectclip
1 0 0 -1 0 384 cm q
0 g
327.68 181.762 m 327.68 106.945 266.816 46.078 192 46.078 c 117.184 46.078
 56.32 106.945 56.32 181.762 c 56.32 213.062 67.23 243.574 87.039 267.734
 c 87.039 296.707 l 87.039 311.27 98.887 323.117 113.449 323.117 c 166.973
 323.117 l 173.562 330.184 l 178.148 335.102 184.688 337.922 191.5 337.922
 c 197.871 337.922 203.887 335.527 208.445 331.184 c 216.91 323.113 l 270.551
 323.113 l 285.109 323.113 296.957 311.266 296.957 296.707 c 296.957 267.73
 l 316.77 243.574 327.68 213.062 327.68 181.762 c h
66.559 181.762 m 66.559 112.594 122.832 56.32 192 56.32 c 261.168 56.32
 317.441 112.594 317.441 181.762 c 317.441 206.199 310.227 230.105 296.961
 250.406 c 296.961 181.953 l 296.961 127.086 257.07 81.484 204.172 75.883
 c 196.664 75.09 187.336 75.09 179.828 75.883 c 126.93 81.48 87.039 127.082
 87.039 181.953 c 87.039 250.406 l 73.773 230.109 66.559 206.203 66.559 
181.762 c h
201.379 323.77 m 198.738 326.293 195.227 327.68 191.5 327.68 c 187.516 
327.68 183.707 326.047 181.051 323.199 c 172.707 314.246 l 172.27 313.781
 171.766 313.43 171.227 313.164 c 133.844 270.047 l 131.277 266.305 129.953
 261.922 130.012 257.348 c 130.066 253.293 130.234 246.832 130.734 239.16
 c 134.227 246.027 l 138.652 254.727 149.375 258.301 158.133 253.996 c 170.785
 247.773 l 174.156 246.113 178.188 246.113 181.562 247.773 c 188.098 250.984
 195.898 250.988 202.438 247.773 c 205.809 246.113 209.84 246.113 213.215
 247.773 c 227.207 254.656 l 229.719 255.891 232.406 256.48 235.066 256.48
 c 240.871 256.48 246.547 253.676 249.973 248.625 c 256.535 238.941 l 256.793
 241.016 257.035 243.121 257.266 245.266 c 258.535 257.09 255.09 269.145
 247.805 278.391 c 215.961 310.164 l 215.559 310.379 215.168 310.629 214.82
 310.957 c h
132.543 220.117 m 135.031 200.57 139.938 179.449 149.594 169.5 c 165.418
 153.195 181.273 140.664 189.32 134.641 c 190.922 133.441 193.078 133.441
 194.68 134.641 c 202.723 140.66 218.582 153.195 234.406 169.5 c 242.961
 178.312 249.871 197.355 254.375 224.051 c 254.152 224.277 253.941 224.52
 253.758 224.789 c 241.496 242.879 l 239.352 246.039 235.156 247.152 231.727
 245.465 c 217.734 238.586 l 211.527 235.535 204.121 235.535 197.918 238.586
 c 194.211 240.406 189.789 240.406 186.082 238.586 c 179.879 235.535 172.473
 235.535 166.27 238.586 c 153.617 244.805 l 149.855 246.656 145.254 245.121
 143.355 241.387 c h
286.719 296.707 m 286.719 305.621 279.465 312.875 270.551 312.875 c 227.738
 312.875 l 255.25 285.43 l 255.383 285.297 255.512 285.152 255.633 285 c
 264.711 273.633 269.016 258.75 267.449 244.172 c 264.402 215.789 257.469
 178.559 241.754 162.371 c 225.438 145.559 209.102 132.645 200.816 126.445
 c 195.543 122.5 188.457 122.5 183.184 126.445 c 174.898 132.648 158.562
 145.562 142.25 162.371 c 134.211 170.656 120.598 193.992 119.777 257.219
 c 119.691 264.039 121.707 270.578 125.609 276.137 c 125.707 276.281 125.816
 276.418 125.93 276.551 c 157.426 312.875 l 113.449 312.875 l 104.535 312.875
 97.281 305.621 97.281 296.707 c 97.281 181.957 l 97.281 132.34 133.23 91.113
 180.906 86.066 c 187.645 85.355 196.355 85.355 203.094 86.066 c 250.77 
91.113 286.719 132.336 286.719 181.953 c h
286.719 296.707 m f
193.109 267.789 m 191.086 269.758 187.836 269.715 185.867 267.691 c 183.895
 265.668 180.652 265.621 178.625 267.598 c 176.602 269.57 176.559 272.809
 178.531 274.836 c 181.539 277.922 185.535 279.473 189.539 279.473 c 193.402
 279.473 197.27 278.027 200.25 275.125 c 202.277 273.152 202.32 269.91 200.348
 267.887 c 198.379 265.859 195.137 265.816 193.109 267.789 c h
193.109 267.789 m f
Q Q
showpage
%%Trailer
end
%%EOF
