%!PS-Adobe-3.0 EPSF-3.0
%%Creator: cairo 1.16.0 (https://cairographics.org)
%%CreationDate: Thu Sep 19 06:52:28 2019
%%Pages: 1
%%DocumentData: Clean7Bit
%%LanguageLevel: 2
%%BoundingBox: 48 46 336 338
%%EndComments
%%BeginProlog
50 dict begin
/q { gsave } bind def
/Q { grestore } bind def
/cm { 6 array astore concat } bind def
/w { setlinewidth } bind def
/J { setlinecap } bind def
/j { setlinejoin } bind def
/M { setmiterlimit } bind def
/d { setdash } bind def
/m { moveto } bind def
/l { lineto } bind def
/c { curveto } bind def
/h { closepath } bind def
/re { exch dup neg 3 1 roll 5 3 roll moveto 0 rlineto
      0 exch rlineto 0 rlineto closepath } bind def
/S { stroke } bind def
/f { fill } bind def
/f* { eofill } bind def
/n { newpath } bind def
/W { clip } bind def
/W* { eoclip } bind def
/BT { } bind def
/ET { } bind def
/BDC { mark 3 1 roll /BDC pdfmark } bind def
/EMC { mark /EMC pdfmark } bind def
/cairo_store_point { /cairo_point_y exch def /cairo_point_x exch def } def
/Tj { show currentpoint cairo_store_point } bind def
/TJ {
  {
    dup
    type /stringtype eq
    { show } { -0.001 mul 0 cairo_font_matrix dtransform rmoveto } ifelse
  } forall
  currentpoint cairo_store_point
} bind def
/cairo_selectfont { cairo_font_matrix aload pop pop pop 0 0 6 array astore
    cairo_font exch selectfont cairo_point_x cairo_point_y moveto } bind def
/Tf { pop /cairo_font exch def /cairo_font_matrix where
      { pop cairo_selectfont } if } bind def
/Td { matrix translate cairo_font_matrix matrix concatmatrix dup
      /cairo_font_matrix exch def dup 4 get exch 5 get cairo_store_point
      /cairo_font where { pop cairo_selectfont } if } bind def
/Tm { 2 copy 8 2 roll 6 array astore /cairo_font_matrix exch def
      cairo_store_point /cairo_font where { pop cairo_selectfont } if } bind def
/g { setgray } bind def
/rg { setrgbcolor } bind def
/d1 { setcachedevice } bind def
/cairo_data_source {
  CairoDataIndex CairoData length lt
    { CairoData CairoDataIndex get /CairoDataIndex CairoDataIndex 1 add def }
    { () } ifelse
} def
/cairo_flush_ascii85_file { cairo_ascii85_file status { cairo_ascii85_file flushfile } if } def
/cairo_image { image cairo_flush_ascii85_file } def
/cairo_imagemask { imagemask cairo_flush_ascii85_file } def
%%EndProlog
%%BeginSetup
%%EndSetup
%%Page: 1 1
%%BeginPageSetup
%%PageBoundingBox: 48 46 336 338
%%EndPageSetup
q 48 46 288 292 rectclip
1 0 0 -1 0 384 cm q
0 g
330.238 102.398 m 303.75 102.398 l 303.465 102.398 303.191 102.441 302.914
 102.484 c 302.641 102.441 302.367 102.398 302.078 102.398 c 251.504 102.398
 l 240.395 99.664 229.023 98.035 217.602 97.496 c 217.602 71.68 l 217.602
 57.562 206.117 46.078 192 46.078 c 177.883 46.078 166.398 57.562 166.398
 71.68 c 166.398 97.328 l 153.254 97.566 140.145 99.258 127.375 102.398 
c 76.801 102.398 l 76.508 102.398 76.223 102.441 75.941 102.488 c 75.66 
102.441 75.379 102.398 75.086 102.398 c 53.762 102.398 l 50.934 102.398 
48.641 104.691 48.641 107.52 c 48.641 121.637 60.125 133.121 74.238 133.121
 c 77.125 133.121 l 80.523 140.906 86.027 148.578 94.988 153.059 c 95.703
 153.414 96.484 153.602 97.281 153.602 c 135.68 153.602 l 135.68 197.121
 l 135.68 198.832 136.535 200.43 137.961 201.379 c 151.039 210.102 l 151.039
 332.801 l 151.039 335.629 153.332 337.922 156.16 337.922 c 222.719 337.922
 l 225.547 337.922 227.84 335.629 227.84 332.801 c 227.84 304.758 l 235.125
 308.855 240.125 311.387 240.902 311.777 c 241.629 312.141 242.414 312.32
 243.199 312.32 c 244.133 312.32 245.066 312.066 245.891 311.559 c 247.402
 310.625 248.32 308.977 248.32 307.203 c 248.32 250.883 l 248.32 248.055
 246.027 245.762 243.199 245.762 c 238.922 245.762 l 235.113 245.762 231.398
 245.234 227.84 244.246 c 227.84 210.102 l 240.922 201.383 l 242.344 200.434
 243.199 198.832 243.199 197.121 c 243.199 153.602 l 281.602 153.602 l 282.395
 153.602 283.18 153.418 283.891 153.062 c 292.852 148.582 298.359 140.91
 301.754 133.121 c 309.762 133.121 l 323.875 133.121 335.359 121.637 335.359
 107.523 c 335.359 104.691 333.066 102.398 330.238 102.398 c h
192 56.32 m 200.469 56.32 207.359 63.211 207.359 71.68 c 207.359 97.281
 l 176.641 97.281 l 176.641 71.68 l 176.641 63.211 183.531 56.32 192 56.32
 c h
59.758 112.641 m 71.984 112.641 l 72.25 115.348 72.754 118.91 73.711 122.859
 c 67.266 122.637 61.812 118.441 59.758 112.641 c h
145.922 194.379 m 145.922 148.48 l 145.922 145.652 143.629 143.359 140.801
 143.359 c 98.551 143.359 l 86.637 136.641 83.258 120.832 82.297 112.641
 c 127.645 112.641 l 131.508 116.918 139.188 124.258 151.039 130.699 c 151.039
 197.793 l h
217.602 327.68 m 161.281 327.68 l 161.281 254.402 l 175.27 271.555 199.508
 287.961 217.602 298.812 c h
238.078 298.699 m 230.695 294.676 218.703 287.84 206.32 279.516 c 180.969
 262.465 165.422 246.996 161.281 234.719 c 161.281 135.523 l 164.465 136.809
 167.871 137.984 171.496 139.023 c 171.469 139.941 171.422 141.496 171.355
 143.449 c 170.434 170.449 176.438 197.074 188.719 220.441 c 190.703 224.219
 192.73 227.797 194.742 231.078 c 204.156 246.441 220.312 255.711 238.078
 255.996 c h
203.473 225.727 m 201.578 222.637 199.664 219.254 197.785 215.676 c 186.328
 193.879 180.727 169.023 181.594 143.797 c 181.621 142.91 181.648 142.109
 181.672 141.406 c 188.293 142.625 195.512 143.355 203.379 143.355 c 206.324
 143.355 209.359 143.254 212.48 143.043 c 212.48 220.16 l 212.48 222.988
 214.773 225.281 217.602 225.281 c 217.602 239.816 l 211.961 236.402 207.094
 231.637 203.473 225.727 c h
280.328 143.359 m 238.078 143.359 l 235.254 143.359 232.961 145.652 232.961
 148.48 c 232.961 194.379 l 222.719 201.207 l 222.719 122.879 l 222.719 
120.051 220.426 117.762 217.602 117.762 c 214.773 117.762 212.48 120.051
 212.48 122.879 c 212.48 132.766 l 199.043 133.668 164.129 133.43 139.586
 110.254 c 149.48 108.441 159.531 107.52 169.59 107.52 c 209.289 107.52 
l 222.879 107.52 236.453 109.191 249.637 112.488 c 250.047 112.59 250.461
 112.641 250.879 112.641 c 296.582 112.641 l 295.621 120.836 292.238 136.645
 280.328 143.359 c h
309.762 122.879 m 305.168 122.879 l 306.125 118.926 306.629 115.352 306.898
 112.641 c 324.242 112.641 l 322.129 118.602 316.434 122.879 309.762 122.879
 c h
309.762 122.879 m f
Q Q
showpage
%%Trailer
end
%%EOF
