%!PS-Adobe-3.0 EPSF-3.0
%%Creator: cairo 1.16.0 (https://cairographics.org)
%%CreationDate: Thu Sep 19 06:52:28 2019
%%Pages: 1
%%DocumentData: Clean7Bit
%%LanguageLevel: 2
%%BoundingBox: 88 53 296 331
%%EndComments
%%BeginProlog
50 dict begin
/q { gsave } bind def
/Q { grestore } bind def
/cm { 6 array astore concat } bind def
/w { setlinewidth } bind def
/J { setlinecap } bind def
/j { setlinejoin } bind def
/M { setmiterlimit } bind def
/d { setdash } bind def
/m { moveto } bind def
/l { lineto } bind def
/c { curveto } bind def
/h { closepath } bind def
/re { exch dup neg 3 1 roll 5 3 roll moveto 0 rlineto
      0 exch rlineto 0 rlineto closepath } bind def
/S { stroke } bind def
/f { fill } bind def
/f* { eofill } bind def
/n { newpath } bind def
/W { clip } bind def
/W* { eoclip } bind def
/BT { } bind def
/ET { } bind def
/BDC { mark 3 1 roll /BDC pdfmark } bind def
/EMC { mark /EMC pdfmark } bind def
/cairo_store_point { /cairo_point_y exch def /cairo_point_x exch def } def
/Tj { show currentpoint cairo_store_point } bind def
/TJ {
  {
    dup
    type /stringtype eq
    { show } { -0.001 mul 0 cairo_font_matrix dtransform rmoveto } ifelse
  } forall
  currentpoint cairo_store_point
} bind def
/cairo_selectfont { cairo_font_matrix aload pop pop pop 0 0 6 array astore
    cairo_font exch selectfont cairo_point_x cairo_point_y moveto } bind def
/Tf { pop /cairo_font exch def /cairo_font_matrix where
      { pop cairo_selectfont } if } bind def
/Td { matrix translate cairo_font_matrix matrix concatmatrix dup
      /cairo_font_matrix exch def dup 4 get exch 5 get cairo_store_point
      /cairo_font where { pop cairo_selectfont } if } bind def
/Tm { 2 copy 8 2 roll 6 array astore /cairo_font_matrix exch def
      cairo_store_point /cairo_font where { pop cairo_selectfont } if } bind def
/g { setgray } bind def
/rg { setrgbcolor } bind def
/d1 { setcachedevice } bind def
/cairo_data_source {
  CairoDataIndex CairoData length lt
    { CairoData CairoDataIndex get /CairoDataIndex CairoDataIndex 1 add def }
    { () } ifelse
} def
/cairo_flush_ascii85_file { cairo_ascii85_file status { cairo_ascii85_file flushfile } if } def
/cairo_image { image cairo_flush_ascii85_file } def
/cairo_imagemask { imagemask cairo_flush_ascii85_file } def
%%EndProlog
%%BeginSetup
%%EndSetup
%%Page: 1 1
%%BeginPageSetup
%%PageBoundingBox: 88 53 296 331
%%EndPageSetup
q 88 53 208 278 rectclip
1 0 0 -1 0 384 cm q
0 g
276.527 152.395 m 272.574 147.785 268.488 143.961 264.762 140.895 c 266.258
 140.57 267.559 139.586 268.262 138.18 c 269.125 136.445 268.941 134.367
 267.777 132.816 c 245.34 102.906 217.582 108.164 203.039 113.965 c 195.918
 116.801 188.078 116.801 180.965 113.965 c 180.965 113.965 180.965 113.965
 180.961 113.965 c 166.414 108.168 138.656 102.906 116.223 132.816 c 115.059
 134.371 114.875 136.445 115.738 138.18 c 116.445 139.586 117.742 140.57
 119.238 140.895 c 115.512 143.961 111.426 147.785 107.473 152.395 c 96.238
 165.504 84.035 187.648 89.684 218.723 c 89.949 220.184 90.832 221.457 92.113
 222.215 c 93.391 222.973 94.934 223.137 96.34 222.668 c 101.762 220.859
 l 100.023 226.828 98.254 234.914 97.926 243.859 c 97.012 268.523 107.438
 287.621 128.074 299.086 c 130.406 300.383 133.34 299.668 134.82 297.449
 c 139.113 291.008 l 144.484 303.5 157.965 323.012 190.891 330.328 c 191.254
 330.41 191.629 330.453 192 330.453 c 192.371 330.453 192.746 330.41 193.109
 330.328 c 226.035 323.012 239.516 303.5 244.887 291.008 c 249.18 297.449
 l 250.66 299.672 253.594 300.383 255.926 299.086 c 276.562 287.621 286.988
 268.523 286.074 243.859 c 285.746 234.918 283.977 226.828 282.238 220.859
 c 287.66 222.668 l 289.066 223.137 290.609 222.973 291.887 222.215 c 293.168
 221.457 294.051 220.184 294.316 218.723 c 299.969 187.648 287.762 165.504
 276.527 152.395 c h
285.094 211.016 m 275.539 207.832 l 273.613 207.191 271.484 207.75 270.121
 209.262 c 268.758 210.77 268.418 212.945 269.258 214.801 c 270.184 216.855
 290.82 263.781 254.977 287.684 c 247.461 276.406 l 246.289 274.648 244.156
 273.805 242.09 274.262 c 240.027 274.719 238.453 276.41 238.137 278.5 c
 237.938 279.812 232.812 310.48 192 320.074 c 151.191 310.48 146.066 279.812
 145.871 278.523 c 145.57 276.422 144.004 274.723 141.934 274.254 c 141.555
 274.168 141.176 274.125 140.801 274.125 c 139.113 274.125 137.504 274.961
 136.543 276.406 c 129.023 287.68 l 93.184 263.781 113.816 216.855 114.742
 214.805 c 115.586 212.949 115.25 210.773 113.887 209.258 c 112.527 207.75
 110.398 207.188 108.465 207.828 c 98.91 211.012 l 93.812 163.336 136.105
 141.406 137.973 140.465 c 140.098 139.402 141.211 137.02 140.664 134.711
 c 140.121 132.398 138.059 130.766 135.684 130.766 c 131.758 130.766 l 147.449
 116.34 164.707 118.504 177.172 123.473 c 186.734 127.285 197.266 127.285
 206.832 123.473 c 219.297 118.508 236.555 116.34 252.246 130.766 c 248.32
 130.766 l 245.949 130.766 243.891 132.395 243.344 134.703 c 242.793 137.012
 243.902 139.395 246.023 140.461 c 247.895 141.41 290.188 163.34 285.094
 211.016 c h
285.094 211.016 m f
232.543 162.664 m 216.586 153.723 198.078 158.977 192 161.129 c 185.922
 158.977 167.414 153.719 151.457 162.664 c 139.262 169.5 131.652 182.789
 128.844 202.16 c 127.977 208.141 130.02 214.27 134.312 218.559 c 145.285
 229.535 l 142.047 242.555 142.57 264.988 164.5 273.762 c 165.227 274.051
 166 274.148 166.766 274.094 c 167.793 281.418 173.703 286.93 180.914 286.93
 c 203.285 286.93 l 210.449 286.93 216.379 281.355 217.422 274.113 c 217.48
 274.113 217.539 274.129 217.602 274.129 c 218.246 274.129 218.891 274.004
 219.5 273.762 c 241.43 264.992 241.953 242.555 238.715 229.535 c 249.691
 218.559 l 253.98 214.27 256.02 208.137 255.152 202.16 c 252.344 182.789
 244.738 169.5 232.543 162.664 c h
203.285 276.688 m 180.914 276.688 l 178.746 276.688 176.918 274.594 176.844
 272.016 c 176.793 270.367 l 192 264.281 l 207.359 270.426 l 207.359 271.852
 l 207.359 274.516 205.531 276.688 203.285 276.688 c h
242.449 211.32 m 232.578 221.188 l 218.328 209.785 l 217.176 208.867 216.945
 207.672 216.914 207.039 c 216.879 206.406 216.977 205.195 218.016 204.152
 c 221.707 200.457 l 223.707 198.457 223.707 195.215 221.707 193.219 c 219.711
 191.219 216.465 191.219 214.469 193.219 c 210.773 196.914 l 207.957 199.73
 206.469 203.625 206.688 207.605 c 206.91 211.582 208.82 215.293 211.93 
217.781 c 228.5 231.035 l 229.918 236.398 233.664 255.574 217.504 263.453
 c 193.902 254.012 l 192.684 253.527 191.32 253.527 190.102 254.012 c 166.5
 263.453 l 150.332 255.57 154.09 236.379 155.504 231.035 c 172.07 217.781
 l 175.184 215.293 177.094 211.582 177.312 207.605 c 177.535 203.629 176.043
 199.73 173.227 196.914 c 169.535 193.219 l 167.535 191.219 164.289 191.219
 162.293 193.219 c 160.293 195.219 160.293 198.461 162.293 200.457 c 165.988
 204.152 l 167.027 205.191 167.125 206.406 167.09 207.039 c 167.055 207.668
 166.824 208.867 165.676 209.785 c 151.422 221.188 l 141.555 211.32 l 139.539
 209.305 138.578 206.426 138.98 203.629 c 141.305 187.602 147.172 176.832
 156.418 171.621 c 161.414 168.809 166.918 167.883 172 167.883 c 181.707
 167.883 189.867 171.266 189.988 171.312 c 191.27 171.863 192.727 171.859
 194.008 171.316 c 194.199 171.238 213.043 163.43 227.586 171.621 c 236.832
 176.832 242.699 187.602 245.02 203.629 c 245.02 203.629 245.02 203.629 
245.023 203.629 c 245.426 206.426 244.465 209.301 242.449 211.32 c h
242.449 211.32 m f
200.859 233.168 m 182.973 233.168 l 180.742 233.168 179.688 235.918 181.34
 237.41 c 191.734 246.789 l 202.457 237.441 l 204.156 235.961 203.109 233.168
 200.859 233.168 c h
200.859 233.168 m f
151.133 90.531 m 162.117 93.633 176.633 95.344 192 95.344 c 207.367 95.344
 221.883 93.633 232.867 90.531 c 246.188 86.766 252.945 81.355 252.945 74.449
 c 252.945 67.543 246.188 62.133 232.867 58.367 c 221.883 55.262 207.367
 53.551 192 53.551 c 176.633 53.551 162.117 55.262 151.133 58.367 c 137.812
 62.133 131.055 67.543 131.055 74.449 c 131.055 81.355 137.812 86.766 151.133
 90.531 c h
192 63.793 m 224.785 63.793 241.309 71.301 242.672 74.449 c 241.309 77.594
 224.785 85.102 192 85.102 c 159.215 85.102 142.691 77.594 141.328 74.449
 c 142.691 71.305 159.215 63.793 192 63.793 c h
192 63.793 m f
Q Q
showpage
%%Trailer
end
%%EOF
