%!PS-Adobe-3.0 EPSF-3.0
%%Creator: cairo 1.16.0 (https://cairographics.org)
%%CreationDate: Thu Sep 19 06:52:29 2019
%%Pages: 1
%%DocumentData: Clean7Bit
%%LanguageLevel: 2
%%BoundingBox: 61 76 323 308
%%EndComments
%%BeginProlog
50 dict begin
/q { gsave } bind def
/Q { grestore } bind def
/cm { 6 array astore concat } bind def
/w { setlinewidth } bind def
/J { setlinecap } bind def
/j { setlinejoin } bind def
/M { setmiterlimit } bind def
/d { setdash } bind def
/m { moveto } bind def
/l { lineto } bind def
/c { curveto } bind def
/h { closepath } bind def
/re { exch dup neg 3 1 roll 5 3 roll moveto 0 rlineto
      0 exch rlineto 0 rlineto closepath } bind def
/S { stroke } bind def
/f { fill } bind def
/f* { eofill } bind def
/n { newpath } bind def
/W { clip } bind def
/W* { eoclip } bind def
/BT { } bind def
/ET { } bind def
/BDC { mark 3 1 roll /BDC pdfmark } bind def
/EMC { mark /EMC pdfmark } bind def
/cairo_store_point { /cairo_point_y exch def /cairo_point_x exch def } def
/Tj { show currentpoint cairo_store_point } bind def
/TJ {
  {
    dup
    type /stringtype eq
    { show } { -0.001 mul 0 cairo_font_matrix dtransform rmoveto } ifelse
  } forall
  currentpoint cairo_store_point
} bind def
/cairo_selectfont { cairo_font_matrix aload pop pop pop 0 0 6 array astore
    cairo_font exch selectfont cairo_point_x cairo_point_y moveto } bind def
/Tf { pop /cairo_font exch def /cairo_font_matrix where
      { pop cairo_selectfont } if } bind def
/Td { matrix translate cairo_font_matrix matrix concatmatrix dup
      /cairo_font_matrix exch def dup 4 get exch 5 get cairo_store_point
      /cairo_font where { pop cairo_selectfont } if } bind def
/Tm { 2 copy 8 2 roll 6 array astore /cairo_font_matrix exch def
      cairo_store_point /cairo_font where { pop cairo_selectfont } if } bind def
/g { setgray } bind def
/rg { setrgbcolor } bind def
/d1 { setcachedevice } bind def
/cairo_data_source {
  CairoDataIndex CairoData length lt
    { CairoData CairoDataIndex get /CairoDataIndex CairoDataIndex 1 add def }
    { () } ifelse
} def
/cairo_flush_ascii85_file { cairo_ascii85_file status { cairo_ascii85_file flushfile } if } def
/cairo_image { image cairo_flush_ascii85_file } def
/cairo_imagemask { imagemask cairo_flush_ascii85_file } def
%%EndProlog
%%BeginSetup
%%EndSetup
%%Page: 1 1
%%BeginPageSetup
%%PageBoundingBox: 61 76 323 308
%%EndPageSetup
q 61 76 262 232 rectclip
1 0 0 -1 0 384 cm q
0 g
304.641 92.16 m 294.801 92.16 286.785 100.133 286.719 109.961 c 284.324
 165.141 l 283.418 164.902 282.48 164.738 281.531 164.66 c 276.836 164.27
 272.238 165.961 268.91 169.285 c 229.41 208.789 l 220.145 218.055 215.039
 230.379 215.039 243.488 c 215.039 302.078 l 215.039 304.906 217.332 307.199
 220.16 307.199 c 266.238 307.199 l 269.066 307.199 271.359 304.906 271.359
 302.078 c 271.359 284.762 l 271.359 277.242 273.883 269.816 278.469 263.859
 c 308.531 224.777 l 317.578 213.02 322.559 198.371 322.559 183.535 c 322.559
 110.078 l 322.559 100.199 314.523 92.16 304.641 92.16 c h
312.32 183.535 m 312.32 196.125 308.094 208.555 300.414 218.535 c 270.355
 257.617 l 264.398 265.355 261.121 274.996 261.121 284.762 c 261.121 296.961
 l 225.281 296.961 l 225.281 243.488 l 225.281 233.113 229.32 223.359 236.652
 216.027 c 276.152 176.527 l 277.367 175.312 278.969 174.723 280.688 174.863
 c 282.383 175.004 283.867 175.84 284.863 177.219 c 284.875 177.238 284.891
 177.258 284.902 177.277 c 286.52 179.566 286.258 182.66 284.27 184.645 
c 257.496 211.418 l 255.5 213.418 255.5 216.66 257.496 218.66 c 259.496 
220.656 262.738 220.656 264.738 218.66 c 291.512 191.887 l 296.605 186.793
 297.625 179.082 294.234 172.914 c 296.953 110.301 l 296.957 110.227 296.961
 110.152 296.961 110.078 c 296.961 105.844 300.406 102.398 304.641 102.398
 c 308.875 102.398 312.32 105.844 312.32 110.078 c h
312.32 183.535 m f
115.086 169.285 m 111.758 165.957 107.16 164.27 102.469 164.66 c 101.516
 164.738 100.582 164.898 99.676 165.141 c 97.281 109.961 l 97.215 100.133
 89.199 92.16 79.359 92.16 c 69.477 92.16 61.441 100.199 61.441 110.078 
c 61.441 183.535 l 61.441 198.371 66.422 213.02 75.469 224.777 c 105.531
 263.859 l 110.113 269.82 112.641 277.242 112.641 284.762 c 112.641 302.078
 l 112.641 304.906 114.934 307.199 117.762 307.199 c 163.84 307.199 l 166.668
 307.199 168.961 304.906 168.961 302.078 c 168.961 243.488 l 168.961 230.379
 163.855 218.055 154.586 208.785 c h
158.719 296.961 m 122.879 296.961 l 122.879 284.762 l 122.879 274.996 119.602
 265.355 113.645 257.617 c 83.586 218.535 l 75.906 208.555 71.68 196.125
 71.68 183.535 c 71.68 110.078 l 71.68 105.844 75.125 102.398 79.359 102.398
 c 83.594 102.398 87.039 105.844 87.039 110.078 c 87.039 110.152 87.043 
110.227 87.047 110.301 c 89.766 172.914 l 86.371 179.082 87.395 186.797 
92.484 191.887 c 119.258 218.66 l 121.258 220.66 124.5 220.66 126.5 218.66
 c 128.5 216.66 128.5 213.418 126.5 211.418 c 99.727 184.645 l 97.742 182.66
 97.477 179.566 99.094 177.277 c 99.109 177.258 99.121 177.238 99.133 177.219
 c 100.133 175.84 101.613 175.008 103.312 174.867 c 105.02 174.723 106.633
 175.316 107.844 176.527 c 147.344 216.027 l 154.68 223.363 158.719 233.113
 158.719 243.488 c h
158.719 296.961 m f
220.16 76.801 m 210.414 76.801 201.238 80.734 194.559 87.566 c 187.879 
80.734 178.703 76.801 168.961 76.801 c 149.199 76.801 133.121 92.879 133.121
 112.641 c 133.121 132.801 177.051 183.922 191.719 193.699 c 192.578 194.273
 193.57 194.559 194.559 194.559 c 195.551 194.559 196.539 194.273 197.398
 193.699 c 212.066 183.922 256 132.801 256 112.641 c 256 92.879 239.922 
76.801 220.16 76.801 c h
194.559 183.07 m 177.828 169.594 143.359 125.945 143.359 112.641 c 143.359
 98.523 154.844 87.039 168.961 87.039 c 177.551 87.039 185.527 91.328 190.297
 98.504 c 191.242 99.934 192.844 100.793 194.559 100.793 c 196.273 100.793
 197.875 99.934 198.824 98.504 c 203.594 91.328 211.57 87.039 220.16 87.039
 c 234.277 87.039 245.762 98.523 245.762 112.641 c 245.762 125.945 211.289
 169.594 194.559 183.07 c h
194.559 183.07 m f
203.477 122.879 m 199.68 122.879 l 199.68 117.762 l 199.68 114.934 197.387
 112.641 194.559 112.641 c 191.734 112.641 189.441 114.934 189.441 117.762
 c 189.441 122.879 l 185.645 122.879 l 182.816 122.879 180.523 125.172 180.523
 128 c 180.523 130.828 182.816 133.121 185.645 133.121 c 189.441 133.121
 l 189.441 158.719 l 189.441 161.547 191.734 163.84 194.559 163.84 c 197.387
 163.84 199.68 161.547 199.68 158.719 c 199.68 133.121 l 203.477 133.121
 l 206.301 133.121 208.594 130.828 208.594 128 c 208.594 125.172 206.301
 122.879 203.477 122.879 c h
203.477 122.879 m f
Q Q
showpage
%%Trailer
end
%%EOF
