%!PS-Adobe-3.0 EPSF-3.0
%%Creator: cairo 1.16.0 (https://cairographics.org)
%%CreationDate: Thu Sep 19 06:52:29 2019
%%Pages: 1
%%DocumentData: Clean7Bit
%%LanguageLevel: 2
%%BoundingBox: 53 48 331 336
%%EndComments
%%BeginProlog
50 dict begin
/q { gsave } bind def
/Q { grestore } bind def
/cm { 6 array astore concat } bind def
/w { setlinewidth } bind def
/J { setlinecap } bind def
/j { setlinejoin } bind def
/M { setmiterlimit } bind def
/d { setdash } bind def
/m { moveto } bind def
/l { lineto } bind def
/c { curveto } bind def
/h { closepath } bind def
/re { exch dup neg 3 1 roll 5 3 roll moveto 0 rlineto
      0 exch rlineto 0 rlineto closepath } bind def
/S { stroke } bind def
/f { fill } bind def
/f* { eofill } bind def
/n { newpath } bind def
/W { clip } bind def
/W* { eoclip } bind def
/BT { } bind def
/ET { } bind def
/BDC { mark 3 1 roll /BDC pdfmark } bind def
/EMC { mark /EMC pdfmark } bind def
/cairo_store_point { /cairo_point_y exch def /cairo_point_x exch def } def
/Tj { show currentpoint cairo_store_point } bind def
/TJ {
  {
    dup
    type /stringtype eq
    { show } { -0.001 mul 0 cairo_font_matrix dtransform rmoveto } ifelse
  } forall
  currentpoint cairo_store_point
} bind def
/cairo_selectfont { cairo_font_matrix aload pop pop pop 0 0 6 array astore
    cairo_font exch selectfont cairo_point_x cairo_point_y moveto } bind def
/Tf { pop /cairo_font exch def /cairo_font_matrix where
      { pop cairo_selectfont } if } bind def
/Td { matrix translate cairo_font_matrix matrix concatmatrix dup
      /cairo_font_matrix exch def dup 4 get exch 5 get cairo_store_point
      /cairo_font where { pop cairo_selectfont } if } bind def
/Tm { 2 copy 8 2 roll 6 array astore /cairo_font_matrix exch def
      cairo_store_point /cairo_font where { pop cairo_selectfont } if } bind def
/g { setgray } bind def
/rg { setrgbcolor } bind def
/d1 { setcachedevice } bind def
/cairo_data_source {
  CairoDataIndex CairoData length lt
    { CairoData CairoDataIndex get /CairoDataIndex CairoDataIndex 1 add def }
    { () } ifelse
} def
/cairo_flush_ascii85_file { cairo_ascii85_file status { cairo_ascii85_file flushfile } if } def
/cairo_image { image cairo_flush_ascii85_file } def
/cairo_imagemask { imagemask cairo_flush_ascii85_file } def
%%EndProlog
%%BeginSetup
%%EndSetup
%%Page: 1 1
%%BeginPageSetup
%%PageBoundingBox: 53 48 331 336
%%EndPageSetup
q 53 48 278 288 rectclip
1 0 0 -1 0 384 cm q
0 g
299.363 239.602 m 258.559 221.051 l 258.559 216.797 l 278.148 207.43 293.031
 189.973 299.074 168.949 c 302.379 169.047 305.605 168.121 308.703 166.195
 c 313.457 163.234 316.668 158.41 317.301 153.293 c 317.93 148.164 316.344
 143.016 312.945 139.172 c 310.617 136.535 307.586 134.668 304.254 133.758
 c 304.246 132.855 304.25 131.707 304.27 130.25 c 304.285 129.336 304.223
 128.434 304.117 127.531 c 304.457 126.84 304.641 126.074 304.641 125.285
 c 304.641 114.547 l 304.641 90.316 293.691 70.676 273.805 59.23 c 251.309
 46.285 220.402 45.684 197.121 57.387 c 197.121 53.762 l 197.121 50.934 
194.828 48.641 192 48.641 c 58.879 48.641 l 56.051 48.641 53.762 50.934 
53.762 53.762 c 53.762 135.68 l 53.762 138.508 56.051 140.801 58.879 140.801
 c 104.129 140.801 l 127.281 160.094 l 128.223 160.875 129.387 161.281 130.562
 161.281 c 131.297 161.281 132.039 161.121 132.73 160.797 c 134.531 159.953
 135.68 158.148 135.68 156.16 c 135.68 140.801 l 156.836 140.801 l 154.617
 143.965 153.473 147.738 153.613 151.688 c 153.809 157.168 156.914 162.457
 161.926 165.84 c 165.094 167.977 168.324 169.031 171.715 168.965 c 177.074
 188.539 190.02 205.047 207.363 215.016 c 207.363 215.023 207.359 215.031
 207.359 215.043 c 207.359 221.055 l 166.555 239.602 l 147.801 248.129 135.68
 267.176 135.68 288.129 c 135.68 330.238 l 135.68 333.066 137.973 335.359
 140.801 335.359 c 325.121 335.359 l 327.949 335.359 330.242 333.066 330.242
 330.238 c 330.242 288.125 l 330.238 267.172 318.121 248.125 299.363 239.602
 c h
232.961 265.387 m 207.945 232.035 l 208.969 231.566 l 212.582 241.328 221.957
 248.32 232.961 248.32 c 243.961 248.32 253.336 241.328 256.949 231.57 c
 257.977 232.035 l h
268.699 68.105 m 280.422 74.852 294.398 88.387 294.398 114.547 c 294.398
 122.738 l 279.012 134.02 261.613 138.242 245.164 134.629 c 230.656 131.445
 218.629 122.418 212.164 109.863 c 211.414 108.41 210.016 107.398 208.398
 107.148 c 208.137 107.109 207.875 107.09 207.613 107.09 c 206.262 107.09
 204.953 107.625 203.984 108.598 c 197.391 115.219 187.766 119.203 177.051
 119.855 c 177.039 117.469 177.016 114.887 176.988 112.219 c 176.961 109.527
 176.934 106.77 176.922 104.094 c 176.84 84.895 188.648 73.992 198.57 68.227
 c 218.848 56.441 248.34 56.391 268.699 68.105 c h
130.559 130.559 m 127.734 130.559 125.441 132.852 125.441 135.68 c 125.441
 145.23 l 109.262 131.746 l 108.34 130.98 107.18 130.559 105.984 130.559
 c 64 130.559 l 64 58.879 l 186.879 58.879 l 186.879 62.719 l 186.879 63.047
 186.918 63.363 186.977 63.672 c 173.766 73.703 166.613 87.824 166.68 104.137
 c 166.691 106.832 166.719 109.609 166.75 112.324 c 166.797 117.047 166.84
 121.508 166.793 124.965 c 166.789 125.262 166.824 125.551 166.867 125.836
 c 166.703 125.84 l 166.75 127.504 166.773 129.098 166.785 130.559 c h
180.598 162.094 m 180.301 160.656 179.406 159.414 178.133 158.684 c 176.859
 157.949 175.332 157.801 173.945 158.27 c 171.91 158.953 170.148 159.035
 167.652 157.352 c 165.383 155.816 163.922 153.508 163.844 151.324 c 163.77
 149.215 164.531 147.219 165.992 145.707 c 167.453 144.191 169.414 143.359
 171.52 143.359 c 175.23 141.789 l 176.5 140.484 177.16 139.797 177.035 
130.102 c 188.078 129.539 198.305 126.027 206.316 120.074 c 214.605 132.457
 227.656 141.27 242.969 144.629 c 247.555 145.637 252.188 146.133 256.836
 146.133 c 269.488 146.133 282.191 142.43 294.02 135.281 c 294.105 139.113
 294.523 140.492 295.82 141.809 c 296.785 142.785 298.152 143.359 299.52
 143.359 c 301.719 143.359 303.816 144.305 305.277 145.957 c 306.754 147.625
 307.414 149.785 307.137 152.039 c 306.883 154.121 305.441 156.16 303.289
 157.504 c 301.137 158.844 299.305 159.055 296.984 158.238 c 295.598 157.75
 294.07 157.879 292.789 158.594 c 291.504 159.309 290.59 160.539 290.277
 161.977 c 285.289 184.867 268.367 203.566 246.121 210.777 c 243.848 211.512
 l 237.582 213.543 230.906 213.625 225.055 211.742 c 202.418 204.457 185.379
 185.43 180.598 162.094 c h
221.918 221.488 m 225.797 222.738 229.836 223.359 233.926 223.359 c 238.27
 223.359 242.672 222.66 247.008 221.254 c 248.32 220.828 l 248.32 222.719
 l 248.32 231.191 241.43 238.078 232.961 238.078 c 224.492 238.078 217.602
 231.191 217.602 222.719 c 217.602 219.949 l 219.02 220.5 220.457 221.02
 221.918 221.488 c h
320 325.121 m 145.922 325.121 l 145.922 288.125 l 145.922 271.18 155.684
 255.789 170.793 248.922 c 198.398 236.375 l 227.84 275.629 l 227.84 284.16
 l 222.719 284.16 l 219.891 284.16 217.602 286.453 217.602 289.281 c 217.602
 292.109 219.891 294.398 222.719 294.398 c 227.84 294.398 l 227.84 309.762
 l 227.84 312.586 230.133 314.879 232.961 314.879 c 235.789 314.879 238.078
 312.586 238.078 309.762 c 238.078 294.398 l 243.199 294.398 l 246.027 294.398
 248.32 292.109 248.32 289.281 c 248.32 286.453 246.027 284.16 243.199 284.16
 c 238.078 284.16 l 238.078 275.625 l 267.52 236.371 l 295.129 248.922 l
 310.238 255.789 320 271.18 320 288.125 c h
320 325.121 m f
94.719 74.238 m 89.602 74.238 l 89.602 69.121 l 89.602 66.293 87.309 64
 84.48 64 c 81.652 64 79.359 66.293 79.359 69.121 c 79.359 74.238 l 74.238
 74.238 l 71.414 74.238 69.121 76.531 69.121 79.359 c 69.121 82.188 71.414
 84.48 74.238 84.48 c 79.359 84.48 l 79.359 104.961 l 79.359 107.789 81.652
 110.078 84.48 110.078 c 87.309 110.078 89.602 107.789 89.602 104.961 c 
89.602 84.48 l 94.719 84.48 l 97.547 84.48 99.84 82.188 99.84 79.359 c 99.84
 76.531 97.547 74.238 94.719 74.238 c h
94.719 74.238 m f
151.039 69.121 m 120.32 69.121 l 117.492 69.121 115.199 71.414 115.199 
74.238 c 115.199 77.066 117.492 79.359 120.32 79.359 c 151.039 79.359 l 
153.867 79.359 156.16 77.066 156.16 74.238 c 156.16 71.414 153.867 69.121
 151.039 69.121 c h
151.039 69.121 m f
151.039 89.602 m 120.32 89.602 l 117.492 89.602 115.199 91.891 115.199 
94.719 c 115.199 97.547 117.492 99.84 120.32 99.84 c 151.039 99.84 l 153.867
 99.84 156.16 97.547 156.16 94.719 c 156.16 91.891 153.867 89.602 151.039
 89.602 c h
151.039 89.602 m f
151.039 110.078 m 120.32 110.078 l 117.492 110.078 115.199 112.371 115.199
 115.199 c 115.199 118.027 117.492 120.32 120.32 120.32 c 151.039 120.32
 l 153.867 120.32 156.16 118.027 156.16 115.199 c 156.16 112.371 153.867
 110.078 151.039 110.078 c h
151.039 110.078 m f
233.062 195 m 237.086 195 240.883 193.457 243.77 190.645 c 245.797 188.672
 245.84 185.43 243.867 183.406 c 241.895 181.379 238.652 181.336 236.629
 183.309 c 235.664 184.246 234.398 184.762 233.059 184.762 c 233.035 184.762
 233.012 184.762 232.988 184.762 c 231.621 184.742 230.344 184.191 229.387
 183.211 c 227.414 181.184 224.172 181.145 222.148 183.117 c 220.121 185.09
 220.078 188.332 222.051 190.355 c 224.914 193.297 228.746 194.945 232.852
 195 c 232.922 195 232.992 195 233.062 195 c h
233.062 195 m f
Q Q
showpage
%%Trailer
end
%%EOF
