%!PS-Adobe-3.0 EPSF-3.0
%%Creator: cairo 1.16.0 (https://cairographics.org)
%%CreationDate: Thu Sep 19 06:52:29 2019
%%Pages: 1
%%DocumentData: Clean7Bit
%%LanguageLevel: 2
%%BoundingBox: 75 56 309 328
%%EndComments
%%BeginProlog
50 dict begin
/q { gsave } bind def
/Q { grestore } bind def
/cm { 6 array astore concat } bind def
/w { setlinewidth } bind def
/J { setlinecap } bind def
/j { setlinejoin } bind def
/M { setmiterlimit } bind def
/d { setdash } bind def
/m { moveto } bind def
/l { lineto } bind def
/c { curveto } bind def
/h { closepath } bind def
/re { exch dup neg 3 1 roll 5 3 roll moveto 0 rlineto
      0 exch rlineto 0 rlineto closepath } bind def
/S { stroke } bind def
/f { fill } bind def
/f* { eofill } bind def
/n { newpath } bind def
/W { clip } bind def
/W* { eoclip } bind def
/BT { } bind def
/ET { } bind def
/BDC { mark 3 1 roll /BDC pdfmark } bind def
/EMC { mark /EMC pdfmark } bind def
/cairo_store_point { /cairo_point_y exch def /cairo_point_x exch def } def
/Tj { show currentpoint cairo_store_point } bind def
/TJ {
  {
    dup
    type /stringtype eq
    { show } { -0.001 mul 0 cairo_font_matrix dtransform rmoveto } ifelse
  } forall
  currentpoint cairo_store_point
} bind def
/cairo_selectfont { cairo_font_matrix aload pop pop pop 0 0 6 array astore
    cairo_font exch selectfont cairo_point_x cairo_point_y moveto } bind def
/Tf { pop /cairo_font exch def /cairo_font_matrix where
      { pop cairo_selectfont } if } bind def
/Td { matrix translate cairo_font_matrix matrix concatmatrix dup
      /cairo_font_matrix exch def dup 4 get exch 5 get cairo_store_point
      /cairo_font where { pop cairo_selectfont } if } bind def
/Tm { 2 copy 8 2 roll 6 array astore /cairo_font_matrix exch def
      cairo_store_point /cairo_font where { pop cairo_selectfont } if } bind def
/g { setgray } bind def
/rg { setrgbcolor } bind def
/d1 { setcachedevice } bind def
/cairo_data_source {
  CairoDataIndex CairoData length lt
    { CairoData CairoDataIndex get /CairoDataIndex CairoDataIndex 1 add def }
    { () } ifelse
} def
/cairo_flush_ascii85_file { cairo_ascii85_file status { cairo_ascii85_file flushfile } if } def
/cairo_image { image cairo_flush_ascii85_file } def
/cairo_imagemask { imagemask cairo_flush_ascii85_file } def
%%EndProlog
%%BeginSetup
%%EndSetup
%%Page: 1 1
%%BeginPageSetup
%%PageBoundingBox: 75 56 309 328
%%EndPageSetup
q 75 56 234 272 rectclip
1 0 0 -1 0 384 cm q
0 g
188.34 107.559 m 185.512 107.559 183.219 105.266 183.219 102.441 c 183.219
 61.48 l 183.219 58.652 185.512 56.359 188.34 56.359 c 191.168 56.359 193.461
 58.652 193.461 61.48 c 193.461 102.441 l 193.461 105.266 191.168 107.559
 188.34 107.559 c h
188.34 107.559 m f
197.254 76.84 m 179.426 76.84 l 176.598 76.84 174.305 74.547 174.305 71.719
 c 174.305 68.891 176.598 66.602 179.426 66.602 c 197.254 66.602 l 200.082
 66.602 202.375 68.891 202.375 71.719 c 202.375 74.547 200.082 76.84 197.254
 76.84 c h
197.254 76.84 m f
124.918 139.43 m 109.895 139.43 97.672 127.207 97.672 112.184 c 97.672 
97.16 109.895 84.938 124.918 84.938 c 139.941 84.938 152.164 97.16 152.164
 112.184 c 152.164 127.207 139.941 139.43 124.918 139.43 c h
124.918 95.176 m 115.539 95.176 107.91 102.805 107.91 112.184 c 107.91 
121.559 115.539 129.188 124.918 129.188 c 134.297 129.188 141.926 121.559
 141.926 112.184 c 141.926 102.805 134.293 95.176 124.918 95.176 c h
124.918 95.176 m f
159.297 245.66 m 157.453 245.66 155.668 244.66 154.754 242.91 c 153.445
 240.406 154.414 237.312 156.918 236.004 c 161.449 233.633 l 165.613 231.449
 168.203 227.102 168.203 222.277 c 168.203 182.68 l 168.203 177.852 166.117
 173.332 162.48 170.289 c 146.871 157.219 l 144.09 154.891 140.605 153.605
 137.062 153.605 c 117.082 153.605 l 113.539 153.605 110.055 154.891 107.273
 157.219 c 91.664 170.289 l 88.027 173.332 85.941 177.848 85.941 182.68 
c 85.941 222.277 l 85.941 227.102 88.531 231.449 92.695 233.633 c 97.156
 235.965 l 99.66 237.277 100.633 240.371 99.32 242.875 c 98.008 245.383 
94.914 246.348 92.41 245.039 c 87.949 242.703 l 80.395 238.75 75.703 230.922
 75.703 222.277 c 75.703 182.68 l 75.703 174.812 79.125 167.434 85.09 162.438
 c 100.699 149.371 l 105.32 145.5 111.141 143.367 117.082 143.367 c 137.062
 143.367 l 143.004 143.367 148.82 145.5 153.445 149.371 c 169.051 162.438
 l 175.02 167.434 178.441 174.812 178.441 182.68 c 178.441 222.277 l 178.441
 230.922 173.75 238.754 166.195 242.703 c 161.664 245.074 l 160.91 245.473
 160.098 245.66 159.297 245.66 c h
159.297 245.66 m f
126.734 327.641 m 106.883 327.641 90.73 311.848 90.73 292.438 c 90.73 197.762
 l 90.73 194.934 93.023 192.641 95.852 192.641 c 98.68 192.641 100.969 194.934
 100.969 197.762 c 100.969 292.438 l 100.969 306.203 112.527 317.398 126.734
 317.398 c 140.941 317.398 152.5 306.203 152.5 292.438 c 152.5 196.395 l
 152.5 193.566 154.793 191.273 157.621 191.273 c 160.449 191.273 162.742
 193.566 162.742 196.395 c 162.742 292.438 l 162.742 311.848 146.59 327.641
 126.734 327.641 c h
126.734 327.641 m f
254.855 139.43 m 239.832 139.43 227.609 127.207 227.609 112.184 c 227.609
 97.16 239.832 84.938 254.855 84.938 c 269.879 84.938 282.102 97.16 282.102
 112.184 c 282.102 127.207 269.879 139.43 254.855 139.43 c h
254.855 95.176 m 245.477 95.176 237.848 102.805 237.848 112.184 c 237.848
 121.559 245.477 129.188 254.855 129.188 c 264.23 129.188 271.859 121.559
 271.859 112.184 c 271.859 102.805 264.23 95.176 254.855 95.176 c h
254.855 95.176 m f
254.902 325.172 m 237.961 325.172 224.18 311.309 224.18 294.266 c 224.18
 280.047 l 224.18 277.219 226.473 274.926 229.301 274.926 c 232.129 274.926
 234.422 277.219 234.422 280.047 c 234.422 294.266 l 234.422 305.66 243.609
 314.934 254.902 314.934 c 266.191 314.934 275.379 305.664 275.379 294.266
 c 275.379 279.309 l 275.379 276.484 277.672 274.191 280.5 274.191 c 283.328
 274.191 285.621 276.484 285.621 279.309 c 285.621 294.266 l 285.621 311.309
 271.84 325.172 254.902 325.172 c h
254.902 325.172 m f
295.859 240.273 m 289.32 240.273 l 286.492 240.273 284.199 237.98 284.199
 235.152 c 284.199 232.328 286.492 230.035 289.32 230.035 c 290.742 230.035
 l 290.742 191.34 l 290.742 178.332 285.371 166.285 276.012 158.293 c 272.5
 155.289 268.125 153.637 263.699 153.637 c 246.102 153.637 l 241.672 153.637
 237.301 155.289 233.789 158.293 c 224.43 166.285 219.059 178.332 219.059
 191.34 c 219.059 230.035 l 222.785 230.035 l 225.613 230.035 227.906 232.328
 227.906 235.152 c 227.906 237.98 225.613 240.273 222.785 240.273 c 213.941
 240.273 l 211.113 240.273 208.82 237.98 208.82 235.152 c 208.82 191.34 
l 208.82 175.332 215.496 160.449 227.137 150.504 c 232.5 145.922 239.238
 143.398 246.102 143.398 c 263.699 143.398 l 270.562 143.398 277.297 145.922
 282.664 150.504 c 294.305 160.449 300.98 175.332 300.98 191.34 c 300.98
 235.152 l 300.98 237.98 298.688 240.273 295.859 240.273 c h
295.859 240.273 m f
303.18 282.199 m 208.566 282.199 l 206.891 282.199 205.32 281.379 204.363
 280 c 203.406 278.625 203.184 276.867 203.766 275.297 c 232.078 199.023
 l 233.062 196.375 236.004 195.023 238.66 196.008 c 241.309 196.992 242.66
 199.938 241.676 202.59 c 215.93 271.957 l 295.816 271.957 l 270.07 202.59
 l 269.086 199.938 270.438 196.988 273.09 196.008 c 275.738 195.023 278.688
 196.375 279.672 199.023 c 307.98 275.297 l 308.566 276.867 308.34 278.625
 307.383 280 c 306.426 281.379 304.855 282.199 303.18 282.199 c h
303.18 282.199 m f
Q Q
showpage
%%Trailer
end
%%EOF
