%!PS-Adobe-3.0 EPSF-3.0
%%Creator: cairo 1.16.0 (https://cairographics.org)
%%CreationDate: Thu Sep 19 06:52:29 2019
%%Pages: 1
%%DocumentData: Clean7Bit
%%LanguageLevel: 2
%%BoundingBox: 61 52 323 332
%%EndComments
%%BeginProlog
50 dict begin
/q { gsave } bind def
/Q { grestore } bind def
/cm { 6 array astore concat } bind def
/w { setlinewidth } bind def
/J { setlinecap } bind def
/j { setlinejoin } bind def
/M { setmiterlimit } bind def
/d { setdash } bind def
/m { moveto } bind def
/l { lineto } bind def
/c { curveto } bind def
/h { closepath } bind def
/re { exch dup neg 3 1 roll 5 3 roll moveto 0 rlineto
      0 exch rlineto 0 rlineto closepath } bind def
/S { stroke } bind def
/f { fill } bind def
/f* { eofill } bind def
/n { newpath } bind def
/W { clip } bind def
/W* { eoclip } bind def
/BT { } bind def
/ET { } bind def
/BDC { mark 3 1 roll /BDC pdfmark } bind def
/EMC { mark /EMC pdfmark } bind def
/cairo_store_point { /cairo_point_y exch def /cairo_point_x exch def } def
/Tj { show currentpoint cairo_store_point } bind def
/TJ {
  {
    dup
    type /stringtype eq
    { show } { -0.001 mul 0 cairo_font_matrix dtransform rmoveto } ifelse
  } forall
  currentpoint cairo_store_point
} bind def
/cairo_selectfont { cairo_font_matrix aload pop pop pop 0 0 6 array astore
    cairo_font exch selectfont cairo_point_x cairo_point_y moveto } bind def
/Tf { pop /cairo_font exch def /cairo_font_matrix where
      { pop cairo_selectfont } if } bind def
/Td { matrix translate cairo_font_matrix matrix concatmatrix dup
      /cairo_font_matrix exch def dup 4 get exch 5 get cairo_store_point
      /cairo_font where { pop cairo_selectfont } if } bind def
/Tm { 2 copy 8 2 roll 6 array astore /cairo_font_matrix exch def
      cairo_store_point /cairo_font where { pop cairo_selectfont } if } bind def
/g { setgray } bind def
/rg { setrgbcolor } bind def
/d1 { setcachedevice } bind def
/cairo_data_source {
  CairoDataIndex CairoData length lt
    { CairoData CairoDataIndex get /CairoDataIndex CairoDataIndex 1 add def }
    { () } ifelse
} def
/cairo_flush_ascii85_file { cairo_ascii85_file status { cairo_ascii85_file flushfile } if } def
/cairo_image { image cairo_flush_ascii85_file } def
/cairo_imagemask { imagemask cairo_flush_ascii85_file } def
%%EndProlog
%%BeginSetup
%%EndSetup
%%Page: 1 1
%%BeginPageSetup
%%PageBoundingBox: 61 52 323 332
%%EndPageSetup
q 61 52 262 280 rectclip
1 0 0 -1 0 384 cm q
0 g
227.434 65.32 m 203.352 65.32 180.391 74.352 162.777 90.746 c 146.035 106.332
 135.574 127.211 133.07 149.816 c 98.938 165.176 77.043 198.848 77.043 236.461
 c 77.043 288.867 119.684 331.508 172.09 331.508 c 196.172 331.508 219.133
 322.477 236.742 306.078 c 253.488 290.492 263.949 269.613 266.453 247.012
 c 300.586 231.648 322.477 197.977 322.477 160.367 c 322.477 107.961 279.84
 65.32 227.434 65.32 c h
229.77 298.586 m 214.059 313.211 193.574 321.266 172.094 321.266 c 125.328
 321.266 87.285 283.223 87.285 236.461 c 87.285 201.98 107.902 171.203 139.812
 158.051 c 147.773 154.77 156.258 152.738 165.031 152.016 c 167.297 151.828
 169.719 151.652 172.094 151.652 c 210.352 151.652 243.332 176.824 253.613
 213.328 c 248.973 215.637 244.09 217.297 239.027 218.305 c 230.93 188.348
 203.543 167.078 172.094 167.078 c 169.543 167.078 166.82 167.258 163.777
 167.621 c 154.43 168.742 145.547 171.711 137.379 176.449 c 115.996 188.844
 102.715 211.836 102.715 236.461 c 102.715 274.715 133.836 305.84 172.094
 305.84 c 203.355 305.84 230.91 284.52 239.027 254.645 c 244.668 253.961
 250.191 252.773 255.551 251.121 c 252.387 269.262 243.406 285.887 229.77
 298.586 c h
170.863 141.445 m 178.875 117.797 201.395 101.23 226.832 101.23 c 259.441
 101.23 285.973 127.758 285.973 160.367 c 285.973 179.094 276.906 196.672
 262.004 207.758 c 249.613 168.355 213.395 141.414 171.492 141.414 c 171.277
 141.414 171.074 141.445 170.863 141.445 c h
228.102 219.461 m 227.684 219.473 227.234 219.508 226.832 219.508 c 200.559
 219.508 177.621 202.094 170.219 177.363 c 170.637 177.352 171.086 177.32
 171.492 177.32 c 197.766 177.32 220.699 194.734 228.102 219.461 c h
227.434 255.414 m 227.656 255.414 227.871 255.395 228.094 255.395 c 220.082
 279.047 197.527 295.598 172.094 295.598 c 139.484 295.598 112.953 269.07
 112.953 236.461 c 112.953 217.734 121.992 200.129 136.891 189.043 c 149.27
 228.465 185.52 255.414 227.434 255.414 c h
259.711 238.777 m 251.75 242.059 243.266 244.09 234.492 244.812 c 231.871
 245.031 229.668 245.176 227.43 245.176 c 189.172 245.176 156.191 220.008
 145.91 183.5 c 150.551 181.191 155.434 179.531 160.496 178.523 c 168.594
 208.48 195.98 229.746 227.43 229.746 c 229.98 229.746 232.699 229.57 235.746
 229.207 c 245.09 228.086 253.973 225.117 262.145 220.379 c 283.527 207.984
 296.809 184.988 296.809 160.367 c 296.809 122.113 265.688 90.988 227.43
 90.988 c 196.168 90.988 168.609 112.309 160.496 142.184 c 154.855 142.867
 149.332 144.055 143.973 145.703 c 147.137 127.566 156.113 110.938 169.754
 98.242 c 185.465 83.617 205.949 75.562 227.43 75.562 c 274.191 75.562 312.238
 113.605 312.238 160.367 c 312.238 194.848 291.621 225.625 259.711 238.777
 c h
259.711 238.777 m f
82 134.414 m 82 137.242 84.293 139.535 87.121 139.535 c 89.949 139.535 
92.242 137.242 92.242 134.414 c 92.242 83.215 l 107.602 83.215 l 110.43 
83.215 112.723 80.922 112.723 78.094 c 112.723 75.266 110.43 72.973 107.602
 72.973 c 92.242 72.973 l 92.242 57.613 l 92.242 54.785 89.949 52.492 87.121
 52.492 c 84.293 52.492 82 54.785 82 57.613 c 82 72.973 l 66.641 72.973 
l 63.812 72.973 61.523 75.266 61.523 78.094 c 61.523 80.922 63.812 83.215
 66.641 83.215 c 82 83.215 l h
82 134.414 m f
Q Q
showpage
%%Trailer
end
%%EOF
