%!PS-Adobe-3.0 EPSF-3.0
%%Creator: cairo 1.16.0 (https://cairographics.org)
%%CreationDate: Thu Sep 19 06:52:30 2019
%%Pages: 1
%%DocumentData: Clean7Bit
%%LanguageLevel: 2
%%BoundingBox: 46 62 338 322
%%EndComments
%%BeginProlog
50 dict begin
/q { gsave } bind def
/Q { grestore } bind def
/cm { 6 array astore concat } bind def
/w { setlinewidth } bind def
/J { setlinecap } bind def
/j { setlinejoin } bind def
/M { setmiterlimit } bind def
/d { setdash } bind def
/m { moveto } bind def
/l { lineto } bind def
/c { curveto } bind def
/h { closepath } bind def
/re { exch dup neg 3 1 roll 5 3 roll moveto 0 rlineto
      0 exch rlineto 0 rlineto closepath } bind def
/S { stroke } bind def
/f { fill } bind def
/f* { eofill } bind def
/n { newpath } bind def
/W { clip } bind def
/W* { eoclip } bind def
/BT { } bind def
/ET { } bind def
/BDC { mark 3 1 roll /BDC pdfmark } bind def
/EMC { mark /EMC pdfmark } bind def
/cairo_store_point { /cairo_point_y exch def /cairo_point_x exch def } def
/Tj { show currentpoint cairo_store_point } bind def
/TJ {
  {
    dup
    type /stringtype eq
    { show } { -0.001 mul 0 cairo_font_matrix dtransform rmoveto } ifelse
  } forall
  currentpoint cairo_store_point
} bind def
/cairo_selectfont { cairo_font_matrix aload pop pop pop 0 0 6 array astore
    cairo_font exch selectfont cairo_point_x cairo_point_y moveto } bind def
/Tf { pop /cairo_font exch def /cairo_font_matrix where
      { pop cairo_selectfont } if } bind def
/Td { matrix translate cairo_font_matrix matrix concatmatrix dup
      /cairo_font_matrix exch def dup 4 get exch 5 get cairo_store_point
      /cairo_font where { pop cairo_selectfont } if } bind def
/Tm { 2 copy 8 2 roll 6 array astore /cairo_font_matrix exch def
      cairo_store_point /cairo_font where { pop cairo_selectfont } if } bind def
/g { setgray } bind def
/rg { setrgbcolor } bind def
/d1 { setcachedevice } bind def
/cairo_data_source {
  CairoDataIndex CairoData length lt
    { CairoData CairoDataIndex get /CairoDataIndex CairoDataIndex 1 add def }
    { () } ifelse
} def
/cairo_flush_ascii85_file { cairo_ascii85_file status { cairo_ascii85_file flushfile } if } def
/cairo_image { image cairo_flush_ascii85_file } def
/cairo_imagemask { imagemask cairo_flush_ascii85_file } def
%%EndProlog
%%BeginSetup
%%EndSetup
%%Page: 1 1
%%BeginPageSetup
%%PageBoundingBox: 46 62 338 322
%%EndPageSetup
q 46 62 292 260 rectclip
1 0 0 -1 0 384 cm q
0 g
216.047 196.582 m 205.594 196.582 195.754 200.855 188.652 208.262 c 181.551
 200.855 171.711 196.582 161.254 196.582 c 140.305 196.582 123.262 213.625
 123.262 234.578 c 123.262 256.062 170.156 310.59 185.812 321.027 c 186.672
 321.602 187.66 321.887 188.652 321.887 c 189.645 321.887 190.633 321.602
 191.492 321.027 c 207.148 310.59 254.047 256.062 254.047 234.578 c 254.043
 213.625 237 196.582 216.047 196.582 c h
188.652 310.41 m 170.777 296.141 133.5 248.945 133.5 234.578 c 133.5 219.273
 145.953 206.82 161.254 206.82 c 170.57 206.82 179.219 211.469 184.387 219.25
 c 185.336 220.68 186.938 221.539 188.652 221.539 c 190.367 221.539 191.969
 220.68 192.918 219.25 c 198.086 211.469 206.734 206.82 216.047 206.82 c
 231.355 206.82 243.805 219.273 243.805 234.578 c 243.805 248.945 206.527
 296.141 188.652 310.41 c h
188.652 310.41 m f
337.133 106.914 m 337.133 82.211 317.035 62.113 292.332 62.113 c 267.629
 62.113 247.531 82.211 247.531 106.914 c 247.531 129.441 264.254 148.133
 285.934 151.25 c 285.934 184.992 l 270.574 184.992 l 267.746 184.992 265.453
 187.285 265.453 190.113 c 265.453 192.941 267.746 195.234 270.574 195.234
 c 285.934 195.234 l 285.934 210.594 l 285.934 213.422 288.227 215.715 291.055
 215.715 c 293.879 215.715 296.172 213.422 296.172 210.594 c 296.172 195.234
 l 311.531 195.234 l 314.359 195.234 316.652 192.941 316.652 190.113 c 316.652
 187.285 314.359 184.992 311.531 184.992 c 296.172 184.992 l 296.172 151.539
 l 319.082 149.582 337.133 130.32 337.133 106.914 c h
257.773 106.914 m 257.773 87.855 273.277 72.352 292.332 72.352 c 311.391
 72.352 326.895 87.855 326.895 106.914 c 326.895 125.969 311.391 141.473
 292.332 141.473 c 273.277 141.473 257.773 125.969 257.773 106.914 c h
257.773 106.914 m f
116.512 136.379 m 157.254 95.633 l 152.207 115.824 l 151.52 118.57 153.188
 121.348 155.93 122.035 c 156.348 122.141 156.766 122.191 157.176 122.191
 c 159.469 122.191 161.559 120.637 162.141 118.309 c 171.668 80.184 l 172.105
 78.441 171.594 76.594 170.324 75.32 c 169.051 74.051 167.207 73.539 165.461
 73.977 c 127.336 83.508 l 124.594 84.191 122.926 86.973 123.613 89.715 
c 124.297 92.461 127.074 94.133 129.82 93.441 c 150.012 88.395 l 109.273
 129.133 l 102.531 123.953 94.328 121.141 85.688 121.141 c 75.316 121.141
 65.57 125.18 58.238 132.512 c 50.906 139.844 46.867 149.59 46.867 159.961
 c 46.867 170.328 50.906 180.078 58.238 187.41 c 65.809 194.977 75.746 198.762
 85.688 198.762 c 95.629 198.762 105.57 194.977 113.137 187.41 c 127.043
 173.5 128.16 151.586 116.512 136.379 c h
105.895 180.168 m 94.754 191.312 76.621 191.312 65.477 180.168 c 60.082
 174.77 57.105 167.594 57.105 159.961 c 57.105 152.324 60.082 145.148 65.477
 139.75 c 70.875 134.352 78.055 131.379 85.688 131.379 c 93.32 131.379 100.496
 134.352 105.895 139.75 c 117.039 150.895 117.039 169.023 105.895 180.168
 c h
105.895 180.168 m f
Q Q
showpage
%%Trailer
end
%%EOF
