%!PS-Adobe-3.0 EPSF-3.0
%%Creator: cairo 1.16.0 (https://cairographics.org)
%%CreationDate: Thu Sep 19 06:52:30 2019
%%Pages: 1
%%DocumentData: Clean7Bit
%%LanguageLevel: 2
%%BoundingBox: 66 46 318 338
%%EndComments
%%BeginProlog
50 dict begin
/q { gsave } bind def
/Q { grestore } bind def
/cm { 6 array astore concat } bind def
/w { setlinewidth } bind def
/J { setlinecap } bind def
/j { setlinejoin } bind def
/M { setmiterlimit } bind def
/d { setdash } bind def
/m { moveto } bind def
/l { lineto } bind def
/c { curveto } bind def
/h { closepath } bind def
/re { exch dup neg 3 1 roll 5 3 roll moveto 0 rlineto
      0 exch rlineto 0 rlineto closepath } bind def
/S { stroke } bind def
/f { fill } bind def
/f* { eofill } bind def
/n { newpath } bind def
/W { clip } bind def
/W* { eoclip } bind def
/BT { } bind def
/ET { } bind def
/BDC { mark 3 1 roll /BDC pdfmark } bind def
/EMC { mark /EMC pdfmark } bind def
/cairo_store_point { /cairo_point_y exch def /cairo_point_x exch def } def
/Tj { show currentpoint cairo_store_point } bind def
/TJ {
  {
    dup
    type /stringtype eq
    { show } { -0.001 mul 0 cairo_font_matrix dtransform rmoveto } ifelse
  } forall
  currentpoint cairo_store_point
} bind def
/cairo_selectfont { cairo_font_matrix aload pop pop pop 0 0 6 array astore
    cairo_font exch selectfont cairo_point_x cairo_point_y moveto } bind def
/Tf { pop /cairo_font exch def /cairo_font_matrix where
      { pop cairo_selectfont } if } bind def
/Td { matrix translate cairo_font_matrix matrix concatmatrix dup
      /cairo_font_matrix exch def dup 4 get exch 5 get cairo_store_point
      /cairo_font where { pop cairo_selectfont } if } bind def
/Tm { 2 copy 8 2 roll 6 array astore /cairo_font_matrix exch def
      cairo_store_point /cairo_font where { pop cairo_selectfont } if } bind def
/g { setgray } bind def
/rg { setrgbcolor } bind def
/d1 { setcachedevice } bind def
/cairo_data_source {
  CairoDataIndex CairoData length lt
    { CairoData CairoDataIndex get /CairoDataIndex CairoDataIndex 1 add def }
    { () } ifelse
} def
/cairo_flush_ascii85_file { cairo_ascii85_file status { cairo_ascii85_file flushfile } if } def
/cairo_image { image cairo_flush_ascii85_file } def
/cairo_imagemask { imagemask cairo_flush_ascii85_file } def
%%EndProlog
%%BeginSetup
%%EndSetup
%%Page: 1 1
%%BeginPageSetup
%%PageBoundingBox: 66 46 318 338
%%EndPageSetup
q 66 46 252 292 rectclip
1 0 0 -1 0 384 cm q
0 g
317.305 331.773 m 275.41 126.883 l 275.379 122.422 274.977 118.012 274.246
 113.68 c 274.25 113.543 l 274.305 111.148 273.773 108.867 272.801 106.832
 c 269.449 93.762 262.93 81.633 253.621 71.527 c 239.398 56.082 220.234 
47.074 199.656 46.16 c 173.812 45.008 148.945 56.555 133.16 77.035 c 127.055
 84.961 122.586 94.594 119.879 105.676 c 119.602 106.801 119.348 107.887
 119.109 108.945 c 118.262 110.852 117.809 112.953 117.84 115.145 c 117.141
 119 116.754 122.242 116.699 124.801 c 66.734 331.598 l 66.367 333.121 66.715
 334.734 67.688 335.965 c 68.656 337.199 70.141 337.918 71.711 337.918 c
 312.289 337.918 l 313.828 337.918 315.285 337.227 316.258 336.035 c 317.23
 334.844 317.613 333.281 317.305 331.773 c h
244.691 302.078 m 241.863 302.078 239.57 304.371 239.57 307.199 c 239.57
 327.68 l 142.289 327.68 l 142.289 307.199 l 142.289 304.371 139.996 302.078
 137.168 302.078 c 134.344 302.078 132.051 304.371 132.051 307.199 c 132.051
 327.68 l 106.449 327.68 l 106.449 290.688 l 106.449 283.012 108.484 275.555
 112.363 268.895 c 133.844 276.863 160.559 281.316 188.371 281.574 c 188.371
 286.719 l 183.25 286.719 l 180.422 286.719 178.129 289.012 178.129 291.84
 c 178.129 294.668 180.422 296.961 183.25 296.961 c 188.371 296.961 l 188.371
 312.32 l 188.371 315.148 190.664 317.441 193.488 317.441 c 196.316 317.441
 198.609 315.148 198.609 312.32 c 198.609 296.961 l 203.73 296.961 l 206.559
 296.961 208.852 294.668 208.852 291.84 c 208.852 289.012 206.559 286.719
 203.73 286.719 c 198.609 286.719 l 198.609 281.48 l 226.484 280.707 252.719
 275.754 273.621 267.27 c 278.098 274.266 280.531 282.445 280.531 290.688
 c 280.531 327.68 l 249.809 327.68 l 249.809 307.199 l 249.809 304.371 247.516
 302.078 244.691 302.078 c h
158.93 238.934 m 183.156 271.23 l 159.688 270.543 137.355 266.754 118.875
 260.336 c 122.504 256.602 126.715 253.578 131.324 251.484 c h
203.977 271.031 m 228.051 238.934 l 255.656 251.484 l 259.723 253.332 263.418
 255.844 266.719 258.957 c 248.887 265.719 227.188 269.891 203.977 271.031
 c h
193.488 267.945 m 168.477 234.594 l 175.285 231.5 l 177.242 230.609 178.438
 228.59 178.273 226.445 c 178.246 226.137 178.211 225.832 178.168 225.527
 c 178.152 225.426 178.137 225.32 178.133 225.277 c 178.133 222.504 l 179.551
 223.059 180.988 223.578 182.453 224.047 c 186.328 225.297 190.367 225.922
 194.457 225.922 c 198.801 225.922 203.203 225.219 207.539 223.812 c 208.852
 223.387 l 208.852 225.211 l 208.844 225.316 208.828 225.418 208.812 225.52
 c 208.773 225.828 208.734 226.133 208.711 226.445 c 208.547 228.59 209.738
 230.605 211.695 231.5 c 218.508 234.594 l h
206.652 213.336 m 204.379 214.074 l 198.109 216.105 191.438 216.188 185.586
 214.301 c 162.949 207.016 145.91 187.992 141.125 164.652 c 140.832 163.215
 139.934 161.973 138.664 161.242 c 137.391 160.508 135.867 160.359 134.477
 160.828 c 132.5 161.492 130.676 161.59 128.184 159.91 c 125.914 158.379
 124.453 156.07 124.375 153.887 c 124.297 151.777 125.062 149.781 126.523
 148.266 c 127.984 146.754 129.945 145.922 132.047 145.922 c 133.414 145.922
 134.758 145.359 135.719 144.387 c 135.848 144.254 135.969 144.133 136.082
 144.012 c 141.312 144.691 146.148 145.012 150.605 145.012 c 175.219 145.012
 188.605 135.48 195.836 125.93 c 196.273 125.93 l 203.344 135.25 216.672
 145.004 241.57 145.004 c 246.004 145.004 250.816 144.688 256.016 144.008
 c 256.129 144.133 256.254 144.258 256.383 144.391 c 257.344 145.359 258.684
 145.918 260.047 145.918 c 262.246 145.918 264.344 146.863 265.805 148.516
 c 267.281 150.188 267.945 152.344 267.664 154.598 c 267.41 156.68 265.973
 158.723 263.816 160.062 c 261.66 161.406 259.832 161.613 257.512 160.797
 c 256.125 160.309 254.602 160.438 253.316 161.152 c 252.035 161.867 251.121
 163.098 250.809 164.535 c 245.82 187.426 228.898 206.125 206.652 213.336
 c h
131.363 110.621 m 153.258 104.793 174.016 101.895 196.145 101.895 c 215.875
 101.895 236.695 104.199 260.367 108.781 c 261.574 109.016 262.574 109.723
 263.223 110.676 c 263.512 111.906 263.762 113.145 263.988 114.391 c 263.988
 114.449 l 263.961 115.723 263.422 116.891 262.465 117.734 c 261.484 118.602
 260.223 119 258.914 118.871 c 214.266 114.34 172.016 114.629 133.332 119.723
 c 131.984 119.898 130.676 119.52 129.656 118.645 c 128.777 117.895 128.266
 116.875 128.133 115.777 c 128.332 114.738 128.566 113.637 128.812 112.496
 c 129.395 111.598 130.277 110.91 131.363 110.621 c h
137.551 129.523 m 151.633 127.766 166.199 126.652 181.188 126.184 c 172.977
 132.355 159.531 136.719 137.562 133.879 c 137.566 132.609 137.562 131.168
 137.551 129.523 c h
254.539 133.875 m 235.613 136.309 220.75 133.633 210.797 126.082 c 225.066
 126.422 239.664 127.312 254.543 128.746 c 254.531 130.719 254.531 132.41
 254.539 133.875 c h
126.316 128.574 m 126.582 128.699 126.852 128.805 127.121 128.914 c 127.008
 130.07 126.93 131.234 126.93 132.398 c 126.93 136.426 l 125.977 136.707
 125.051 137.066 124.16 137.504 c h
265.168 136.438 m 265.168 130.223 l 265.168 129.477 265.129 128.734 265.078
 127.988 c 265.125 127.969 265.176 127.957 265.223 127.934 c 265.242 128.102
 265.238 128.27 265.273 128.434 c 267.047 137.109 l 266.438 136.852 265.809
 136.629 265.168 136.438 c h
141.27 83.285 m 155.023 65.445 176.703 55.391 199.203 56.391 c 217.059 
57.18 233.711 65.02 246.09 78.461 c 251.496 84.328 255.828 90.973 258.992
 98.121 c 210.859 89.148 172.543 89.656 132.352 99.816 c 134.625 93.594 
137.602 88.047 141.27 83.285 c h
117.766 163.988 m 119.039 165.656 120.617 167.16 122.453 168.398 c 125.625
 170.539 128.914 171.574 132.246 171.523 c 137.637 191.227 150.715 207.824
 168.227 217.77 c 168.02 218.328 167.891 218.922 167.891 219.551 c 167.891
 223.609 l 127.082 242.16 l 118.828 245.914 111.586 251.965 106.145 259.66
 c 99.645 268.848 96.211 279.578 96.211 290.684 c 96.211 327.68 l 78.215
 327.68 l h
290.77 327.68 m 290.77 290.688 l 290.77 278.902 286.754 267.223 279.469
 257.812 c 274.191 250.996 267.422 245.582 259.895 242.16 c 219.09 223.613
 l 219.09 220.445 l 219.09 220.09 219.055 219.746 218.984 219.41 c 238.625
 210.059 253.547 192.57 259.602 171.512 c 262.914 171.609 266.137 170.684
 269.23 168.758 c 270.598 167.906 271.816 166.887 272.906 165.766 c 306.016
 327.68 l h
290.77 327.68 m f
197.289 182.633 m 196.305 183.719 194.957 184.32 193.488 184.32 c 192.246
 184.32 191.043 183.867 190.109 183.047 c 187.984 181.18 184.75 181.387 
182.883 183.508 c 181.016 185.633 181.227 188.867 183.348 190.738 c 186.152
 193.199 189.754 194.559 193.488 194.559 c 197.82 194.559 201.973 192.715
 204.879 189.504 c 206.777 187.406 206.613 184.168 204.52 182.27 c 202.422
 180.371 199.184 180.535 197.289 182.633 c h
197.289 182.633 m f
Q Q
showpage
%%Trailer
end
%%EOF
