%!PS-Adobe-3.0 EPSF-3.0
%%Creator: cairo 1.16.0 (https://cairographics.org)
%%CreationDate: Thu Sep 19 06:52:30 2019
%%Pages: 1
%%DocumentData: Clean7Bit
%%LanguageLevel: 2
%%BoundingBox: 69 38 315 346
%%EndComments
%%BeginProlog
50 dict begin
/q { gsave } bind def
/Q { grestore } bind def
/cm { 6 array astore concat } bind def
/w { setlinewidth } bind def
/J { setlinecap } bind def
/j { setlinejoin } bind def
/M { setmiterlimit } bind def
/d { setdash } bind def
/m { moveto } bind def
/l { lineto } bind def
/c { curveto } bind def
/h { closepath } bind def
/re { exch dup neg 3 1 roll 5 3 roll moveto 0 rlineto
      0 exch rlineto 0 rlineto closepath } bind def
/S { stroke } bind def
/f { fill } bind def
/f* { eofill } bind def
/n { newpath } bind def
/W { clip } bind def
/W* { eoclip } bind def
/BT { } bind def
/ET { } bind def
/BDC { mark 3 1 roll /BDC pdfmark } bind def
/EMC { mark /EMC pdfmark } bind def
/cairo_store_point { /cairo_point_y exch def /cairo_point_x exch def } def
/Tj { show currentpoint cairo_store_point } bind def
/TJ {
  {
    dup
    type /stringtype eq
    { show } { -0.001 mul 0 cairo_font_matrix dtransform rmoveto } ifelse
  } forall
  currentpoint cairo_store_point
} bind def
/cairo_selectfont { cairo_font_matrix aload pop pop pop 0 0 6 array astore
    cairo_font exch selectfont cairo_point_x cairo_point_y moveto } bind def
/Tf { pop /cairo_font exch def /cairo_font_matrix where
      { pop cairo_selectfont } if } bind def
/Td { matrix translate cairo_font_matrix matrix concatmatrix dup
      /cairo_font_matrix exch def dup 4 get exch 5 get cairo_store_point
      /cairo_font where { pop cairo_selectfont } if } bind def
/Tm { 2 copy 8 2 roll 6 array astore /cairo_font_matrix exch def
      cairo_store_point /cairo_font where { pop cairo_selectfont } if } bind def
/g { setgray } bind def
/rg { setrgbcolor } bind def
/d1 { setcachedevice } bind def
/cairo_data_source {
  CairoDataIndex CairoData length lt
    { CairoData CairoDataIndex get /CairoDataIndex CairoDataIndex 1 add def }
    { () } ifelse
} def
/cairo_flush_ascii85_file { cairo_ascii85_file status { cairo_ascii85_file flushfile } if } def
/cairo_image { image cairo_flush_ascii85_file } def
/cairo_imagemask { imagemask cairo_flush_ascii85_file } def
%%EndProlog
%%BeginSetup
%%EndSetup
%%Page: 1 1
%%BeginPageSetup
%%PageBoundingBox: 69 38 315 346
%%EndPageSetup
q 69 38 246 308 rectclip
1 0 0 -1 0 384 cm q
0 g
312.73 310.145 m 274.645 277.5 l 271.559 274.855 269.488 266.609 269.488
 256.977 c 269.488 232.551 l 269.488 219.059 266.977 209.102 264.07 197.57
 c 263.352 194.723 262.605 191.762 261.863 188.609 c 243.199 109.273 l 241.117
 100.422 233.312 94.238 224.215 94.238 c 218.82 94.238 213.621 96.504 209.945
 100.453 c 206.27 104.398 204.383 109.75 204.766 115.129 c 209.973 188.055
 l 208.586 188.141 207.203 188.406 205.863 188.852 c 198.434 191.328 193.84
 198.754 194.949 206.512 c 202.145 256.883 l 205.477 280.215 214.605 302.594
 228.543 321.598 c 244.895 343.895 l 245.883 345.242 247.434 345.988 249.023
 345.988 c 249.723 345.988 250.434 345.844 251.102 345.547 c 311.48 318.711
 l 313.086 318 314.211 316.512 314.465 314.773 c 314.719 313.035 314.066
 311.289 312.73 310.145 c h
250.711 334.512 m 236.801 315.543 l 223.855 297.891 215.379 277.105 212.281
 255.434 c 205.086 205.066 l 204.68 202.211 206.367 199.477 209.102 198.566
 c 209.727 198.359 210.363 198.254 211 198.254 c 211.984 198.254 212.961
 198.504 213.855 198.996 c 215.328 199.805 216.363 201.148 216.77 202.777
 c 227.281 244.836 l 227.969 247.578 230.754 249.246 233.492 248.562 c 236.238
 247.875 237.902 245.094 237.219 242.352 c 226.703 200.293 l 225.773 196.57
 223.539 193.305 220.457 191.078 c 214.98 114.402 l 214.793 111.809 215.668
 109.332 217.438 107.434 c 219.211 105.531 221.617 104.48 224.215 104.48
 c 228.535 104.48 232.242 107.418 233.23 111.621 c 251.898 190.957 l 252.652
 194.164 253.41 197.176 254.141 200.074 c 256.996 211.391 259.246 220.332
 259.246 232.551 c 259.246 256.977 l 259.246 263.234 260.098 278.52 267.977
 285.273 c 299.91 312.645 l h
250.711 334.512 m f
178.137 188.852 m 176.797 188.406 175.418 188.141 174.027 188.055 c 179.234
 115.133 l 179.621 109.75 177.73 104.402 174.059 100.453 c 170.379 96.504
 165.176 94.238 159.785 94.238 c 150.691 94.238 142.887 100.422 140.801 
109.273 c 122.137 188.613 l 118.355 204.668 116.441 221.176 116.441 237.672
 c 116.441 262.094 l 116.441 268.027 113.859 273.641 109.355 277.5 c 71.27
 310.145 l 69.934 311.289 69.281 313.035 69.535 314.773 c 69.789 316.512
 70.918 318 72.523 318.711 c 132.898 345.547 l 133.57 345.844 134.277 345.988
 134.977 345.988 c 136.57 345.988 138.121 345.246 139.109 343.895 c 155.457
 321.598 l 169.395 302.594 178.527 280.215 181.859 256.883 c 189.055 206.516
 l 190.16 198.758 185.57 191.328 178.137 188.852 c h
178.914 205.066 m 171.719 255.434 l 168.625 277.105 160.145 297.891 147.199
 315.543 c 133.289 334.512 l 84.09 312.645 l 116.023 285.273 l 122.797 279.469
 126.68 271.02 126.68 262.098 c 126.68 237.672 l 126.68 221.965 128.504 
206.246 132.102 190.957 c 150.77 111.621 l 151.758 107.418 155.465 104.48
 159.785 104.48 c 162.383 104.48 164.793 105.527 166.562 107.434 c 168.336
 109.336 169.207 111.809 169.02 114.402 c 163.547 191.078 l 160.465 193.301
 158.227 196.57 157.297 200.293 c 146.781 242.352 l 146.098 245.094 147.766
 247.875 150.508 248.562 c 153.246 249.246 156.031 247.578 156.719 244.836
 c 167.23 202.777 l 167.641 201.148 168.676 199.805 170.148 198.996 c 171.617
 198.188 173.309 198.035 174.902 198.57 c 177.633 199.48 179.324 202.211
 178.914 205.066 c h
178.914 205.066 m f
197.809 68.734 m 197.809 43.133 l 197.809 40.305 195.516 38.012 192.688
 38.012 c 189.859 38.012 187.566 40.305 187.566 43.133 c 187.566 68.734 
l 187.566 71.562 189.859 73.852 192.688 73.852 c 195.516 73.852 197.809 
71.559 197.809 68.734 c h
197.809 68.734 m f
211.391 71.09 m 212.703 71.09 214.012 70.59 215.012 69.59 c 229.285 55.316
 l 231.285 53.32 231.285 50.074 229.285 48.078 c 227.285 46.078 224.043 
46.078 222.047 48.078 c 207.773 62.348 l 205.773 64.348 205.773 67.59 207.773
 69.59 c 208.773 70.59 210.082 71.09 211.391 71.09 c h
211.391 71.09 m f
168.398 69.59 m 169.398 70.59 170.711 71.09 172.02 71.09 c 173.328 71.09
 174.641 70.59 175.641 69.59 c 177.637 67.59 177.637 64.348 175.641 62.348
 c 161.367 48.078 l 159.367 46.078 156.125 46.078 154.129 48.078 c 152.129
 50.074 152.129 53.32 154.129 55.316 c h
168.398 69.59 m f
Q Q
showpage
%%Trailer
end
%%EOF
