%!PS-Adobe-3.0 EPSF-3.0
%%Creator: cairo 1.16.0 (https://cairographics.org)
%%CreationDate: Thu Sep 19 06:52:30 2019
%%Pages: 1
%%DocumentData: Clean7Bit
%%LanguageLevel: 2
%%BoundingBox: 54 58 330 326
%%EndComments
%%BeginProlog
50 dict begin
/q { gsave } bind def
/Q { grestore } bind def
/cm { 6 array astore concat } bind def
/w { setlinewidth } bind def
/J { setlinecap } bind def
/j { setlinejoin } bind def
/M { setmiterlimit } bind def
/d { setdash } bind def
/m { moveto } bind def
/l { lineto } bind def
/c { curveto } bind def
/h { closepath } bind def
/re { exch dup neg 3 1 roll 5 3 roll moveto 0 rlineto
      0 exch rlineto 0 rlineto closepath } bind def
/S { stroke } bind def
/f { fill } bind def
/f* { eofill } bind def
/n { newpath } bind def
/W { clip } bind def
/W* { eoclip } bind def
/BT { } bind def
/ET { } bind def
/BDC { mark 3 1 roll /BDC pdfmark } bind def
/EMC { mark /EMC pdfmark } bind def
/cairo_store_point { /cairo_point_y exch def /cairo_point_x exch def } def
/Tj { show currentpoint cairo_store_point } bind def
/TJ {
  {
    dup
    type /stringtype eq
    { show } { -0.001 mul 0 cairo_font_matrix dtransform rmoveto } ifelse
  } forall
  currentpoint cairo_store_point
} bind def
/cairo_selectfont { cairo_font_matrix aload pop pop pop 0 0 6 array astore
    cairo_font exch selectfont cairo_point_x cairo_point_y moveto } bind def
/Tf { pop /cairo_font exch def /cairo_font_matrix where
      { pop cairo_selectfont } if } bind def
/Td { matrix translate cairo_font_matrix matrix concatmatrix dup
      /cairo_font_matrix exch def dup 4 get exch 5 get cairo_store_point
      /cairo_font where { pop cairo_selectfont } if } bind def
/Tm { 2 copy 8 2 roll 6 array astore /cairo_font_matrix exch def
      cairo_store_point /cairo_font where { pop cairo_selectfont } if } bind def
/g { setgray } bind def
/rg { setrgbcolor } bind def
/d1 { setcachedevice } bind def
/cairo_data_source {
  CairoDataIndex CairoData length lt
    { CairoData CairoDataIndex get /CairoDataIndex CairoDataIndex 1 add def }
    { () } ifelse
} def
/cairo_flush_ascii85_file { cairo_ascii85_file status { cairo_ascii85_file flushfile } if } def
/cairo_image { image cairo_flush_ascii85_file } def
/cairo_imagemask { imagemask cairo_flush_ascii85_file } def
%%EndProlog
%%BeginSetup
%%EndSetup
%%Page: 1 1
%%BeginPageSetup
%%PageBoundingBox: 54 58 330 326
%%EndPageSetup
q 54 58 276 268 rectclip
1 0 0 -1 0 384 cm q
0 g
328.914 236.645 m 325.289 231.32 l 317.082 219.27 311.98 205.207 310.539
 190.66 c 308.348 168.535 298.551 147.688 282.941 131.961 c 276.09 125.055
 l 275.992 124.941 275.914 124.816 275.805 124.707 c 267.785 116.688 l 241.648
 90.352 l 241.363 90.062 241.047 89.828 240.719 89.621 c 239.598 88.5 l 
235.25 84.152 229.461 81.754 223.309 81.754 c 217.152 81.754 211.367 84.152
 207.016 88.5 c 203.742 91.773 201.578 95.855 200.707 100.293 c 165.383 
64.969 l 157.395 56.984 144.402 56.984 136.418 64.969 c 133.793 67.594 131.992
 70.812 131.09 74.312 c 123.055 67.891 111.273 68.391 103.836 75.828 c 101.035
 78.629 99.238 82.055 98.402 85.652 c 92.766 80.02 l 88.898 76.152 83.758
 74.02 78.285 74.02 c 72.816 74.02 67.672 76.152 63.809 80.02 c 59.938 83.887
 57.809 89.027 57.809 94.5 c 57.809 99.969 59.938 105.113 63.809 108.98 
c 69.387 114.562 l 66.016 115.457 62.824 117.203 60.188 119.844 c 52.199
 127.828 52.199 140.82 60.188 148.805 c 88.105 176.727 l 84.734 177.621 
81.547 179.367 78.906 182.008 c 70.922 189.992 70.922 202.984 78.906 210.973
 c 150.695 282.762 l 151.93 283.992 171.293 299.641 181.758 304.148 c 185.598
 305.801 189.031 308.156 191.957 311.145 c 204.031 323.477 l 204.988 324.453
 206.297 325.008 207.664 325.016 c 207.691 325.016 l 209.047 325.016 210.352
 324.477 211.309 323.516 c 230.262 304.566 l 231.25 305.367 232.211 306.211
 233.109 307.133 c 245.156 319.531 l 246.113 320.516 247.426 321.074 248.801
 321.082 c 248.828 321.082 l 250.191 321.082 251.5 320.539 252.461 319.566
 c 328.312 243.129 l 330.043 241.395 330.293 238.676 328.914 236.645 c h
71.051 87.262 m 72.984 85.328 75.555 84.262 78.289 84.262 c 81.023 84.262
 83.594 85.328 85.531 87.262 c 108.809 110.543 l 105.648 111.484 102.668
 113.203 100.176 115.699 c 97.449 118.422 95.605 121.777 94.734 125.43 c
 71.051 101.742 l 67.055 97.75 67.055 91.254 71.051 87.262 c h
67.43 127.086 m 71.422 123.094 77.918 123.094 81.91 127.086 c 81.91 127.086
 81.914 127.086 81.914 127.09 c 112.57 157.746 l 109.102 158.727 105.914
 160.582 103.32 163.234 c 100.809 165.801 99.047 168.898 98.117 172.254 
c 67.43 141.566 l 63.434 137.574 63.434 131.078 67.43 127.086 c h
207.73 312.617 m 199.277 303.984 l 195.414 300.039 190.883 296.93 185.809
 294.746 c 177.246 291.059 159.453 276.914 157.938 275.523 c 86.148 203.734
 l 82.156 199.742 82.156 193.246 86.148 189.254 c 90.121 185.281 96.574 
185.262 100.57 189.195 c 101.637 190.34 l 102.191 191.051 102.777 191.738
 103.434 192.379 c 150.504 238.707 l 191.016 279.531 l 192.168 280.691 193.594
 282 195.258 283.422 c 202.309 289.445 210.789 294.633 221.086 299.266 c
 h
248.867 308.656 m 240.457 300 l 236.602 296.031 232.078 292.906 227.016
 290.707 c 216.812 286.281 208.598 281.348 201.906 275.633 c 200.457 274.395
 199.238 273.281 198.285 272.32 c 170.531 244.352 l 170.305 243.953 170.039
 243.566 169.695 243.223 c 157.664 231.387 l 151.328 225.004 l 151.066 224.738
 150.781 224.512 150.484 224.32 c 112.008 186.449 l 109.426 183.676 l 108.238
 181.992 107.586 179.98 107.582 177.852 c 107.578 175.062 108.66 172.418
 110.637 170.398 c 112.613 168.383 115.234 167.242 118.02 167.188 c 120.73
 167.137 123.359 168.152 125.305 170.055 c 161.371 205.355 l 163.391 207.336
 166.633 207.301 168.609 205.277 c 170.59 203.258 170.555 200.016 168.531
 198.039 c 132.465 162.738 l 131.641 161.93 130.746 161.215 129.816 160.57
 c 129.73 160.465 129.656 160.352 129.559 160.254 c 108.516 139.207 l 108.266
 138.574 107.887 137.977 107.375 137.461 c 105.441 135.527 104.383 132.957
 104.387 130.219 c 104.395 127.469 105.469 124.883 107.414 122.938 c 111.43
 118.922 117.941 118.902 121.934 122.891 c 179.867 180.82 l 180.867 181.82
 182.176 182.32 183.488 182.32 c 184.797 182.32 186.109 181.82 187.105 180.82
 c 189.105 178.824 189.105 175.582 187.105 173.582 c 129.184 115.656 l 129.18
 115.656 129.18 115.656 129.18 115.656 c 129.18 115.652 129.176 115.652 
129.176 115.652 c 111.078 97.555 l 107.086 93.562 107.086 87.066 111.078
 83.074 c 115.07 79.082 121.566 79.082 125.559 83.074 c 201.586 159.102 
l 203.586 161.102 206.828 161.102 208.824 159.102 c 210.824 157.102 210.824
 153.859 208.824 151.859 c 143.66 86.695 l 141.727 84.762 140.66 82.188 
140.66 79.453 c 140.66 76.719 141.727 74.148 143.66 72.211 c 147.652 68.219
 154.148 68.219 158.141 72.211 c 207.34 121.41 l 207.34 121.414 207.344 
121.414 207.344 121.414 c 243.223 157.293 l 244.219 158.293 245.531 158.793
 246.84 158.793 c 248.152 158.793 249.465 158.293 250.461 157.293 c 252.461
 155.293 252.461 152.051 250.461 150.051 c 214.258 113.848 l 211.84 111.43
 210.512 108.215 210.512 104.793 c 210.512 101.375 211.84 98.16 214.258 
95.742 c 216.676 93.324 219.891 91.992 223.309 91.992 c 226.73 91.992 229.945
 93.324 232.359 95.742 c 260.68 124.062 l 275.676 139.176 l 289.629 153.234
 298.391 171.879 300.352 191.668 c 301.961 207.918 307.656 223.621 316.82
 237.082 c 318.074 238.918 l h
248.867 308.656 m f
Q Q
showpage
%%Trailer
end
%%EOF
