%!PS-Adobe-3.0 EPSF-3.0
%%Creator: cairo 1.16.0 (https://cairographics.org)
%%CreationDate: Thu Sep 19 06:52:30 2019
%%Pages: 1
%%DocumentData: Clean7Bit
%%LanguageLevel: 2
%%BoundingBox: 35 43 349 341
%%EndComments
%%BeginProlog
50 dict begin
/q { gsave } bind def
/Q { grestore } bind def
/cm { 6 array astore concat } bind def
/w { setlinewidth } bind def
/J { setlinecap } bind def
/j { setlinejoin } bind def
/M { setmiterlimit } bind def
/d { setdash } bind def
/m { moveto } bind def
/l { lineto } bind def
/c { curveto } bind def
/h { closepath } bind def
/re { exch dup neg 3 1 roll 5 3 roll moveto 0 rlineto
      0 exch rlineto 0 rlineto closepath } bind def
/S { stroke } bind def
/f { fill } bind def
/f* { eofill } bind def
/n { newpath } bind def
/W { clip } bind def
/W* { eoclip } bind def
/BT { } bind def
/ET { } bind def
/BDC { mark 3 1 roll /BDC pdfmark } bind def
/EMC { mark /EMC pdfmark } bind def
/cairo_store_point { /cairo_point_y exch def /cairo_point_x exch def } def
/Tj { show currentpoint cairo_store_point } bind def
/TJ {
  {
    dup
    type /stringtype eq
    { show } { -0.001 mul 0 cairo_font_matrix dtransform rmoveto } ifelse
  } forall
  currentpoint cairo_store_point
} bind def
/cairo_selectfont { cairo_font_matrix aload pop pop pop 0 0 6 array astore
    cairo_font exch selectfont cairo_point_x cairo_point_y moveto } bind def
/Tf { pop /cairo_font exch def /cairo_font_matrix where
      { pop cairo_selectfont } if } bind def
/Td { matrix translate cairo_font_matrix matrix concatmatrix dup
      /cairo_font_matrix exch def dup 4 get exch 5 get cairo_store_point
      /cairo_font where { pop cairo_selectfont } if } bind def
/Tm { 2 copy 8 2 roll 6 array astore /cairo_font_matrix exch def
      cairo_store_point /cairo_font where { pop cairo_selectfont } if } bind def
/g { setgray } bind def
/rg { setrgbcolor } bind def
/d1 { setcachedevice } bind def
/cairo_data_source {
  CairoDataIndex CairoData length lt
    { CairoData CairoDataIndex get /CairoDataIndex CairoDataIndex 1 add def }
    { () } ifelse
} def
/cairo_flush_ascii85_file { cairo_ascii85_file status { cairo_ascii85_file flushfile } if } def
/cairo_image { image cairo_flush_ascii85_file } def
/cairo_imagemask { imagemask cairo_flush_ascii85_file } def
%%EndProlog
%%BeginSetup
%%EndSetup
%%Page: 1 1
%%BeginPageSetup
%%PageBoundingBox: 35 43 349 341
%%EndPageSetup
q 35 43 314 298 rectclip
1 0 0 -1 0 384 cm q
0 g
348.16 238.078 m 348.16 223.965 336.676 212.48 322.559 212.48 c 163.84 
212.48 l 163.84 177.633 l 163.84 171.91 161.945 166.711 158.891 162.859 
c 170.898 157.062 179.199 144.762 179.199 130.559 c 179.199 110.797 163.121
 94.719 143.359 94.719 c 123.598 94.719 107.52 110.797 107.52 130.559 c 
107.52 143.949 114.906 155.641 125.809 161.793 c 117.211 169.605 111.73 
180.379 110.562 192.062 c 108.527 212.48 l 98.5 212.48 l 90.984 203.125 
79.465 197.121 66.559 197.121 c 66.559 156.16 l 66.559 153.332 64.266 151.039
 61.441 151.039 c 40.961 151.039 l 38.133 151.039 35.84 153.332 35.84 156.16
 c 35.84 273.922 l 35.84 274.23 35.879 274.535 35.934 274.832 c 35.879 275.129
 35.84 275.43 35.84 275.742 c 35.84 327.68 l 35.84 334.738 41.582 340.48
 48.641 340.48 c 51.703 340.48 54.52 339.395 56.727 337.59 c 59 339.422 
61.902 340.48 65.031 340.48 c 197.195 340.48 l 207.875 340.48 218.148 336.195
 225.387 328.723 c 232.215 321.672 235.809 312.5 235.5 302.898 c 235.238
 294.723 232.051 287.062 226.422 280.863 c 227.02 280.309 227.562 279.699
 228.039 279.039 c 322.559 279.039 l 322.559 327.68 l 322.559 334.738 328.301
 340.48 335.359 340.48 c 342.418 340.48 348.16 334.738 348.16 327.68 c h
230.016 268.801 m 228.867 264.254 225.184 260.625 220.418 259.695 c 163.84
 248.652 l 163.84 243.199 l 337.922 243.199 l 337.922 268.801 l h
138.238 177.633 m 138.238 171.543 141.758 166.398 145.918 166.398 c 150.082
 166.398 153.598 171.547 153.598 177.633 c 153.598 252.871 l 153.598 255.32
 155.332 257.426 157.738 257.895 c 218.457 269.746 l 219.316 269.914 219.941
 270.605 220.094 271.445 c 219.773 272.023 219.566 272.66 219.488 273.348
 c 219.113 273.699 218.609 273.922 218.055 273.922 c 150.996 273.922 l 144.082
 273.922 138.238 265.801 138.238 256.195 c h
322.559 222.719 m 329.234 222.719 334.906 227.004 337.023 232.961 c 163.84
 232.961 l 163.84 222.719 l h
117.762 130.559 m 117.762 116.445 129.246 104.961 143.359 104.961 c 157.477
 104.961 168.961 116.445 168.961 130.559 c 168.961 144.676 157.477 156.16
 143.359 156.16 c 129.246 156.16 117.762 144.676 117.762 130.559 c h
128.25 174.211 m 128.098 175.328 128 176.469 128 177.637 c 128 250.547 
l 114.762 253.176 l 120.758 193.078 l 121.445 186.145 124.086 179.625 128.25
 174.211 c h
84.219 313.273 m 63.605 315.484 l 62.871 315.562 62.148 315.703 61.441 
315.902 c 61.441 279.039 l 102.477 279.039 l 103.262 293.281 113.863 305.242
 128.113 308.574 c h
107.508 222.719 m 106.758 230.23 l 106.25 227.629 105.496 225.121 104.52
 222.719 c h
96.844 232.961 m 66.559 232.961 l 66.559 207.359 l 81.754 207.359 94.398
 218.453 96.844 232.961 c h
46.078 161.281 m 56.32 161.281 l 56.32 238.078 l 56.32 240.906 58.613 243.199
 61.441 243.199 c 105.465 243.199 l 103.957 258.297 l 103.887 258.574 103.836
 258.859 103.812 259.156 c 103.055 268.801 l 46.078 268.801 l h
48.641 330.238 m 47.227 330.238 46.078 329.094 46.078 327.68 c 46.078 279.039
 l 51.199 279.039 l 51.199 327.68 l 51.199 329.094 50.051 330.238 48.641
 330.238 c h
62.43 328.645 m 62.102 327.82 62.297 327.07 63 326.414 c 63.441 326 64.043
 325.734 64.691 325.668 c 79.652 324.062 l 79.66 330.238 l 65.035 330.238
 l 63.199 330.238 62.578 329.02 62.43 328.645 c h
218.031 321.598 m 212.715 327.09 205.117 330.238 197.195 330.238 c 89.898
 330.238 l 89.891 322.965 l 186.672 312.598 l 189.316 312.312 191.305 310.051
 191.246 307.391 c 191.184 304.73 189.094 302.559 186.441 302.398 c 134.609
 299.211 l 122.355 298.457 112.746 288.957 112.641 277.543 c 113.719 263.82
 l 128.332 260.918 l 130.184 274.094 139.641 284.16 150.996 284.16 c 215.195
 284.16 l 215.426 284.461 215.684 284.75 215.988 285.004 c 221.75 289.816
 225.047 296.285 225.266 303.223 c 225.484 310.031 222.914 316.559 218.031
 321.598 c h
335.359 330.238 m 333.949 330.238 332.801 329.094 332.801 327.68 c 332.801
 279.039 l 337.922 279.039 l 337.922 327.68 l 337.922 329.094 336.773 330.238
 335.359 330.238 c h
335.359 330.238 m f
209.922 124.145 m 209.922 153.734 l 209.922 169.188 222.832 181.762 238.703
 181.762 c 304.016 181.762 l 319.887 181.762 332.797 169.188 332.797 153.734
 c 332.797 81.785 l 332.801 66.332 319.887 53.762 304.016 53.762 c 247.57
 53.762 l 247.457 53.762 247.355 53.785 247.246 53.793 c 240.02 47.406 230.539
 43.52 220.16 43.52 c 197.574 43.52 179.199 61.895 179.199 84.48 c 179.199
 103.531 192.273 119.586 209.922 124.145 c h
304.016 171.52 m 238.703 171.52 l 228.48 171.52 220.16 163.543 220.16 153.734
 c 220.16 125.441 l 239.281 125.441 255.375 112.27 259.871 94.531 c 322.559
 94.531 l 322.559 153.734 l 322.559 163.543 314.242 171.52 304.016 171.52
 c h
322.559 81.785 m 322.559 84.289 l 261.113 84.289 l 261.082 76.902 259.074
 69.98 255.609 64 c 304.016 64 l 314.242 64 322.559 71.977 322.559 81.785
 c h
220.16 53.762 m 237.098 53.762 250.879 67.543 250.879 84.48 c 250.879 101.418
 237.098 115.199 220.16 115.199 c 203.223 115.199 189.441 101.418 189.441
 84.48 c 189.441 67.543 203.223 53.762 220.16 53.762 c h
220.16 53.762 m f
217.168 93.754 m 218.051 94.391 219.098 94.719 220.16 94.719 c 220.703 
94.719 221.25 94.633 221.777 94.457 c 237.141 89.336 l 239.82 88.441 241.273
 85.543 240.379 82.859 c 239.484 80.176 236.574 78.73 233.902 79.621 c 225.281
 82.496 l 225.281 69.121 l 225.281 66.293 222.988 64 220.16 64 c 217.332
 64 215.039 66.293 215.039 69.121 c 215.039 89.602 l 215.039 91.246 215.832
 92.793 217.168 93.754 c h
217.168 93.754 m f
Q Q
showpage
%%Trailer
end
%%EOF
