%!PS-Adobe-3.0 EPSF-3.0
%%Creator: cairo 1.16.0 (https://cairographics.org)
%%CreationDate: Thu Sep 19 06:52:31 2019
%%Pages: 1
%%DocumentData: Clean7Bit
%%LanguageLevel: 2
%%BoundingBox: 38 43 346 341
%%EndComments
%%BeginProlog
50 dict begin
/q { gsave } bind def
/Q { grestore } bind def
/cm { 6 array astore concat } bind def
/w { setlinewidth } bind def
/J { setlinecap } bind def
/j { setlinejoin } bind def
/M { setmiterlimit } bind def
/d { setdash } bind def
/m { moveto } bind def
/l { lineto } bind def
/c { curveto } bind def
/h { closepath } bind def
/re { exch dup neg 3 1 roll 5 3 roll moveto 0 rlineto
      0 exch rlineto 0 rlineto closepath } bind def
/S { stroke } bind def
/f { fill } bind def
/f* { eofill } bind def
/n { newpath } bind def
/W { clip } bind def
/W* { eoclip } bind def
/BT { } bind def
/ET { } bind def
/BDC { mark 3 1 roll /BDC pdfmark } bind def
/EMC { mark /EMC pdfmark } bind def
/cairo_store_point { /cairo_point_y exch def /cairo_point_x exch def } def
/Tj { show currentpoint cairo_store_point } bind def
/TJ {
  {
    dup
    type /stringtype eq
    { show } { -0.001 mul 0 cairo_font_matrix dtransform rmoveto } ifelse
  } forall
  currentpoint cairo_store_point
} bind def
/cairo_selectfont { cairo_font_matrix aload pop pop pop 0 0 6 array astore
    cairo_font exch selectfont cairo_point_x cairo_point_y moveto } bind def
/Tf { pop /cairo_font exch def /cairo_font_matrix where
      { pop cairo_selectfont } if } bind def
/Td { matrix translate cairo_font_matrix matrix concatmatrix dup
      /cairo_font_matrix exch def dup 4 get exch 5 get cairo_store_point
      /cairo_font where { pop cairo_selectfont } if } bind def
/Tm { 2 copy 8 2 roll 6 array astore /cairo_font_matrix exch def
      cairo_store_point /cairo_font where { pop cairo_selectfont } if } bind def
/g { setgray } bind def
/rg { setrgbcolor } bind def
/d1 { setcachedevice } bind def
/cairo_data_source {
  CairoDataIndex CairoData length lt
    { CairoData CairoDataIndex get /CairoDataIndex CairoDataIndex 1 add def }
    { () } ifelse
} def
/cairo_flush_ascii85_file { cairo_ascii85_file status { cairo_ascii85_file flushfile } if } def
/cairo_image { image cairo_flush_ascii85_file } def
/cairo_imagemask { imagemask cairo_flush_ascii85_file } def
%%EndProlog
%%BeginSetup
%%EndSetup
%%Page: 1 1
%%BeginPageSetup
%%PageBoundingBox: 38 43 346 341
%%EndPageSetup
q 38 43 308 298 rectclip
1 0 0 -1 0 384 cm q
0 g
283.734 217.602 m 268.375 217.602 l 268.375 115.199 l 299.098 115.199 l
 301.926 115.199 304.215 112.906 304.215 110.078 c 304.215 89.602 l 304.215
 86.773 301.926 84.48 299.098 84.48 c 268.375 84.48 l 268.375 48.641 l 268.375
 45.812 266.082 43.52 263.258 43.52 c 242.777 43.52 l 239.949 43.52 237.656
 45.812 237.656 48.641 c 237.656 84.48 l 206.938 84.48 l 204.109 84.48 201.816
 86.773 201.816 89.602 c 201.816 110.078 l 201.816 112.906 204.109 115.199
 206.938 115.199 c 237.656 115.199 l 237.656 217.602 l 150.617 217.602 l
 150.617 172.516 l 150.617 166.789 148.723 161.594 145.668 157.738 c 157.676
 151.941 165.977 139.645 165.977 125.441 c 165.977 105.68 149.898 89.602
 130.137 89.602 c 110.375 89.602 94.297 105.68 94.297 125.441 c 94.297 138.836
 101.691 150.535 112.609 156.684 c 104.059 164.477 98.508 175.27 97.344 
186.941 c 94.195 218.469 l 64.879 223.438 43.098 249.004 43.098 279.039 
c 43.098 281.867 45.391 284.16 48.215 284.16 c 90.816 284.16 l 94.551 295.781
 104.418 304.766 116.711 307.07 c 77.52 311.52 l 50.348 314.605 l 47.461
 314.934 44.738 316.238 42.68 318.277 c 38.926 321.996 37.797 327.551 39.809
 332.438 c 41.816 337.324 46.527 340.48 51.809 340.48 c 183.969 340.48 l
 194.426 340.48 204.191 336.348 211.477 328.844 c 218.754 321.34 222.594
 311.445 222.277 300.98 c 222.098 295 220.484 289.273 217.641 284.16 c 340.055
 284.16 l 342.883 284.16 345.176 281.867 345.176 279.039 c 345.176 245.16
 317.613 217.602 283.734 217.602 c h
242.777 104.961 m 212.055 104.961 l 212.055 94.719 l 242.777 94.719 l 245.605
 94.719 247.895 92.426 247.895 89.602 c 247.895 53.762 l 258.137 53.762 
l 258.137 89.602 l 258.137 92.426 260.43 94.719 263.258 94.719 c 293.977
 94.719 l 293.977 104.961 l 263.258 104.961 l 260.43 104.961 258.137 107.254
 258.137 110.078 c 258.137 217.602 l 247.895 217.602 l 247.895 110.078 l
 247.895 107.254 245.605 104.961 242.777 104.961 c h
204.828 268.801 m 137.773 268.801 l 130.859 268.801 125.016 260.684 125.016
 251.074 c 125.016 172.516 l 125.016 166.426 128.531 161.281 132.695 161.281
 c 136.859 161.281 140.375 166.426 140.375 172.516 c 140.375 247.75 l 140.375
 250.199 142.109 252.309 144.516 252.777 c 205.234 264.625 l 206.223 264.816
 206.938 265.688 206.938 266.691 c 206.934 267.855 205.992 268.801 204.828
 268.801 c h
104.535 125.441 m 104.535 111.324 116.02 99.84 130.137 99.84 c 144.254 
99.84 155.734 111.324 155.734 125.441 c 155.734 139.555 144.254 151.039 
130.137 151.039 c 116.02 151.039 104.535 139.555 104.535 125.441 c h
115.02 169.125 m 114.875 170.234 114.773 171.359 114.773 172.516 c 114.773
 245.781 l 101.48 248.582 l 107.531 187.961 l 108.219 181.047 110.879 174.535
 115.02 169.125 c h
53.59 273.922 m 55.773 252.09 71.773 233.973 93.133 229.121 c 90.598 254.523
 l 90.594 254.543 90.598 254.562 90.598 254.582 c 90.594 254.605 90.59 254.629
 90.586 254.652 c 89.188 273.512 l 89.18 273.637 89.176 273.762 89.176 273.891
 c 89.176 273.898 89.176 273.91 89.176 273.918 c 53.59 273.918 l h
49.277 328.543 m 49.066 328.035 48.707 326.719 49.883 325.555 c 50.316 
325.125 50.895 324.848 51.5 324.781 c 72.957 322.344 l 72.93 330.238 l 51.812
 330.238 l 50.152 330.238 49.488 329.051 49.277 328.543 c h
204.129 321.711 m 198.793 327.211 191.633 330.238 183.969 330.238 c 83.168
 330.238 l 83.203 321.18 l 173.48 310.934 l 176.113 310.633 178.086 308.371
 178.023 305.723 c 177.957 303.07 175.883 300.91 173.238 300.734 c 121.406
 297.359 l 109.137 296.559 99.512 286.348 99.418 274.07 c 100.516 259.25
 l 115.164 256.164 l 117.141 269.164 126.523 279.039 137.773 279.039 c 199.422
 279.039 l 199.645 279.277 199.891 279.5 200.168 279.695 c 207.461 284.883
 211.789 292.75 212.043 301.289 c 212.273 308.961 209.465 316.215 204.129
 321.711 c h
214.82 273.922 m 216.293 271.887 217.176 269.395 217.176 266.691 c 217.176
 260.797 212.977 255.703 207.195 254.574 c 150.613 243.531 l 150.613 227.84
 l 283.734 227.84 l 310.238 227.84 332.105 248.082 334.68 273.922 c h
214.82 273.922 m f
295.207 210.691 m 296.223 211.875 297.656 212.48 299.098 212.48 c 300.277
 212.48 301.465 212.074 302.43 211.246 c 338.27 180.527 l 340.414 178.688
 340.664 175.453 338.824 173.309 c 336.984 171.16 333.754 170.91 331.605
 172.75 c 295.766 203.473 l 293.617 205.312 293.367 208.547 295.207 210.691
 c h
295.207 210.691 m f
295.594 156.422 m 292.914 155.531 290.016 156.977 289.117 159.66 c 278.879
 190.379 l 277.984 193.062 279.434 195.961 282.117 196.859 c 282.656 197.035
 283.199 197.121 283.738 197.121 c 285.883 197.121 287.879 195.766 288.594
 193.621 c 298.832 162.898 l 299.727 160.215 298.277 157.316 295.594 156.422
 c h
295.594 156.422 m f
203.605 211.246 m 204.57 212.074 205.754 212.48 206.934 212.48 c 208.375
 212.48 209.812 211.875 210.824 210.691 c 212.664 208.547 212.414 205.312
 210.27 203.473 c 174.43 172.754 l 172.281 170.91 169.047 171.16 167.207
 173.309 c 165.371 175.457 165.617 178.688 167.766 180.527 c h
203.605 211.246 m f
222.297 197.121 m 222.832 197.121 223.379 197.035 223.914 196.859 c 226.598
 195.961 228.047 193.062 227.152 190.379 c 216.914 159.66 l 216.02 156.977
 213.121 155.527 210.438 156.422 c 207.754 157.316 206.305 160.215 207.199
 162.898 c 217.438 193.621 l 218.152 195.766 220.152 197.121 222.297 197.121
 c h
222.297 197.121 m f
Q Q
showpage
%%Trailer
end
%%EOF
