%!PS-Adobe-3.0 EPSF-3.0
%%Creator: cairo 1.16.0 (https://cairographics.org)
%%CreationDate: Thu Sep 19 06:52:31 2019
%%Pages: 1
%%DocumentData: Clean7Bit
%%LanguageLevel: 2
%%BoundingBox: 66 40 318 344
%%EndComments
%%BeginProlog
50 dict begin
/q { gsave } bind def
/Q { grestore } bind def
/cm { 6 array astore concat } bind def
/w { setlinewidth } bind def
/J { setlinecap } bind def
/j { setlinejoin } bind def
/M { setmiterlimit } bind def
/d { setdash } bind def
/m { moveto } bind def
/l { lineto } bind def
/c { curveto } bind def
/h { closepath } bind def
/re { exch dup neg 3 1 roll 5 3 roll moveto 0 rlineto
      0 exch rlineto 0 rlineto closepath } bind def
/S { stroke } bind def
/f { fill } bind def
/f* { eofill } bind def
/n { newpath } bind def
/W { clip } bind def
/W* { eoclip } bind def
/BT { } bind def
/ET { } bind def
/BDC { mark 3 1 roll /BDC pdfmark } bind def
/EMC { mark /EMC pdfmark } bind def
/cairo_store_point { /cairo_point_y exch def /cairo_point_x exch def } def
/Tj { show currentpoint cairo_store_point } bind def
/TJ {
  {
    dup
    type /stringtype eq
    { show } { -0.001 mul 0 cairo_font_matrix dtransform rmoveto } ifelse
  } forall
  currentpoint cairo_store_point
} bind def
/cairo_selectfont { cairo_font_matrix aload pop pop pop 0 0 6 array astore
    cairo_font exch selectfont cairo_point_x cairo_point_y moveto } bind def
/Tf { pop /cairo_font exch def /cairo_font_matrix where
      { pop cairo_selectfont } if } bind def
/Td { matrix translate cairo_font_matrix matrix concatmatrix dup
      /cairo_font_matrix exch def dup 4 get exch 5 get cairo_store_point
      /cairo_font where { pop cairo_selectfont } if } bind def
/Tm { 2 copy 8 2 roll 6 array astore /cairo_font_matrix exch def
      cairo_store_point /cairo_font where { pop cairo_selectfont } if } bind def
/g { setgray } bind def
/rg { setrgbcolor } bind def
/d1 { setcachedevice } bind def
/cairo_data_source {
  CairoDataIndex CairoData length lt
    { CairoData CairoDataIndex get /CairoDataIndex CairoDataIndex 1 add def }
    { () } ifelse
} def
/cairo_flush_ascii85_file { cairo_ascii85_file status { cairo_ascii85_file flushfile } if } def
/cairo_image { image cairo_flush_ascii85_file } def
/cairo_imagemask { imagemask cairo_flush_ascii85_file } def
%%EndProlog
%%BeginSetup
%%EndSetup
%%Page: 1 1
%%BeginPageSetup
%%PageBoundingBox: 66 40 318 344
%%EndPageSetup
q 66 40 252 304 rectclip
1 0 0 -1 0 384 cm q
0 g
271.359 332.801 m 245.762 332.801 l 245.762 138.238 l 266.238 138.238 l
 269.066 138.238 271.359 135.949 271.359 133.121 c 271.359 130.293 269.066
 128 266.238 128 c 179.199 128 l 179.199 100.562 l 179.199 85.934 188.707
 72.973 202.484 68.465 c 205.668 73.469 211.246 76.801 217.602 76.801 c 
227.48 76.801 235.52 68.762 235.52 58.879 c 235.52 49 227.48 40.961 217.602
 40.961 c 207.82 40.961 199.859 48.84 199.695 58.582 c 181.52 64.332 168.961
 81.359 168.961 100.562 c 168.961 128 l 76.801 128 l 73.973 128 71.68 130.293
 71.68 133.121 c 71.68 135.949 73.973 138.238 76.801 138.238 c 97.281 138.238
 l 97.281 332.801 l 71.68 332.801 l 68.852 332.801 66.559 335.094 66.559
 337.922 c 66.559 340.746 68.852 343.039 71.68 343.039 c 271.359 343.039
 l 274.188 343.039 276.48 340.746 276.48 337.922 c 276.48 335.094 274.188
 332.801 271.359 332.801 c h
217.602 51.199 m 221.836 51.199 225.281 54.645 225.281 58.879 c 225.281
 63.117 221.836 66.559 217.602 66.559 c 213.363 66.559 209.922 63.117 209.922
 58.879 c 209.922 54.645 213.363 51.199 217.602 51.199 c h
107.52 138.238 m 235.52 138.238 l 235.52 332.801 l 107.52 332.801 l h
107.52 138.238 m f
199.68 189.441 m 179.199 189.441 l 179.199 168.961 l 179.199 166.133 176.906
 163.84 174.078 163.84 c 171.254 163.84 168.961 166.133 168.961 168.961 
c 168.961 189.441 l 148.48 189.441 l 145.652 189.441 143.359 191.734 143.359
 194.559 c 143.359 197.387 145.652 199.68 148.48 199.68 c 168.961 199.68
 l 168.961 261.121 l 168.961 263.949 171.254 266.238 174.078 266.238 c 176.906
 266.238 179.199 263.949 179.199 261.121 c 179.199 199.68 l 199.68 199.68
 l 202.508 199.68 204.801 197.387 204.801 194.559 c 204.801 191.734 202.508
 189.441 199.68 189.441 c h
199.68 189.441 m f
312.32 332.801 m 286.719 332.801 l 283.891 332.801 281.602 335.094 281.602
 337.922 c 281.602 340.746 283.891 343.039 286.719 343.039 c 312.32 343.039
 l 315.148 343.039 317.441 340.746 317.441 337.922 c 317.441 335.094 315.148
 332.801 312.32 332.801 c h
312.32 332.801 m f
Q Q
showpage
%%Trailer
end
%%EOF
