%!PS-Adobe-3.0 EPSF-3.0
%%Creator: cairo 1.16.0 (https://cairographics.org)
%%CreationDate: Thu Sep 19 06:52:31 2019
%%Pages: 1
%%DocumentData: Clean7Bit
%%LanguageLevel: 2
%%BoundingBox: 89 30 295 354
%%EndComments
%%BeginProlog
50 dict begin
/q { gsave } bind def
/Q { grestore } bind def
/cm { 6 array astore concat } bind def
/w { setlinewidth } bind def
/J { setlinecap } bind def
/j { setlinejoin } bind def
/M { setmiterlimit } bind def
/d { setdash } bind def
/m { moveto } bind def
/l { lineto } bind def
/c { curveto } bind def
/h { closepath } bind def
/re { exch dup neg 3 1 roll 5 3 roll moveto 0 rlineto
      0 exch rlineto 0 rlineto closepath } bind def
/S { stroke } bind def
/f { fill } bind def
/f* { eofill } bind def
/n { newpath } bind def
/W { clip } bind def
/W* { eoclip } bind def
/BT { } bind def
/ET { } bind def
/BDC { mark 3 1 roll /BDC pdfmark } bind def
/EMC { mark /EMC pdfmark } bind def
/cairo_store_point { /cairo_point_y exch def /cairo_point_x exch def } def
/Tj { show currentpoint cairo_store_point } bind def
/TJ {
  {
    dup
    type /stringtype eq
    { show } { -0.001 mul 0 cairo_font_matrix dtransform rmoveto } ifelse
  } forall
  currentpoint cairo_store_point
} bind def
/cairo_selectfont { cairo_font_matrix aload pop pop pop 0 0 6 array astore
    cairo_font exch selectfont cairo_point_x cairo_point_y moveto } bind def
/Tf { pop /cairo_font exch def /cairo_font_matrix where
      { pop cairo_selectfont } if } bind def
/Td { matrix translate cairo_font_matrix matrix concatmatrix dup
      /cairo_font_matrix exch def dup 4 get exch 5 get cairo_store_point
      /cairo_font where { pop cairo_selectfont } if } bind def
/Tm { 2 copy 8 2 roll 6 array astore /cairo_font_matrix exch def
      cairo_store_point /cairo_font where { pop cairo_selectfont } if } bind def
/g { setgray } bind def
/rg { setrgbcolor } bind def
/d1 { setcachedevice } bind def
/cairo_data_source {
  CairoDataIndex CairoData length lt
    { CairoData CairoDataIndex get /CairoDataIndex CairoDataIndex 1 add def }
    { () } ifelse
} def
/cairo_flush_ascii85_file { cairo_ascii85_file status { cairo_ascii85_file flushfile } if } def
/cairo_image { image cairo_flush_ascii85_file } def
/cairo_imagemask { imagemask cairo_flush_ascii85_file } def
%%EndProlog
%%BeginSetup
%%EndSetup
%%Page: 1 1
%%BeginPageSetup
%%PageBoundingBox: 89 30 295 354
%%EndPageSetup
q 89 30 206 324 rectclip
1 0 0 -1 0 384 cm q
0 g
176.641 265.992 m 186.879 265.992 l 186.879 306.953 l 186.879 309.777 189.172
 312.07 192 312.07 c 194.828 312.07 197.121 309.777 197.121 306.953 c 197.121
 265.992 l 207.359 265.992 l 210.188 265.992 212.48 263.699 212.48 260.871
 c 212.48 258.043 210.188 255.75 207.359 255.75 c 197.121 255.75 l 197.121
 245.512 l 197.121 242.684 194.828 240.391 192 240.391 c 189.172 240.391
 186.879 242.684 186.879 245.512 c 186.879 255.75 l 176.641 255.75 l 173.812
 255.75 171.52 258.043 171.52 260.871 c 171.52 263.699 173.812 265.992 176.641
 265.992 c h
176.641 265.992 m f
289.281 189.191 m 284.16 189.191 l 284.16 185.32 l 284.16 173.766 278.137
 162.949 268.391 156.816 c 268.648 155.699 268.801 154.543 268.801 153.352
 c 268.801 144.883 261.91 137.992 253.441 137.992 c 244.969 137.992 238.078
 144.883 238.078 153.352 c 238.078 155.383 238.484 157.32 239.207 159.098
 c 238.453 158.691 237.691 158.305 236.906 157.949 c 210.75 146.059 l 210.75
 145.383 l 223.367 139.02 233.023 127.742 237.285 114.168 c 239.352 114.008
 241.367 113.316 243.32 112.102 c 246.914 109.863 249.352 106.188 249.836
 102.27 c 250.316 98.371 249.109 94.453 246.52 91.527 c 245.047 89.859 243.199
 88.598 241.164 87.82 c 241.164 87.496 241.168 87.137 241.176 86.746 c 241.18
 86.281 241.105 85.836 240.992 85.406 c 241.258 84.781 241.418 84.113 241.418
 83.422 c 241.418 76.273 l 241.418 59.508 233.828 45.906 220.039 37.973 
c 203.75 28.602 181.047 28.641 164.824 38.07 c 152.738 45.094 146.113 56.203
 146.172 69.352 c 146.18 71.148 146.199 72.996 146.215 74.805 c 146.246 
77.941 146.277 80.902 146.246 83.188 c 146.238 83.543 146.273 83.891 146.34
 84.227 c 146.238 84.652 146.172 85.086 146.188 85.543 c 146.211 86.434 
146.227 87.184 146.234 87.812 c 144.391 88.516 142.703 89.625 141.289 91.094
 c 138.695 93.781 137.34 97.32 137.473 101.059 c 137.621 105.25 139.973 
109.277 143.758 111.832 c 145.738 113.168 147.797 113.938 149.926 114.145
 c 153.703 126.766 162.098 137.434 173.246 144.129 c 173.246 146.062 l 147.09
 157.949 l 134.781 163.543 126.57 175.625 125.629 189.191 c 94.719 189.191
 l 91.891 189.191 89.602 191.484 89.602 194.312 c 89.602 219.914 l 89.602
 222.742 91.891 225.031 94.719 225.031 c 104.961 225.031 l 104.961 347.914
 l 104.961 350.742 107.254 353.031 110.078 353.031 c 273.922 353.031 l 276.746
 353.031 279.039 350.742 279.039 347.914 c 279.039 225.031 l 289.281 225.031
 l 292.109 225.031 294.398 222.742 294.398 219.914 c 294.398 194.312 l 294.398
 191.484 292.109 189.191 289.281 189.191 c h
273.922 189.191 m 258.367 189.191 l 257.832 181.453 254.914 174.215 250.234
 168.371 c 251.27 168.59 252.34 168.711 253.441 168.711 c 257 168.711 260.273
 167.484 262.883 165.441 c 269.703 169.703 273.922 177.254 273.922 185.32
 c h
253.441 148.23 m 256.266 148.23 258.559 150.527 258.559 153.352 c 258.559
 156.176 256.266 158.473 253.441 158.473 c 250.617 158.473 248.32 156.176
 248.32 153.352 c 248.32 150.527 250.617 148.23 253.441 148.23 c h
169.969 46.922 m 182.973 39.363 201.879 39.336 214.934 46.844 c 222.344
 51.109 231.18 59.68 231.18 76.27 c 231.18 80.848 l 221.516 87.68 210.699
 90.207 200.492 87.965 c 191.332 85.957 183.746 80.27 179.68 72.371 c 178.93
 70.914 177.531 69.906 175.914 69.656 c 175.652 69.613 175.391 69.594 175.129
 69.594 c 173.777 69.594 172.469 70.129 171.5 71.102 c 167.777 74.84 162.469
 77.227 156.488 77.934 c 156.48 76.887 156.469 75.801 156.457 74.695 c 156.438
 72.91 156.422 71.078 156.414 69.305 c 156.359 57.348 163.758 50.531 169.969
 46.922 c h
158.824 107.574 m 158.531 106.137 157.633 104.895 156.363 104.164 c 155.094
 103.434 153.566 103.281 152.176 103.75 c 151.211 104.07 150.598 104.09 
149.488 103.344 c 148.438 102.633 147.738 101.594 147.707 100.691 c 147.672
 99.754 148.012 98.871 148.656 98.203 c 149.305 97.531 150.172 97.164 151.105
 97.164 c 152.488 97.164 153.852 96.586 154.812 95.594 c 156.281 94.082 
156.547 92.461 156.488 88.203 c 162.922 87.625 168.898 85.613 173.848 82.336
 c 179.633 90.191 188.266 95.77 198.297 97.969 c 201.473 98.668 204.684 
99.012 207.898 99.012 c 215.801 99.012 223.723 96.918 231.191 92.871 c 231.43
 93.984 231.848 94.84 232.621 95.621 c 233.582 96.598 234.93 97.164 236.301
 97.164 c 237.633 97.164 238.469 97.887 238.848 98.312 c 239.227 98.742 
239.836 99.664 239.672 101.02 c 239.566 101.867 238.875 102.809 237.902 
103.414 c 236.797 104.102 236.094 104.059 235.184 103.738 c 233.805 103.25
 232.27 103.379 230.988 104.094 c 229.703 104.809 228.789 106.043 228.477
 107.477 c 225.285 122.121 214.461 134.082 200.23 138.695 c 198.719 139.184
 l 194.887 140.43 190.816 140.48 187.262 139.336 c 172.781 134.676 161.883
 122.504 158.824 107.574 c h
200.438 149.332 m 199.914 153.527 196.332 156.785 192 156.785 c 187.508
 156.785 183.828 153.281 183.52 148.867 c 183.723 148.938 183.922 149.016
 184.125 149.082 c 186.879 149.969 189.742 150.41 192.641 150.41 c 195.23
 150.41 197.848 150.035 200.438 149.332 c h
151.332 167.27 m 175.148 156.445 l 178.195 162.695 184.594 167.023 192 
167.023 c 199.41 167.023 205.809 162.695 208.852 156.445 c 232.672 167.27
 l 241.336 171.207 247.172 179.637 248.086 189.191 c 135.922 189.191 l 136.828
 179.637 142.668 171.207 151.332 167.27 c h
268.801 342.793 m 115.199 342.793 l 115.199 225.031 l 268.801 225.031 l
 h
284.16 214.793 m 99.84 214.793 l 99.84 199.434 l 284.16 199.434 l h
284.16 214.793 m f
Q Q
showpage
%%Trailer
end
%%EOF
