%!PS-Adobe-3.0 EPSF-3.0
%%Creator: cairo 1.16.0 (https://cairographics.org)
%%CreationDate: Thu Sep 19 06:52:32 2019
%%Pages: 1
%%DocumentData: Clean7Bit
%%LanguageLevel: 2
%%BoundingBox: 84 32 300 352
%%EndComments
%%BeginProlog
50 dict begin
/q { gsave } bind def
/Q { grestore } bind def
/cm { 6 array astore concat } bind def
/w { setlinewidth } bind def
/J { setlinecap } bind def
/j { setlinejoin } bind def
/M { setmiterlimit } bind def
/d { setdash } bind def
/m { moveto } bind def
/l { lineto } bind def
/c { curveto } bind def
/h { closepath } bind def
/re { exch dup neg 3 1 roll 5 3 roll moveto 0 rlineto
      0 exch rlineto 0 rlineto closepath } bind def
/S { stroke } bind def
/f { fill } bind def
/f* { eofill } bind def
/n { newpath } bind def
/W { clip } bind def
/W* { eoclip } bind def
/BT { } bind def
/ET { } bind def
/BDC { mark 3 1 roll /BDC pdfmark } bind def
/EMC { mark /EMC pdfmark } bind def
/cairo_store_point { /cairo_point_y exch def /cairo_point_x exch def } def
/Tj { show currentpoint cairo_store_point } bind def
/TJ {
  {
    dup
    type /stringtype eq
    { show } { -0.001 mul 0 cairo_font_matrix dtransform rmoveto } ifelse
  } forall
  currentpoint cairo_store_point
} bind def
/cairo_selectfont { cairo_font_matrix aload pop pop pop 0 0 6 array astore
    cairo_font exch selectfont cairo_point_x cairo_point_y moveto } bind def
/Tf { pop /cairo_font exch def /cairo_font_matrix where
      { pop cairo_selectfont } if } bind def
/Td { matrix translate cairo_font_matrix matrix concatmatrix dup
      /cairo_font_matrix exch def dup 4 get exch 5 get cairo_store_point
      /cairo_font where { pop cairo_selectfont } if } bind def
/Tm { 2 copy 8 2 roll 6 array astore /cairo_font_matrix exch def
      cairo_store_point /cairo_font where { pop cairo_selectfont } if } bind def
/g { setgray } bind def
/rg { setrgbcolor } bind def
/d1 { setcachedevice } bind def
/cairo_data_source {
  CairoDataIndex CairoData length lt
    { CairoData CairoDataIndex get /CairoDataIndex CairoDataIndex 1 add def }
    { () } ifelse
} def
/cairo_flush_ascii85_file { cairo_ascii85_file status { cairo_ascii85_file flushfile } if } def
/cairo_image { image cairo_flush_ascii85_file } def
/cairo_imagemask { imagemask cairo_flush_ascii85_file } def
%%EndProlog
%%BeginSetup
%%EndSetup
%%Page: 1 1
%%BeginPageSetup
%%PageBoundingBox: 84 32 300 352
%%EndPageSetup
q 84 32 216 320 rectclip
1 0 0 -1 0 384 cm q
0 g
298.285 316.867 m 266.395 279.758 l 266.027 279.332 265.594 279 265.133
 278.727 c 265.145 278.707 l 239.762 263.477 l 239.762 263.477 239.758 263.477
 239.754 263.473 c 231.461 258.5 222.098 255.625 212.48 255.047 c 212.48
 246.289 l 225.902 238.602 236.082 225.98 240.609 211.012 c 243.117 210.926
 245.559 210.148 247.914 208.684 c 251.918 206.188 254.629 202.109 255.164
 197.77 c 255.695 193.434 254.355 189.086 251.484 185.84 c 249.703 183.828
 247.441 182.348 244.949 181.508 c 244.949 180.965 244.953 180.332 244.965
 179.598 c 245.004 176.93 244.43 174.238 243.305 171.82 c 243.203 171.871
 l 243.203 167.281 l 243.203 161.012 242.32 155.121 240.582 149.695 c 242.008
 148.891 243.027 147.438 243.184 145.699 c 244.57 130.195 l 257.309 76.117
 l 257.777 74.129 257.02 72.051 255.379 70.836 c 205.301 33.613 l 205.289
 33.625 l 204.438 32.992 203.391 32.602 202.246 32.602 c 176.645 32.602 
l 175.617 32.602 174.664 32.914 173.863 33.434 c 173.859 33.426 l 125.258
 64.965 l 123.543 66.074 122.652 68.102 122.996 70.117 c 133.188 130.035
 l 133.262 130.023 l 133.262 130.297 133.281 130.57 133.324 130.844 c 135.75
 146.051 l 135.906 147.027 136.34 147.895 136.953 148.602 c 136.102 151.969
 135.672 155.492 135.684 159.133 c 135.695 161.23 135.715 163.391 135.734
 165.504 c 135.766 168.559 135.793 171.469 135.781 173.918 c 135.559 173.852
 l 135.133 175.25 134.941 176.699 134.98 178.164 c 135.02 179.539 135.039
 180.637 135.047 181.5 c 132.766 182.262 130.688 183.566 128.961 185.352
 c 126.082 188.336 124.578 192.266 124.723 196.418 c 124.891 201.066 127.508
 205.539 131.723 208.383 c 134.105 209.988 136.594 210.859 139.168 210.992
 c 143.461 225.895 153.293 238.504 166.402 246.371 c 166.402 255.324 l 166.402
 255.406 166.414 255.488 166.418 255.57 c 158.613 256.723 151 259.422 144.242
 263.477 c 138.965 266.645 l 138.93 266.668 138.902 266.691 138.867 266.711
 c 138.844 266.727 138.82 266.734 138.801 266.75 c 114.551 282.59 l 114.562
 282.609 l 114.141 282.887 113.746 283.203 113.414 283.598 c 85.668 316.934
 l 84.898 317.848 84.48 319.012 84.48 320.207 c 84.48 334.684 l 84.48 337.512
 86.773 339.805 89.602 339.805 c 172.328 339.805 l 172.328 339.801 l 184.695
 350.195 l 185.645 350.996 186.816 351.398 187.988 351.398 c 189.168 351.398
 190.344 350.992 191.301 350.184 c 203.543 339.805 l 294.398 339.805 l 297.227
 339.805 299.52 337.512 299.52 334.684 c 299.52 320.207 l 299.52 318.98 
299.082 317.797 298.285 316.867 c h
232.961 167.281 m 232.961 173.172 l 221.746 181.461 209.141 184.594 197.234
 181.992 c 186.426 179.633 177.469 172.77 172.652 163.156 c 171.91 161.672
 170.496 160.641 168.855 160.387 c 167.211 160.137 165.551 160.695 164.398
 161.887 c 159.859 166.574 153.328 169.5 146.012 170.227 c 146 168.688 145.984
 167.062 145.969 165.398 c 145.949 163.309 145.93 161.164 145.922 159.086
 c 145.906 156.039 146.293 153.117 147.062 150.363 c 229.941 150.363 l 231.941
 155.414 232.961 161.094 232.961 167.281 c h
236.043 121.711 m 207.359 106.336 l 207.359 47.906 l 246.566 77.043 l h
181.762 109.402 m 181.762 42.844 l 197.121 42.844 l 197.121 109.402 l 197.121
 111.289 198.156 113.023 199.82 113.914 c 234.098 132.289 l 233.398 140.121
 l 145.168 140.121 l 144.004 132.82 l 179.07 113.91 l 180.727 113.016 181.762
 111.285 181.762 109.402 c h
171.52 47.148 m 171.52 106.348 l 142.227 122.145 l 133.652 71.723 l h
148.055 204.305 m 147.762 202.867 146.863 201.625 145.594 200.891 c 144.32
 200.16 142.797 200.012 141.406 200.48 c 140.07 200.93 139.043 200.969 137.449
 199.891 c 135.957 198.887 135.004 197.414 134.953 196.051 c 134.906 194.703
 135.395 193.43 136.328 192.461 c 137.258 191.492 138.516 190.961 139.859
 190.961 c 141.242 190.961 142.609 190.379 143.574 189.387 c 145.102 187.816
 145.379 186.199 145.277 180.527 c 153.285 180.035 160.754 177.523 166.773
 173.27 c 173.344 182.75 183.359 189.445 195.051 191.996 c 198.531 192.758
 202.047 193.133 205.566 193.133 c 215.508 193.133 225.48 190.133 234.738
 184.34 c 234.859 186.914 235.27 188.227 236.441 189.414 c 237.406 190.391
 238.758 190.961 240.129 190.961 c 241.535 190.961 242.875 191.566 243.809
 192.621 c 244.75 193.688 245.172 195.07 244.996 196.516 c 244.84 197.797
 243.879 199.129 242.496 199.992 c 240.895 200.988 239.785 200.91 238.512
 200.461 c 237.125 199.973 235.598 200.102 234.316 200.816 c 233.035 201.531
 232.117 202.762 231.809 204.199 c 227.98 221.746 215.012 236.082 197.957
 241.609 c 196.176 242.188 l 191.488 243.707 186.5 243.77 182.137 242.367
 c 164.781 236.781 151.723 222.195 148.055 204.305 c h
179 252.113 m 182.148 253.129 185.426 253.633 188.742 253.633 c 192.262
 253.633 195.824 253.066 199.332 251.93 c 201.113 251.352 l 201.492 251.227
 201.863 251.078 202.238 250.949 c 202.238 255.324 l 202.238 262.383 196.496
 268.125 189.438 268.125 c 182.379 268.125 176.641 262.383 176.641 255.324
 c 176.641 251.273 l 177.422 251.559 178.203 251.855 179 252.113 c h
189.441 278.363 m 198.605 278.363 206.52 272.965 210.227 265.195 c 216.344
 265.363 222.367 266.641 227.988 268.977 c 187.957 303.453 l 150.379 271.746
 l 156.039 268.508 162.375 266.406 168.84 265.578 c 172.621 273.145 180.422
 278.363 189.441 278.363 c h
94.719 329.562 m 94.719 322.059 l 117.988 294.102 l 160.156 329.562 l h
187.973 339.578 m 125.918 287.391 l 141.203 277.402 l 184.688 314.094 l
 185.641 314.898 186.816 315.297 187.988 315.297 c 189.18 315.297 190.371
 314.887 191.328 314.059 c 237.664 274.16 l 253.75 283.812 l h
289.281 329.562 m 215.621 329.562 l 261.941 290.289 l 289.281 322.105 l
 h
289.281 329.562 m f
188.07 231.414 m 191.512 231.414 194.762 230.094 197.234 227.688 c 199.258
 225.715 199.301 222.473 197.328 220.449 c 195.355 218.422 192.113 218.379
 190.09 220.352 c 189.535 220.895 188.805 221.168 188.027 221.176 c 187.25
 221.164 186.527 220.855 185.984 220.297 c 184.012 218.273 180.773 218.227
 178.746 220.199 c 176.719 222.172 176.676 225.414 178.648 227.441 c 181.098
 229.957 184.379 231.367 187.891 231.414 c 187.949 231.414 188.008 231.414
 188.07 231.414 c h
188.07 231.414 m f
Q Q
showpage
%%Trailer
end
%%EOF
