%!PS-Adobe-3.0 EPSF-3.0
%%Creator: cairo 1.16.0 (https://cairographics.org)
%%CreationDate: Thu Sep 19 06:52:32 2019
%%Pages: 1
%%DocumentData: Clean7Bit
%%LanguageLevel: 2
%%BoundingBox: 35 64 349 320
%%EndComments
%%BeginProlog
50 dict begin
/q { gsave } bind def
/Q { grestore } bind def
/cm { 6 array astore concat } bind def
/w { setlinewidth } bind def
/J { setlinecap } bind def
/j { setlinejoin } bind def
/M { setmiterlimit } bind def
/d { setdash } bind def
/m { moveto } bind def
/l { lineto } bind def
/c { curveto } bind def
/h { closepath } bind def
/re { exch dup neg 3 1 roll 5 3 roll moveto 0 rlineto
      0 exch rlineto 0 rlineto closepath } bind def
/S { stroke } bind def
/f { fill } bind def
/f* { eofill } bind def
/n { newpath } bind def
/W { clip } bind def
/W* { eoclip } bind def
/BT { } bind def
/ET { } bind def
/BDC { mark 3 1 roll /BDC pdfmark } bind def
/EMC { mark /EMC pdfmark } bind def
/cairo_store_point { /cairo_point_y exch def /cairo_point_x exch def } def
/Tj { show currentpoint cairo_store_point } bind def
/TJ {
  {
    dup
    type /stringtype eq
    { show } { -0.001 mul 0 cairo_font_matrix dtransform rmoveto } ifelse
  } forall
  currentpoint cairo_store_point
} bind def
/cairo_selectfont { cairo_font_matrix aload pop pop pop 0 0 6 array astore
    cairo_font exch selectfont cairo_point_x cairo_point_y moveto } bind def
/Tf { pop /cairo_font exch def /cairo_font_matrix where
      { pop cairo_selectfont } if } bind def
/Td { matrix translate cairo_font_matrix matrix concatmatrix dup
      /cairo_font_matrix exch def dup 4 get exch 5 get cairo_store_point
      /cairo_font where { pop cairo_selectfont } if } bind def
/Tm { 2 copy 8 2 roll 6 array astore /cairo_font_matrix exch def
      cairo_store_point /cairo_font where { pop cairo_selectfont } if } bind def
/g { setgray } bind def
/rg { setrgbcolor } bind def
/d1 { setcachedevice } bind def
/cairo_data_source {
  CairoDataIndex CairoData length lt
    { CairoData CairoDataIndex get /CairoDataIndex CairoDataIndex 1 add def }
    { () } ifelse
} def
/cairo_flush_ascii85_file { cairo_ascii85_file status { cairo_ascii85_file flushfile } if } def
/cairo_image { image cairo_flush_ascii85_file } def
/cairo_imagemask { imagemask cairo_flush_ascii85_file } def
%%EndProlog
%%BeginSetup
%%EndSetup
%%Page: 1 1
%%BeginPageSetup
%%PageBoundingBox: 35 64 349 320
%%EndPageSetup
q 35 64 314 256 rectclip
1 0 0 -1 0 384 cm q
0 g
256 135.68 m 223.25 135.68 192.684 153.297 176.23 181.652 c 176.164 181.77
 176.125 181.895 176.066 182.012 c 161.801 183.184 148.746 188.691 138.238
 197.234 c 138.238 171.52 l 148.48 171.52 l 151.309 171.52 153.602 169.227
 153.602 166.398 c 153.602 163.574 151.309 161.281 148.48 161.281 c 138.238
 161.281 l 138.238 151.039 l 138.238 148.211 135.949 145.922 133.121 145.922
 c 130.293 145.922 128 148.211 128 151.039 c 128 161.281 l 117.762 161.281
 l 114.934 161.281 112.641 163.574 112.641 166.398 c 112.641 169.227 114.934
 171.52 117.762 171.52 c 128 171.52 l 128 207.359 l 128 207.402 128.012 
207.441 128.012 207.488 c 123.078 213.59 119.164 220.543 116.516 228.094
 c 109.859 228.57 103.422 229.777 97.281 231.652 c 97.281 125.441 l 117.762
 125.441 l 120.586 125.441 122.879 123.148 122.879 120.32 c 122.879 117.492
 120.586 115.199 117.762 115.199 c 97.281 115.199 l 97.281 89.602 l 97.281
 86.773 94.988 84.48 92.16 84.48 c 89.332 84.48 87.039 86.773 87.039 89.602
 c 87.039 115.199 l 66.559 115.199 l 63.734 115.199 61.441 117.492 61.441
 120.32 c 61.441 123.148 63.734 125.441 66.559 125.441 c 87.039 125.441 
l 87.039 235.484 l 77.434 239.805 68.785 245.809 61.441 253.121 c 61.441
 197.121 l 71.68 197.121 l 74.508 197.121 76.801 194.828 76.801 192 c 76.801
 189.172 74.508 186.879 71.68 186.879 c 61.441 186.879 l 61.441 176.641 
l 61.441 173.812 59.148 171.52 56.32 171.52 c 53.492 171.52 51.199 173.812
 51.199 176.641 c 51.199 186.879 l 40.961 186.879 l 38.133 186.879 35.84
 189.172 35.84 192 c 35.84 194.828 38.133 197.121 40.961 197.121 c 51.199
 197.121 l 51.199 265.379 l 41.508 279.434 35.84 296.484 35.84 314.879 c
 35.84 317.707 38.133 320 40.961 320 c 337.922 320 l 340.746 320 343.039
 317.707 343.039 314.879 c 343.039 301.652 340.145 288.945 334.441 277.113
 c 334.355 276.938 334.238 276.785 334.137 276.621 c 343.008 262.461 348.16
 245.746 348.16 227.84 c 348.16 177.023 306.816 135.68 256 135.68 c h
256 145.922 m 301.172 145.922 337.922 182.668 337.922 227.84 c 337.922 
273.012 301.172 309.762 256 309.762 c 245.535 309.762 235.449 307.812 225.902
 304.023 c 241.152 291.336 250.879 272.223 250.879 250.879 c 250.879 214.891
 223.227 185.254 188.059 182.059 c 203.211 159.637 228.754 145.922 256 145.922
 c h
181.762 192 m 214.227 192 240.641 218.414 240.641 250.879 c 240.641 283.348
 214.227 309.762 181.762 309.762 c 149.293 309.762 122.879 283.348 122.879
 250.879 c 122.879 218.414 149.293 192 181.762 192 c h
46.246 309.762 m 48.66 272.758 77.035 242.941 113.75 238.633 c 113.031 
242.613 112.641 246.699 112.641 250.879 c 112.641 275.746 125.844 297.582
 145.605 309.762 c h
332.637 309.762 m 298.141 309.762 l 309.383 303.953 319.293 295.918 327.254
 286.219 c 330.293 293.738 332.105 301.621 332.637 309.762 c h
332.637 309.762 m f
198.621 254.5 m 199.617 255.5 200.93 256 202.238 256 c 203.551 256 204.863
 255.5 205.859 254.5 c 207.859 252.5 207.859 249.258 205.859 247.262 c 182.82
 224.219 l 180.82 222.223 177.578 222.223 175.582 224.219 c 173.582 226.219
 173.582 229.461 175.582 231.461 c h
198.621 254.5 m f
188.184 285.016 m 189.195 286.145 190.598 286.719 192 286.719 c 193.215
 286.719 194.438 286.289 195.414 285.414 c 197.52 283.527 197.699 280.293
 195.812 278.188 c 152.293 229.547 l 150.406 227.438 147.168 227.262 145.066
 229.145 c 142.957 231.031 142.777 234.266 144.664 236.375 c h
188.184 285.016 m f
266.238 115.199 m 269.066 115.199 271.359 112.906 271.359 110.078 c 271.359
 69.121 l 271.359 66.293 269.066 64 266.238 64 c 263.414 64 261.121 66.293
 261.121 69.121 c 261.121 110.078 l 261.121 112.906 263.414 115.199 266.238
 115.199 c h
266.238 115.199 m f
294.121 119.461 m 294.992 120.043 295.977 120.32 296.953 120.32 c 298.609
 120.32 300.234 119.52 301.219 118.039 c 321.699 87.32 l 323.27 84.969 322.633
 81.789 320.281 80.219 c 317.93 78.652 314.75 79.285 313.18 81.641 c 292.699
 112.359 l 291.133 114.711 291.766 117.891 294.121 119.461 c h
294.121 119.461 m f
225.82 112.371 m 226.719 114.164 228.527 115.203 230.402 115.203 c 231.176
 115.203 231.957 115.027 232.691 114.66 c 235.219 113.395 236.242 110.32
 234.98 107.789 c 219.621 77.07 l 218.355 74.539 215.277 73.516 212.75 74.781
 c 210.223 76.043 209.195 79.121 210.461 81.648 c h
225.82 112.371 m f
190.465 123.391 m 191.469 124.734 193.008 125.441 194.562 125.441 c 195.633
 125.441 196.711 125.105 197.633 124.414 c 199.895 122.719 200.352 119.508
 198.656 117.246 c 183.297 96.766 l 181.602 94.504 178.391 94.051 176.125
 95.742 c 173.863 97.438 173.406 100.648 175.102 102.91 c h
190.465 123.391 m f
323.422 133.398 m 324.406 134.879 326.031 135.68 327.684 135.68 c 328.66
 135.68 329.648 135.402 330.52 134.82 c 345.879 124.578 l 348.234 123.012
 348.867 119.832 347.301 117.48 c 345.73 115.129 342.551 114.488 340.199
 116.059 c 324.84 126.301 l 322.488 127.867 321.852 131.047 323.422 133.398
 c h
323.422 133.398 m f
Q Q
showpage
%%Trailer
end
%%EOF
