%!PS-Adobe-3.0 EPSF-3.0
%%Creator: cairo 1.16.0 (https://cairographics.org)
%%CreationDate: Thu Sep 19 06:52:32 2019
%%Pages: 1
%%DocumentData: Clean7Bit
%%LanguageLevel: 2
%%BoundingBox: 34 44 350 340
%%EndComments
%%BeginProlog
50 dict begin
/q { gsave } bind def
/Q { grestore } bind def
/cm { 6 array astore concat } bind def
/w { setlinewidth } bind def
/J { setlinecap } bind def
/j { setlinejoin } bind def
/M { setmiterlimit } bind def
/d { setdash } bind def
/m { moveto } bind def
/l { lineto } bind def
/c { curveto } bind def
/h { closepath } bind def
/re { exch dup neg 3 1 roll 5 3 roll moveto 0 rlineto
      0 exch rlineto 0 rlineto closepath } bind def
/S { stroke } bind def
/f { fill } bind def
/f* { eofill } bind def
/n { newpath } bind def
/W { clip } bind def
/W* { eoclip } bind def
/BT { } bind def
/ET { } bind def
/BDC { mark 3 1 roll /BDC pdfmark } bind def
/EMC { mark /EMC pdfmark } bind def
/cairo_store_point { /cairo_point_y exch def /cairo_point_x exch def } def
/Tj { show currentpoint cairo_store_point } bind def
/TJ {
  {
    dup
    type /stringtype eq
    { show } { -0.001 mul 0 cairo_font_matrix dtransform rmoveto } ifelse
  } forall
  currentpoint cairo_store_point
} bind def
/cairo_selectfont { cairo_font_matrix aload pop pop pop 0 0 6 array astore
    cairo_font exch selectfont cairo_point_x cairo_point_y moveto } bind def
/Tf { pop /cairo_font exch def /cairo_font_matrix where
      { pop cairo_selectfont } if } bind def
/Td { matrix translate cairo_font_matrix matrix concatmatrix dup
      /cairo_font_matrix exch def dup 4 get exch 5 get cairo_store_point
      /cairo_font where { pop cairo_selectfont } if } bind def
/Tm { 2 copy 8 2 roll 6 array astore /cairo_font_matrix exch def
      cairo_store_point /cairo_font where { pop cairo_selectfont } if } bind def
/g { setgray } bind def
/rg { setrgbcolor } bind def
/d1 { setcachedevice } bind def
/cairo_data_source {
  CairoDataIndex CairoData length lt
    { CairoData CairoDataIndex get /CairoDataIndex CairoDataIndex 1 add def }
    { () } ifelse
} def
/cairo_flush_ascii85_file { cairo_ascii85_file status { cairo_ascii85_file flushfile } if } def
/cairo_image { image cairo_flush_ascii85_file } def
/cairo_imagemask { imagemask cairo_flush_ascii85_file } def
%%EndProlog
%%BeginSetup
%%EndSetup
%%Page: 1 1
%%BeginPageSetup
%%PageBoundingBox: 34 44 350 340
%%EndPageSetup
q 34 44 316 296 rectclip
1 0 0 -1 0 384 cm q
0 g
349.113 203.879 m 266.887 46.98 l 266.254 45.773 265.172 44.871 263.875
 44.469 c 262.578 44.062 261.176 44.191 259.973 44.82 c 239.945 55.316 l
 239.051 55.785 238.312 56.508 237.828 57.395 c 227.121 76.996 l 214.48 
70.973 l 213.133 70.332 211.574 70.305 210.207 70.914 c 158.383 93.82 l 
156.496 94.652 155.297 96.535 155.336 98.598 c 155.727 119.145 l 145.883
 108.805 l 144.305 107.152 141.824 106.742 139.801 107.805 c 90.922 133.418
 l 90.91 133.398 l 87.059 126.047 77.941 123.203 70.59 127.055 c 69.535 
127.605 l 68.219 121.324 66.215 115.32 64.734 112.5 c 62.734 108.684 59.367
 105.871 55.254 104.586 c 51.141 103.301 46.773 103.699 42.957 105.699 c
 39.141 107.695 36.328 111.062 35.043 115.18 c 33.762 119.289 34.152 123.66
 36.152 127.477 c 37.672 130.375 41.539 135.465 45.848 140.02 c 44.793 140.574
 l 37.438 144.426 34.594 153.543 38.445 160.895 c 118.449 313.547 l 121.137
 318.676 126.383 321.613 131.809 321.613 c 134.16 321.613 136.547 321.059
 138.77 319.895 c 138.965 319.793 l 140.133 324.355 141.602 328.68 142.875
 331.109 c 144.875 334.926 148.242 337.738 152.355 339.02 c 153.945 339.516
 155.57 339.762 157.184 339.762 c 159.758 339.762 162.312 339.141 164.656
 337.91 c 172.535 333.781 175.586 324.012 171.457 316.133 c 170.191 313.719
 167.453 310.039 164.367 306.48 c 164.57 306.375 l 168 304.574 170.438 301.621
 171.68 298.242 c 235.316 256.5 l 236.066 256.008 236.672 255.328 237.078
 254.527 c 250.305 228.344 l 280.93 227.758 l 282.867 227.723 284.617 226.594
 285.453 224.844 c 291.062 213.066 l 311.777 226.309 l 313.324 227.301 315.285
 227.387 316.914 226.531 c 346.957 210.785 l 348.16 210.156 349.062 209.074
 349.469 207.777 c 349.871 206.484 349.746 205.078 349.113 203.879 c h
45.223 122.727 m 44.492 121.332 44.348 119.734 44.816 118.23 c 45.285 116.73
 46.312 115.5 47.707 114.77 c 49.102 114.039 50.695 113.895 52.199 114.363
 c 53.703 114.832 54.934 115.859 55.664 117.254 c 56.82 119.461 59.004 126.266
 60.051 132.578 c 55.328 135.055 l 50.77 130.641 46.426 125.023 45.223 122.727
 c h
127.516 308.797 m 47.512 156.145 l 46.281 153.793 47.191 150.879 49.543
 149.645 c 75.344 136.125 l 76.055 135.75 76.816 135.574 77.57 135.574 c
 79.305 135.574 80.98 136.512 81.84 138.152 c 84.227 142.707 l 84.23 142.711
 84.23 142.711 84.23 142.711 c 161.844 290.809 l 162.148 291.387 162.316
 292 162.371 292.609 c 162.301 293.027 162.262 293.457 162.297 293.887 c
 162.043 295.297 161.184 296.59 159.816 297.305 c 134.016 310.828 l 131.664
 312.055 128.75 311.148 127.516 308.797 c h
162.387 320.887 m 163.895 323.766 162.781 327.336 159.902 328.844 c 158.508
 329.574 156.914 329.719 155.41 329.25 c 153.906 328.781 152.676 327.754
 151.945 326.359 c 151.062 324.676 149.477 320.078 148.316 314.895 c 155.023
 311.379 l 158.629 315.289 161.516 319.223 162.387 320.887 c h
314.789 216.086 m 291.691 201.316 l 290.453 200.523 288.938 200.301 287.527
 200.707 c 286.113 201.109 284.945 202.102 284.312 203.426 c 277.57 217.582
 l 247.031 218.168 l 245.133 218.203 243.414 219.285 242.559 220.977 c 228.555
 248.691 l 171.074 286.398 l 171.02 286.285 170.977 286.168 170.914 286.055
 c 95.676 142.488 l 141.129 118.668 l 157.391 135.738 l 158.848 137.266 
161.094 137.746 163.043 136.941 c 164.996 136.141 166.258 134.223 166.219
 132.109 c 165.637 101.809 l 212.195 81.23 l 227.09 88.324 l 229.543 89.492
 232.48 88.543 233.781 86.156 c 246.07 63.668 l 260.191 56.266 l 337.668
 204.094 l h
314.789 216.086 m f
120.816 263.539 m 119.504 261.031 116.406 260.066 113.906 261.379 c 111.398
 262.691 110.434 265.785 111.746 268.289 c 118.914 281.969 l 119.832 283.715
 121.613 284.715 123.453 284.715 c 124.258 284.715 125.07 284.523 125.828
 284.125 c 128.332 282.816 129.297 279.719 127.984 277.215 c h
120.816 263.539 m f
70.25 167.055 m 68.938 164.551 65.848 163.582 63.34 164.895 c 60.836 166.207
 59.871 169.301 61.18 171.805 c 101.18 248.121 l 102.094 249.867 103.875
 250.867 105.719 250.867 c 106.52 250.867 107.332 250.68 108.09 250.281 
c 110.598 248.969 111.562 245.875 110.25 243.371 c h
70.25 167.055 m f
172.793 151.609 m 171.48 149.105 168.387 148.137 165.879 149.453 c 132.496
 166.945 l 129.992 168.258 129.027 171.355 130.34 173.855 c 131.254 175.602
 133.035 176.602 134.879 176.602 c 135.676 176.602 136.492 176.414 137.25
 176.016 c 170.633 158.523 l 173.137 157.211 174.102 154.113 172.793 151.609
 c h
172.793 151.609 m f
140.836 193.887 m 141.75 195.633 143.531 196.633 145.375 196.633 c 146.176
 196.633 146.988 196.445 147.746 196.047 c 271.262 131.312 l 273.77 130 
274.734 126.906 273.422 124.402 c 272.109 121.898 269.016 120.934 266.508
 122.242 c 142.992 186.977 l 140.492 188.289 139.523 191.383 140.836 193.887
 c h
140.836 193.887 m f
153.082 217.254 m 154 219 155.777 220 157.621 220 c 158.422 220 159.234
 219.812 159.996 219.414 c 283.508 154.68 l 286.016 153.371 286.98 150.273
 285.668 147.77 c 284.355 145.266 281.262 144.301 278.754 145.613 c 155.242
 210.344 l 152.734 211.656 151.77 214.754 153.082 217.254 c h
153.082 217.254 m f
165.328 240.625 m 166.246 242.371 168.027 243.367 169.867 243.367 c 170.668
 243.367 171.484 243.18 172.242 242.781 c 295.758 178.051 l 298.262 176.738
 299.227 173.645 297.914 171.141 c 296.602 168.637 293.512 167.668 291.004
 168.98 c 167.488 233.711 l 164.984 235.023 164.016 238.117 165.328 240.625
 c h
165.328 240.625 m f
Q Q
showpage
%%Trailer
end
%%EOF
