%!PS-Adobe-3.0 EPSF-3.0
%%Creator: cairo 1.16.0 (https://cairographics.org)
%%CreationDate: Thu Sep 19 06:52:33 2019
%%Pages: 1
%%DocumentData: Clean7Bit
%%LanguageLevel: 2
%%BoundingBox: 36 33 348 351
%%EndComments
%%BeginProlog
50 dict begin
/q { gsave } bind def
/Q { grestore } bind def
/cm { 6 array astore concat } bind def
/w { setlinewidth } bind def
/J { setlinecap } bind def
/j { setlinejoin } bind def
/M { setmiterlimit } bind def
/d { setdash } bind def
/m { moveto } bind def
/l { lineto } bind def
/c { curveto } bind def
/h { closepath } bind def
/re { exch dup neg 3 1 roll 5 3 roll moveto 0 rlineto
      0 exch rlineto 0 rlineto closepath } bind def
/S { stroke } bind def
/f { fill } bind def
/f* { eofill } bind def
/n { newpath } bind def
/W { clip } bind def
/W* { eoclip } bind def
/BT { } bind def
/ET { } bind def
/BDC { mark 3 1 roll /BDC pdfmark } bind def
/EMC { mark /EMC pdfmark } bind def
/cairo_store_point { /cairo_point_y exch def /cairo_point_x exch def } def
/Tj { show currentpoint cairo_store_point } bind def
/TJ {
  {
    dup
    type /stringtype eq
    { show } { -0.001 mul 0 cairo_font_matrix dtransform rmoveto } ifelse
  } forall
  currentpoint cairo_store_point
} bind def
/cairo_selectfont { cairo_font_matrix aload pop pop pop 0 0 6 array astore
    cairo_font exch selectfont cairo_point_x cairo_point_y moveto } bind def
/Tf { pop /cairo_font exch def /cairo_font_matrix where
      { pop cairo_selectfont } if } bind def
/Td { matrix translate cairo_font_matrix matrix concatmatrix dup
      /cairo_font_matrix exch def dup 4 get exch 5 get cairo_store_point
      /cairo_font where { pop cairo_selectfont } if } bind def
/Tm { 2 copy 8 2 roll 6 array astore /cairo_font_matrix exch def
      cairo_store_point /cairo_font where { pop cairo_selectfont } if } bind def
/g { setgray } bind def
/rg { setrgbcolor } bind def
/d1 { setcachedevice } bind def
/cairo_data_source {
  CairoDataIndex CairoData length lt
    { CairoData CairoDataIndex get /CairoDataIndex CairoDataIndex 1 add def }
    { () } ifelse
} def
/cairo_flush_ascii85_file { cairo_ascii85_file status { cairo_ascii85_file flushfile } if } def
/cairo_image { image cairo_flush_ascii85_file } def
/cairo_imagemask { imagemask cairo_flush_ascii85_file } def
%%EndProlog
%%BeginSetup
%%EndSetup
%%Page: 1 1
%%BeginPageSetup
%%PageBoundingBox: 36 33 348 351
%%EndPageSetup
q 36 33 312 318 rectclip
1 0 0 -1 0 384 cm q
0 g
270.129 288.797 m 265.027 288.797 l 265.027 278.875 l 271.199 278.875 l
 281.914 278.875 290.629 270.156 290.629 259.445 c 290.629 258.395 l 290.629
 255.566 288.336 253.273 285.508 253.273 c 278.629 253.273 l 278.719 252.523
 278.773 251.766 278.773 250.992 c 278.773 241.926 272.531 234.289 264.113
 232.156 c 261.934 218.328 249.93 207.719 235.5 207.719 c 221.273 207.719
 209.41 218.027 206.984 231.566 c 206.953 231.566 206.918 231.566 206.883
 231.566 c 197.375 231.566 189.453 238.441 187.793 247.477 c 166.602 238.059
 l 183.367 228.809 196.031 213.148 201.434 194.551 c 204.551 194.613 207.602
 193.707 210.527 191.887 c 215.109 189.035 218.207 184.383 218.812 179.441
 c 219.426 174.496 217.895 169.535 214.613 165.828 c 212.41 163.336 209.555
 161.555 206.418 160.66 c 206.414 159.832 206.418 158.805 206.438 157.523
 c 206.449 156.668 206.395 155.812 206.301 154.965 c 206.609 154.297 206.789
 153.562 206.789 152.805 c 206.789 123.77 l 206.789 108.66 198.281 95.445
 182.832 86.555 c 159.129 72.906 124.168 72.539 101.508 85.695 c 89.461 
92.691 75.117 106.527 75.215 132.711 c 75.223 135.352 75.254 138.074 75.281
 140.723 c 75.324 145.121 75.363 149.273 75.32 152.496 c 75.316 152.738 
75.352 152.973 75.383 153.207 c 75.266 154.051 75.211 154.906 75.238 155.766
 c 75.297 157.898 75.316 159.477 75.316 160.645 c 72.422 161.469 69.785 
163.043 67.633 165.273 c 64.348 168.676 62.629 173.164 62.801 177.898 c 
62.984 183.184 65.98 188.281 70.809 191.543 c 73.793 193.555 76.84 194.559
 80.023 194.559 c 80.059 194.559 l 85.344 213.66 98.199 229.707 115.383 
239.082 c 75.781 256.688 l 75.715 256.715 75.652 256.75 75.586 256.781 c
 75.586 239.914 l 75.586 228.93 66.895 219.992 56.211 219.992 c 45.531 219.992
 36.836 228.93 36.836 239.914 c 36.836 249.77 l 36.836 252.598 39.129 254.891
 41.957 254.891 c 44.785 254.891 47.078 252.598 47.078 249.77 c 47.078 239.914
 l 47.078 234.574 51.176 230.234 56.211 230.234 c 61.25 230.234 65.348 234.578
 65.348 239.914 c 65.348 262.898 l 52.641 272.609 44.867 287.824 44.867 
304.258 c 44.867 345.434 l 44.867 348.262 47.16 350.555 49.988 350.555 c
 321.348 350.555 l 324.176 350.555 326.465 348.262 326.465 345.434 c 326.465
 345.141 l 326.469 314.074 301.195 288.797 270.129 288.797 c h
126.789 244.059 m 127.148 244.184 127.504 244.328 127.867 244.445 c 131.578
 245.637 135.441 246.234 139.352 246.234 c 143.508 246.234 147.715 245.562
 151.859 244.219 c 152.391 244.047 l 152.391 245.594 l 152.391 252.648 146.648
 258.391 139.59 258.391 c 132.531 258.391 126.789 252.648 126.789 245.594
 c h
139.586 268.633 m 146.742 268.633 153.145 265.355 157.375 260.223 c 157.668
 340.312 l 121.828 340.312 l 121.531 259.863 l 125.758 265.195 132.273 268.633
 139.586 268.633 c h
167.574 249.699 m 179.355 254.934 l 178.516 255.848 177.988 257.055 177.988
 258.395 c 177.988 259.445 l 177.988 270.156 186.703 278.875 197.418 278.875
 c 203.59 278.875 l 203.59 340.312 l 167.91 340.312 l h
191.492 263.512 m 191.668 263.512 191.832 263.48 192.004 263.461 c 193.844
 265.652 196.164 267.422 198.793 268.633 c 197.414 268.633 l 193.809 268.633
 190.68 266.543 189.18 263.512 c h
213.828 293.918 m 213.828 269.137 l 217.293 267.809 220.305 265.512 222.496
 262.496 c 229.367 266.039 237.516 266.668 244.969 263.984 c 247.582 266.898
 251.008 268.934 254.789 269.855 c 254.789 294.234 l 254.789 305.527 245.602
 314.715 234.309 314.715 c 223.016 314.715 213.828 305.527 213.828 294.234
 c h
279.438 263.512 m 277.934 266.543 274.809 268.633 271.199 268.633 c 267.438
 268.633 l 270.047 267.434 272.348 265.68 274.18 263.512 c h
206.883 241.805 m 207.871 241.805 208.891 242 209.996 242.402 c 211.598
 242.984 213.383 242.734 214.758 241.73 c 216.137 240.727 216.922 239.105
 216.863 237.402 c 216.852 237.113 216.82 236.832 216.777 236.496 c 216.879
 226.258 225.238 217.961 235.5 217.961 c 245.828 217.961 254.227 226.359
 254.227 236.688 c 254.227 239.516 256.52 241.809 259.348 241.809 c 264.414
 241.809 268.535 245.93 268.535 250.996 c 268.535 256.062 264.414 260.184
 259.348 260.184 c 255.965 260.184 252.867 258.285 251.262 255.223 c 250.625
 254.016 249.531 253.109 248.227 252.711 c 247.734 252.559 247.23 252.484
 246.727 252.484 c 245.891 252.484 245.055 252.691 244.301 253.098 c 237.375
 256.824 229.609 255.898 223.754 251.133 c 222.434 250.055 220.656 249.707
 219.023 250.211 c 217.391 250.711 216.113 251.992 215.621 253.625 c 214.438
 257.547 210.926 260.184 206.887 260.184 c 201.82 260.184 197.699 256.062
 197.699 250.996 c 197.699 245.93 201.816 241.805 206.883 241.805 c h
106.652 94.547 m 126.391 83.086 156.945 83.465 177.723 95.43 c 186.309 
100.371 196.547 109.301 196.547 123.77 c 196.547 150.258 l 182.012 160.871
 165.602 164.84 150.086 161.43 c 136.375 158.422 125.012 149.895 118.906
 138.039 c 118.156 136.582 116.758 135.574 115.141 135.324 c 114.879 135.281
 114.613 135.262 114.355 135.262 c 113.004 135.262 111.695 135.797 110.727
 136.77 c 104.566 142.961 95.582 146.707 85.574 147.375 c 85.566 145.25 
85.543 142.973 85.52 140.621 c 85.492 137.992 85.465 135.293 85.457 132.676
 c 85.379 111.379 96.938 100.188 106.652 94.547 c h
88.941 187.723 m 88.645 186.285 87.75 185.043 86.477 184.312 c 85.207 183.582
 83.684 183.434 82.293 183.898 c 80.434 184.52 78.824 184.598 76.535 183.055
 c 74.445 181.645 73.102 179.531 73.031 177.535 c 72.961 175.602 73.66 173.773
 75 172.387 c 76.34 171 78.141 170.234 80.066 170.234 c 81.449 170.234 82.828
 169.648 83.793 168.656 c 85.383 167.02 85.695 165.414 85.523 157.625 c 
95.883 157.059 105.492 153.777 113.059 148.223 c 120.98 159.926 133.371 
168.25 147.887 171.438 c 152.262 172.398 156.688 172.871 161.117 172.871
 c 173.051 172.871 185.027 169.414 196.199 162.746 c 196.305 166.141 196.734
 167.434 197.969 168.688 c 198.93 169.664 200.293 170.234 201.664 170.234
 c 203.68 170.234 205.605 171.105 206.941 172.617 c 208.297 174.148 208.902
 176.129 208.648 178.195 c 208.414 180.094 207.094 181.965 205.113 183.199
 c 203.141 184.426 201.473 184.621 199.344 183.871 c 197.957 183.383 196.43
 183.512 195.148 184.227 c 193.863 184.941 192.949 186.172 192.637 187.609
 c 187.918 209.266 171.906 226.957 150.859 233.781 c 148.699 234.48 l 142.797
 236.395 136.512 236.473 131.004 234.699 c 109.586 227.801 93.469 209.801
 88.941 187.723 c h
79.941 266.043 m 111.266 252.121 l 111.59 340.312 l 96.066 340.312 l 96.066
 307.031 l 96.066 304.203 93.773 301.914 90.949 301.914 c 88.121 301.914
 85.828 304.203 85.828 307.031 c 85.828 340.312 l 75.586 340.312 l 75.586
 268.324 l 76.988 267.492 78.43 266.715 79.941 266.043 c h
55.109 304.258 m 55.109 293.996 58.879 284.324 65.348 276.859 c 65.348 
340.312 l 55.109 340.312 l h
213.828 340.312 m 213.828 317.105 l 219.266 321.98 226.445 324.953 234.309
 324.953 c 249.613 324.953 262.336 313.703 264.648 299.039 c 270.129 299.039
 l 293.918 299.039 313.559 317.152 315.977 340.312 c h
213.828 340.312 m f
229.172 294.234 m 229.188 294.234 l 229.188 299.355 l 229.188 302.18 231.48
 304.473 234.309 304.473 c 237.137 304.473 239.43 302.18 239.43 299.355 
c 239.43 294.266 l 240.254 294.27 l 240.27 294.27 l 243.09 294.27 245.383
 291.988 245.391 289.164 c 245.398 286.336 243.117 284.039 240.289 284.027
 c 234.477 284.012 l 234.418 284.008 234.367 283.992 234.309 283.992 c 234.258
 283.992 234.207 284.008 234.156 284.008 c 229.207 283.992 l 229.203 283.992
 229.195 283.992 229.191 283.992 c 226.371 283.992 224.078 286.273 224.07
 289.098 c 224.059 291.926 226.344 294.227 229.172 294.234 c h
229.172 294.234 m f
212.738 94.352 m 247.336 104.363 l 260.184 141.953 l 260.891 144.027 262.84
 145.418 265.027 145.418 c 267.219 145.418 269.168 144.027 269.875 141.953
 c 282.723 104.363 l 317.32 94.352 l 319.508 93.719 321.016 91.711 321.016
 89.434 c 321.016 87.152 319.508 85.148 317.32 84.512 c 282.723 74.5 l 269.875
 36.91 l 269.168 34.84 267.219 33.445 265.027 33.445 c 262.84 33.445 260.891
 34.84 260.184 36.91 c 247.336 74.5 l 212.738 84.512 l 210.547 85.148 209.043
 87.152 209.043 89.434 c 209.043 91.711 210.547 93.719 212.738 94.352 c 
h
252.738 83.598 m 254.344 83.133 255.621 81.918 256.16 80.336 c 265.027 
54.395 l 273.895 80.336 l 274.434 81.914 275.711 83.133 277.316 83.598 c
 297.477 89.434 l 277.316 95.27 l 275.711 95.734 274.434 96.949 273.895 
98.531 c 265.027 124.473 l 256.16 98.531 l 255.621 96.953 254.344 95.734
 252.738 95.27 c 232.578 89.434 l h
252.738 83.598 m f
343.465 166.434 m 323.43 160.637 l 315.953 138.762 l 315.246 136.691 313.297
 135.301 311.109 135.301 c 308.918 135.301 306.973 136.691 306.262 138.762
 c 298.785 160.637 l 278.75 166.434 l 276.562 167.066 275.055 169.074 275.055
 171.355 c 275.055 173.633 276.559 175.641 278.75 176.273 c 298.785 182.07
 l 306.262 203.945 l 306.973 206.016 308.918 207.406 311.109 207.406 c 313.297
 207.406 315.246 206.016 315.953 203.945 c 323.43 182.07 l 343.465 176.273
 l 345.656 175.641 347.164 173.633 347.164 171.355 c 347.164 169.074 345.656
 167.066 343.465 166.434 c h
318.023 172.973 m 316.418 173.438 315.141 174.656 314.602 176.238 c 311.109
 186.457 l 307.613 176.238 l 307.074 174.656 305.797 173.438 304.191 172.973
 c 298.59 171.352 l 304.191 169.73 l 305.797 169.266 307.074 168.047 307.613
 166.469 c 311.109 156.25 l 314.602 166.469 l 315.141 168.047 316.418 169.266
 318.023 169.73 c 323.625 171.352 l h
318.023 172.973 m f
147.84 218.637 m 149.867 216.664 149.91 213.422 147.938 211.398 c 145.965
 209.371 142.727 209.328 140.695 211.301 c 138.672 213.27 135.426 213.227
 133.457 211.207 c 131.48 209.18 128.242 209.137 126.215 211.109 c 124.188
 213.082 124.145 216.324 126.117 218.352 c 129.125 221.438 133.121 222.984
 137.125 222.984 c 140.992 222.984 144.859 221.539 147.84 218.637 c h
147.84 218.637 m f
Q Q
showpage
%%Trailer
end
%%EOF
