%!PS-Adobe-3.0 EPSF-3.0
%%Creator: cairo 1.16.0 (https://cairographics.org)
%%CreationDate: Thu Sep 19 06:52:33 2019
%%Pages: 1
%%DocumentData: Clean7Bit
%%LanguageLevel: 2
%%BoundingBox: 34 76 350 308
%%EndComments
%%BeginProlog
50 dict begin
/q { gsave } bind def
/Q { grestore } bind def
/cm { 6 array astore concat } bind def
/w { setlinewidth } bind def
/J { setlinecap } bind def
/j { setlinejoin } bind def
/M { setmiterlimit } bind def
/d { setdash } bind def
/m { moveto } bind def
/l { lineto } bind def
/c { curveto } bind def
/h { closepath } bind def
/re { exch dup neg 3 1 roll 5 3 roll moveto 0 rlineto
      0 exch rlineto 0 rlineto closepath } bind def
/S { stroke } bind def
/f { fill } bind def
/f* { eofill } bind def
/n { newpath } bind def
/W { clip } bind def
/W* { eoclip } bind def
/BT { } bind def
/ET { } bind def
/BDC { mark 3 1 roll /BDC pdfmark } bind def
/EMC { mark /EMC pdfmark } bind def
/cairo_store_point { /cairo_point_y exch def /cairo_point_x exch def } def
/Tj { show currentpoint cairo_store_point } bind def
/TJ {
  {
    dup
    type /stringtype eq
    { show } { -0.001 mul 0 cairo_font_matrix dtransform rmoveto } ifelse
  } forall
  currentpoint cairo_store_point
} bind def
/cairo_selectfont { cairo_font_matrix aload pop pop pop 0 0 6 array astore
    cairo_font exch selectfont cairo_point_x cairo_point_y moveto } bind def
/Tf { pop /cairo_font exch def /cairo_font_matrix where
      { pop cairo_selectfont } if } bind def
/Td { matrix translate cairo_font_matrix matrix concatmatrix dup
      /cairo_font_matrix exch def dup 4 get exch 5 get cairo_store_point
      /cairo_font where { pop cairo_selectfont } if } bind def
/Tm { 2 copy 8 2 roll 6 array astore /cairo_font_matrix exch def
      cairo_store_point /cairo_font where { pop cairo_selectfont } if } bind def
/g { setgray } bind def
/rg { setrgbcolor } bind def
/d1 { setcachedevice } bind def
/cairo_data_source {
  CairoDataIndex CairoData length lt
    { CairoData CairoDataIndex get /CairoDataIndex CairoDataIndex 1 add def }
    { () } ifelse
} def
/cairo_flush_ascii85_file { cairo_ascii85_file status { cairo_ascii85_file flushfile } if } def
/cairo_image { image cairo_flush_ascii85_file } def
/cairo_imagemask { imagemask cairo_flush_ascii85_file } def
%%EndProlog
%%BeginSetup
%%EndSetup
%%Page: 1 1
%%BeginPageSetup
%%PageBoundingBox: 34 76 350 308
%%EndPageSetup
q 34 76 316 232 rectclip
1 0 0 -1 0 384 cm q
0 g
349.656 153.004 m 349.363 152.207 342.488 133.895 327.582 128.523 c 334.25
 125.211 l 336.785 123.953 337.816 120.875 336.559 118.348 c 335.297 115.812
 332.227 114.781 329.691 116.039 c 320.395 120.66 l 322.582 117.328 324.305
 113.512 324.957 109.258 c 327.441 93.094 313.418 78.23 312.82 77.605 c 
311.219 75.934 308.695 75.547 306.66 76.66 c 305.902 77.074 288.059 87.039
 285.574 103.203 c 283.594 116.09 292.102 128.145 295.938 132.82 c 291.816
 134.867 l 289.184 136.176 286.688 137.68 284.332 139.344 c 284.902 133.816
 284.492 127.633 281.695 122 c 274.414 107.359 254.387 103.285 253.539 103.121
 c 251.266 102.68 248.973 103.812 247.957 105.898 c 247.578 106.672 238.734
 125.098 246.012 139.738 c 250.906 149.59 261.566 154.652 268.281 156.961
 c 266.453 160.152 264.922 163.543 263.723 167.109 c 263.578 167.547 263.449
 167.988 263.316 168.43 c 263.289 168.414 l 240.914 153.496 210.871 156.469
 191.852 175.484 c 187.371 179.965 l 185.32 182.02 182.977 183.789 180.449
 185.234 c 154.328 158.426 121.688 99.918 121.359 99.324 c 120.641 98.031
 119.398 97.109 117.949 96.801 c 116.504 96.496 114.992 96.828 113.809 97.715
 c 98.352 109.309 92.988 123.125 91.34 133.461 c 84.633 125.188 80.527 119.375
 80.41 119.207 c 79.398 117.762 77.707 116.93 75.949 117.031 c 74.188 117.121
 72.598 118.113 71.738 119.656 c 53.227 152.98 58.172 180.582 65.578 197.867
 c 68.926 205.68 73.031 212.094 76.715 216.949 c 57.73 212.059 42.801 198.527
 42.621 198.363 c 40.977 196.848 38.543 196.574 36.605 197.684 c 34.668 
198.797 33.672 201.035 34.148 203.219 c 39.66 228.496 52.668 250.395 72.812
 268.301 c 102.23 294.453 130.855 307.969 156.445 307.969 c 160.883 307.969
 165.23 307.562 169.469 306.746 c 192.984 302.219 212.859 284.938 226.938
 256.777 c 237.969 234.715 252.395 209.5 261.523 193.914 c 262.418 199.355
 264.129 204.691 266.656 209.77 c 267.551 211.57 269.359 212.613 271.242
 212.613 c 272.008 212.613 272.789 212.441 273.52 212.078 c 276.051 210.82
 277.086 207.742 275.824 205.215 c 270.398 194.301 269.547 181.926 273.43
 170.367 c 276.957 159.859 284.023 151.188 293.48 145.621 c 296.551 151.746
 303.418 162.684 314.68 166.207 c 317.375 167.051 320.105 167.398 322.781
 167.398 c 335.605 167.398 347.207 159.363 347.793 158.953 c 349.691 157.617
 350.453 155.18 349.656 153.004 c h
295.695 104.758 m 296.863 97.168 303.754 91.078 308.07 87.945 c 311.242
 92.246 316 100.16 314.84 107.703 c 313.672 115.301 306.77 121.391 302.453
 124.523 c 299.277 120.234 294.527 112.352 295.695 104.758 c h
255.184 135.18 m 251.766 128.305 253.891 119.359 255.609 114.309 c 260.684
 115.996 269.129 119.727 272.523 126.559 c 275.945 133.441 273.816 142.395
 272.094 147.441 c 267.027 145.77 258.605 142.062 255.184 135.18 c h
115.445 109.652 m 123.875 124.32 148.137 165.191 169.992 189.066 c 163.102
 190.336 156.016 189.422 149.988 186.395 c 132.172 177.445 114.219 159.836
 101.008 144.887 c 101.012 144.699 101.035 144.516 101.02 144.324 c 100.445
 136.539 101.727 122.293 115.445 109.652 c h
217.781 252.195 m 205 277.762 188.094 292.734 167.535 296.691 c 142.07 
301.598 111.664 289.137 79.617 260.648 c 65.047 247.695 54.547 232.496 48.285
 215.324 c 58.297 221.691 73.301 228.93 89.773 228.93 c 91.914 228.93 93.832
 227.598 94.574 225.586 c 95.316 223.578 94.73 221.32 93.102 219.922 c 92.996
 219.828 82.066 210.34 74.992 193.836 c 66.488 173.996 67.176 153.18 77.016
 131.867 c 88.184 146.559 116.336 180.949 145.391 195.547 c 155.172 200.461
 166.977 201.215 177.777 197.613 c 184.09 195.508 189.91 191.91 194.613 
187.207 c 199.094 182.727 l 214.672 167.152 239.281 164.715 257.613 176.934
 c 259.086 177.918 l 252.105 189.613 232.121 223.52 217.781 252.195 c h
317.738 156.434 m 310.406 154.141 305.418 146.418 302.969 141.68 c 307.699
 139.191 316.234 135.672 323.516 137.949 c 330.848 140.242 335.832 147.965
 338.285 152.703 c 333.555 155.195 325.02 158.707 317.738 156.434 c h
317.738 156.434 m f
228.715 181.777 m 226.09 181.777 223.961 183.906 223.961 186.531 c 223.961
 189.16 226.09 191.285 228.715 191.285 c 231.34 191.285 233.469 189.16 233.469
 186.531 c 233.469 183.906 231.34 181.777 228.715 181.777 c h
228.715 181.777 m f
Q Q
showpage
%%Trailer
end
%%EOF
