%!PS-Adobe-3.0 EPSF-3.0
%%Creator: cairo 1.16.0 (https://cairographics.org)
%%CreationDate: Thu Sep 19 06:52:33 2019
%%Pages: 1
%%DocumentData: Clean7Bit
%%LanguageLevel: 2
%%BoundingBox: 33 58 351 326
%%EndComments
%%BeginProlog
50 dict begin
/q { gsave } bind def
/Q { grestore } bind def
/cm { 6 array astore concat } bind def
/w { setlinewidth } bind def
/J { setlinecap } bind def
/j { setlinejoin } bind def
/M { setmiterlimit } bind def
/d { setdash } bind def
/m { moveto } bind def
/l { lineto } bind def
/c { curveto } bind def
/h { closepath } bind def
/re { exch dup neg 3 1 roll 5 3 roll moveto 0 rlineto
      0 exch rlineto 0 rlineto closepath } bind def
/S { stroke } bind def
/f { fill } bind def
/f* { eofill } bind def
/n { newpath } bind def
/W { clip } bind def
/W* { eoclip } bind def
/BT { } bind def
/ET { } bind def
/BDC { mark 3 1 roll /BDC pdfmark } bind def
/EMC { mark /EMC pdfmark } bind def
/cairo_store_point { /cairo_point_y exch def /cairo_point_x exch def } def
/Tj { show currentpoint cairo_store_point } bind def
/TJ {
  {
    dup
    type /stringtype eq
    { show } { -0.001 mul 0 cairo_font_matrix dtransform rmoveto } ifelse
  } forall
  currentpoint cairo_store_point
} bind def
/cairo_selectfont { cairo_font_matrix aload pop pop pop 0 0 6 array astore
    cairo_font exch selectfont cairo_point_x cairo_point_y moveto } bind def
/Tf { pop /cairo_font exch def /cairo_font_matrix where
      { pop cairo_selectfont } if } bind def
/Td { matrix translate cairo_font_matrix matrix concatmatrix dup
      /cairo_font_matrix exch def dup 4 get exch 5 get cairo_store_point
      /cairo_font where { pop cairo_selectfont } if } bind def
/Tm { 2 copy 8 2 roll 6 array astore /cairo_font_matrix exch def
      cairo_store_point /cairo_font where { pop cairo_selectfont } if } bind def
/g { setgray } bind def
/rg { setrgbcolor } bind def
/d1 { setcachedevice } bind def
/cairo_data_source {
  CairoDataIndex CairoData length lt
    { CairoData CairoDataIndex get /CairoDataIndex CairoDataIndex 1 add def }
    { () } ifelse
} def
/cairo_flush_ascii85_file { cairo_ascii85_file status { cairo_ascii85_file flushfile } if } def
/cairo_image { image cairo_flush_ascii85_file } def
/cairo_imagemask { imagemask cairo_flush_ascii85_file } def
%%EndProlog
%%BeginSetup
%%EndSetup
%%Page: 1 1
%%BeginPageSetup
%%PageBoundingBox: 33 58 351 326
%%EndPageSetup
q 33 58 318 268 rectclip
1 0 0 -1 0 384 cm q
0 g
174.637 165.32 m 176.414 166.109 178.324 166.512 180.312 166.512 c 194.758
 166.512 l 196.785 166.512 198.801 166.078 200.586 165.258 c 215.328 158.504
 224.652 148.852 228.301 136.566 c 234.422 115.973 221.98 95.926 221.445
 95.082 c 220.418 93.457 218.57 92.551 216.648 92.719 c 215.578 92.816 214.59
 93.246 213.797 93.918 c 211.352 76.625 196.848 64.145 187.758 59.25 c 186.539
 58.594 185.109 58.461 183.789 58.879 c 182.473 59.293 181.375 60.227 180.754
 61.461 c 180.707 61.551 175.883 71.031 153.742 106.453 c 146.703 117.715
 144.68 128.473 147.727 138.43 c 152.488 154.008 168.133 162.422 174.637
 165.32 c h
192.246 156.27 m 183.555 156.27 l 183.418 156.258 183.281 156.234 183.141
 156.23 c 181.332 156.188 179.68 155.27 178.73 153.777 c 175.062 148.039
 173.926 141.969 175.328 135.656 c 177.477 137.695 180.094 139.266 183.059
 139.266 c 184.516 139.266 185.902 138.645 186.875 137.559 c 187.844 136.473
 188.309 135.027 188.148 133.578 c 187.875 131.137 187.711 125.953 188.473
 120.711 c 190.859 125.82 194.777 130.969 201.203 134.18 c 202.453 134.809
 203.133 135.586 203.465 136.777 c 204.453 140.32 202.312 146.895 197.875
 153.938 c 197.094 155.188 194.5 156.27 192.316 156.27 c h
162.426 111.883 m 176.648 89.125 183.785 77 187.164 71.051 c 189.523 72.773
 192.547 75.277 195.402 78.504 c 202.879 86.957 205.457 96.094 203.066 105.656
 c 202.484 107.984 203.598 110.406 205.746 111.477 c 206.434 111.824 208.945
 112.852 212.234 111.602 c 213.801 111.008 215.246 110.02 216.59 108.621
 c 219.012 115.07 221.219 124.523 218.469 133.711 c 217.441 137.148 215.77
 140.332 213.477 143.258 c 214.082 140.109 214.148 136.961 213.324 134.023
 c 212.215 130.051 209.609 126.938 205.781 125.023 c 195.215 119.742 194.988
 104.762 194.988 104.629 c 194.988 102.559 193.742 100.691 191.828 99.898
 c 189.918 99.105 187.711 99.543 186.25 101.012 c 181.684 105.574 178.91
 112.602 178 121.898 c 177.062 120.703 175.621 119.973 174.066 119.945 c
 174.039 119.945 174.004 119.945 173.977 119.945 c 172.105 119.945 170.379
 120.965 169.48 122.613 c 164.414 131.898 163.746 140.125 165.07 146.945
 c 161.816 143.859 158.922 140.031 157.516 135.438 c 155.379 128.438 157.027
 120.516 162.426 111.883 c h
162.426 111.883 m f
286.496 162.473 m 287.852 163.078 289.301 163.383 290.812 163.383 c 299.781
 163.383 l 301.32 163.383 302.852 163.055 304.207 162.43 c 313.891 157.992
 320.035 151.59 322.465 143.406 c 326.512 129.785 318.34 116.617 317.992
 116.062 c 316.965 114.438 315.117 113.535 313.195 113.699 c 313.152 113.699
 313.109 113.707 313.066 113.711 c 310.562 103.477 301.926 96.145 296.355
 93.148 c 295.133 92.488 293.699 92.355 292.383 92.773 c 291.062 93.191 
289.965 94.125 289.348 95.363 c 289.32 95.418 286.477 101.039 272.672 123.129
 c 267.992 130.617 266.664 137.836 268.727 144.578 c 271.918 155.012 282.219
 160.57 286.496 162.473 c h
281.355 128.559 m 288.863 116.547 293.207 109.273 295.648 105.066 c 299.766
 108.492 305.156 114.797 303.055 123.191 c 302.477 125.52 303.586 127.941
 305.734 129.016 c 307.359 129.824 309.441 129.883 311.32 129.168 c 311.672
 129.035 312.016 128.875 312.352 128.695 c 313.328 132.141 313.879 136.414
 312.637 140.543 c 311.066 145.746 306.797 149.98 299.941 153.121 c 299.926
 153.125 299.871 153.145 299.781 153.145 c 290.812 153.145 l 290.742 153.145
 290.691 153.133 290.664 153.117 c 288.324 152.078 280.535 148.168 278.52
 141.582 c 277.363 137.801 278.316 133.418 281.355 128.559 c h
281.355 128.559 m f
71.457 160.48 m 72.812 161.086 74.262 161.391 75.77 161.391 c 84.738 161.391
 l 86.277 161.391 87.812 161.062 89.168 160.438 c 98.852 156 104.992 149.598
 107.426 141.414 c 111.473 127.797 103.301 114.625 102.949 114.07 c 101.922
 112.445 100.066 111.543 98.152 111.707 c 98.113 111.711 98.07 111.715 98.023
 111.719 c 95.523 101.484 86.883 94.152 81.316 91.156 c 80.094 90.496 78.66
 90.363 77.34 90.781 c 76.023 91.199 74.926 92.133 74.305 93.371 c 74.281
 93.426 71.438 99.051 57.633 121.137 c 52.949 128.629 51.625 135.844 53.688
 142.586 c 56.879 153.02 67.18 158.578 71.457 160.48 c h
66.316 126.562 m 73.824 114.551 78.168 107.281 80.605 103.07 c 84.723 106.5
 90.117 112.801 88.016 121.199 c 87.434 123.527 88.547 125.949 90.695 127.02
 c 92.32 127.832 94.402 127.887 96.281 127.176 c 96.633 127.043 96.977 126.883
 97.312 126.703 c 98.289 130.148 98.836 134.418 97.594 138.551 c 96.027 
143.754 91.758 147.984 84.902 151.129 c 84.887 151.133 84.828 151.148 84.742
 151.148 c 75.773 151.148 l 75.703 151.148 75.652 151.137 75.625 151.125
 c 73.285 150.086 65.496 146.176 63.48 139.59 c 62.32 135.809 63.277 131.426
 66.316 126.562 c h
66.316 126.562 m f
320 284.656 m 320 271.434 l 329.676 264.188 335.359 252.941 335.359 240.75
 c 335.359 221.668 l 335.324 221.668 l 335.34 221.203 335.359 220.738 335.359
 220.27 c 335.359 214.664 l 335.359 205.559 328.34 198.059 319.43 197.293
 c 317.273 188.453 309.289 181.871 299.793 181.871 c 282.836 181.871 l 269.449
 181.871 258.559 192.762 258.559 206.148 c 258.559 220.27 l 258.559 220.738
 258.578 221.203 258.598 221.668 c 258.559 221.668 l 258.559 240.75 l 258.559
 255.129 266.492 268.109 279.039 274.715 c 279.039 284.656 l 261.688 287.207
 248.32 302.188 248.32 320.238 c 248.32 323.066 250.613 325.359 253.441 
325.359 c 345.602 325.359 l 348.426 325.359 350.719 323.066 350.719 320.238
 c 350.719 302.188 337.355 287.207 320 284.656 c h
268.801 206.148 m 268.801 198.406 275.098 192.109 282.836 192.109 c 299.793
 192.109 l 305.289 192.109 309.762 196.582 309.762 202.074 c 309.762 202.352
 l 309.762 205.176 312.051 207.469 314.879 207.469 c 317.926 207.469 l 321.895
 207.469 325.121 210.695 325.121 214.664 c 325.121 220.27 l 325.121 235.797
 312.488 248.43 296.961 248.43 c 281.434 248.43 268.801 235.797 268.801 
220.27 c h
269.523 247.098 m 276.496 254.23 286.219 258.672 296.961 258.672 c 307.695
 258.672 317.406 254.238 324.383 247.113 c 322.73 254.262 318.332 260.535
 311.914 264.574 c 309.98 265.789 309.09 268.137 309.719 270.328 c 309.734
 270.375 309.746 270.418 309.762 270.461 c 309.762 284.27 l 289.281 284.27
 l 289.281 271.469 l 289.281 269.402 288.039 267.539 286.133 266.746 c 277.605
 263.191 271.527 255.824 269.523 247.098 c h
259.07 315.121 m 261.453 303.375 271.852 294.512 284.285 294.512 c 314.75
 294.512 l 327.184 294.512 337.586 303.375 339.969 315.121 c h
259.07 315.121 m f
212.48 284.656 m 212.48 271.434 l 222.152 264.188 227.84 252.941 227.84
 240.75 c 227.84 222.832 l 227.746 222.832 l 227.801 221.984 227.84 221.133
 227.84 220.27 c 227.84 214.664 l 227.84 205.559 220.82 198.059 211.91 197.293
 c 209.754 188.453 201.77 181.871 192.273 181.871 c 175.316 181.871 l 161.93
 181.871 151.039 192.762 151.039 206.148 c 151.039 240.75 l 151.039 255.129
 158.973 268.109 171.52 274.715 c 171.52 284.656 l 154.168 287.207 140.801
 302.188 140.801 320.238 c 140.801 323.066 143.094 325.359 145.922 325.359
 c 238.078 325.359 l 240.906 325.359 243.199 323.066 243.199 320.238 c 243.199
 302.188 229.836 287.207 212.48 284.656 c h
161.281 206.148 m 161.281 198.406 167.578 192.109 175.316 192.109 c 192.273
 192.109 l 197.77 192.109 202.238 196.582 202.238 202.074 c 202.238 202.352
 l 202.238 205.176 204.531 207.469 207.359 207.469 c 210.406 207.469 l 214.375
 207.469 217.602 210.695 217.602 214.664 c 217.602 220.27 l 217.602 235.797
 204.969 248.43 189.441 248.43 c 173.914 248.43 161.281 235.797 161.281 
220.27 c h
162 247.098 m 168.977 254.23 178.699 258.672 189.441 258.672 c 200.176 
258.672 209.887 254.238 216.863 247.113 c 215.211 254.262 210.812 260.535
 204.395 264.574 c 202.461 265.789 201.566 268.137 202.199 270.328 c 202.215
 270.375 202.227 270.418 202.238 270.461 c 202.238 284.27 l 181.762 284.27
 l 181.762 271.469 l 181.762 269.402 180.516 267.539 178.609 266.746 c 170.086
 263.191 164.008 255.824 162 247.098 c h
151.551 315.121 m 153.93 303.375 164.332 294.512 176.766 294.512 c 207.23
 294.512 l 219.664 294.512 230.066 303.375 232.449 315.121 c h
151.551 315.121 m f
104.961 284.656 m 104.961 271.434 l 114.633 264.188 120.32 252.941 120.32
 240.75 c 120.32 214.664 l 120.32 205.559 113.301 198.059 104.391 197.293
 c 102.234 188.453 94.25 181.871 84.754 181.871 c 67.797 181.871 l 54.41
 181.871 43.52 192.762 43.52 206.148 c 43.52 240.75 l 43.52 255.129 51.453
 268.109 64 274.715 c 64 284.656 l 46.648 287.207 33.281 302.188 33.281 
320.238 c 33.281 323.066 35.574 325.359 38.398 325.359 c 130.559 325.359
 l 133.387 325.359 135.68 323.066 135.68 320.238 c 135.68 302.188 122.312
 287.207 104.961 284.656 c h
53.762 206.148 m 53.762 198.406 60.055 192.109 67.797 192.109 c 84.754 
192.109 l 90.25 192.109 94.719 196.582 94.719 202.074 c 94.719 202.352 l
 94.719 205.176 97.012 207.469 99.84 207.469 c 102.887 207.469 l 106.852
 207.469 110.078 210.695 110.078 214.664 c 110.078 220.27 l 110.078 235.797
 97.449 248.43 81.922 248.43 c 66.391 248.43 53.762 235.797 53.762 220.27
 c h
54.48 247.098 m 61.457 254.23 71.18 258.672 81.922 258.672 c 92.652 258.672
 102.367 254.238 109.344 247.113 c 107.691 254.262 103.293 260.535 96.871
 264.574 c 94.941 265.789 94.047 268.137 94.68 270.328 c 94.691 270.375 
94.707 270.418 94.719 270.461 c 94.719 284.27 l 74.238 284.27 l 74.238 271.469
 l 74.238 269.402 72.996 267.539 71.09 266.746 c 62.566 263.191 56.488 255.824
 54.48 247.098 c h
44.031 315.121 m 46.41 303.375 56.812 294.512 69.246 294.512 c 99.711 294.512
 l 112.145 294.512 122.547 303.375 124.93 315.121 c h
44.031 315.121 m f
Q Q
showpage
%%Trailer
end
%%EOF
