%!PS-Adobe-3.0 EPSF-3.0
%%Creator: cairo 1.16.0 (https://cairographics.org)
%%CreationDate: Thu Sep 19 06:52:33 2019
%%Pages: 1
%%DocumentData: Clean7Bit
%%LanguageLevel: 2
%%BoundingBox: 66 33 318 351
%%EndComments
%%BeginProlog
50 dict begin
/q { gsave } bind def
/Q { grestore } bind def
/cm { 6 array astore concat } bind def
/w { setlinewidth } bind def
/J { setlinecap } bind def
/j { setlinejoin } bind def
/M { setmiterlimit } bind def
/d { setdash } bind def
/m { moveto } bind def
/l { lineto } bind def
/c { curveto } bind def
/h { closepath } bind def
/re { exch dup neg 3 1 roll 5 3 roll moveto 0 rlineto
      0 exch rlineto 0 rlineto closepath } bind def
/S { stroke } bind def
/f { fill } bind def
/f* { eofill } bind def
/n { newpath } bind def
/W { clip } bind def
/W* { eoclip } bind def
/BT { } bind def
/ET { } bind def
/BDC { mark 3 1 roll /BDC pdfmark } bind def
/EMC { mark /EMC pdfmark } bind def
/cairo_store_point { /cairo_point_y exch def /cairo_point_x exch def } def
/Tj { show currentpoint cairo_store_point } bind def
/TJ {
  {
    dup
    type /stringtype eq
    { show } { -0.001 mul 0 cairo_font_matrix dtransform rmoveto } ifelse
  } forall
  currentpoint cairo_store_point
} bind def
/cairo_selectfont { cairo_font_matrix aload pop pop pop 0 0 6 array astore
    cairo_font exch selectfont cairo_point_x cairo_point_y moveto } bind def
/Tf { pop /cairo_font exch def /cairo_font_matrix where
      { pop cairo_selectfont } if } bind def
/Td { matrix translate cairo_font_matrix matrix concatmatrix dup
      /cairo_font_matrix exch def dup 4 get exch 5 get cairo_store_point
      /cairo_font where { pop cairo_selectfont } if } bind def
/Tm { 2 copy 8 2 roll 6 array astore /cairo_font_matrix exch def
      cairo_store_point /cairo_font where { pop cairo_selectfont } if } bind def
/g { setgray } bind def
/rg { setrgbcolor } bind def
/d1 { setcachedevice } bind def
/cairo_data_source {
  CairoDataIndex CairoData length lt
    { CairoData CairoDataIndex get /CairoDataIndex CairoDataIndex 1 add def }
    { () } ifelse
} def
/cairo_flush_ascii85_file { cairo_ascii85_file status { cairo_ascii85_file flushfile } if } def
/cairo_image { image cairo_flush_ascii85_file } def
/cairo_imagemask { imagemask cairo_flush_ascii85_file } def
%%EndProlog
%%BeginSetup
%%EndSetup
%%Page: 1 1
%%BeginPageSetup
%%PageBoundingBox: 66 33 318 351
%%EndPageSetup
q 66 33 252 318 rectclip
1 0 0 -1 0 384 cm q
0 g
293.066 143.273 m 302.031 134.664 307.199 122.746 307.199 110.078 c 307.199
 84.672 286.527 64 261.121 64 c 253.988 64 247.043 65.625 240.734 68.746
 c 232.961 53.445 217.145 43.52 199.68 43.52 c 196.125 43.52 192.59 43.93
 189.133 44.742 c 180.719 37.328 170.031 33.281 158.719 33.281 c 133.312
 33.281 112.641 53.949 112.641 79.359 c 112.641 87.336 114.727 95.156 118.613
 102.035 c 88.434 109.711 66.559 137.18 66.559 168.961 c 66.559 207.07 97.566
 238.078 135.68 238.078 c 141.523 238.078 147.266 237.34 152.797 235.926
 c 150 240.367 148.48 245.504 148.48 250.879 c 148.48 266.406 161.113 279.039
 176.641 279.039 c 179.199 279.039 l 179.199 288.129 l 165.48 290.672 150.309
 292.953 142.516 294.027 c 137.602 294.504 133.391 297.988 131.984 302.809
 c 131.945 302.949 l 130.785 306.922 131.707 311.164 134.402 314.297 c 136.734
 317.004 140.082 318.523 143.594 318.523 c 144.137 318.523 144.688 318.484
 145.234 318.41 c 179.199 313.832 l 179.199 335.359 l 179.199 343.828 186.09
 350.719 194.559 350.719 c 203.031 350.719 209.922 343.828 209.922 335.359
 c 209.922 309.723 l 221.289 309.254 230.398 299.879 230.398 288.395 c 230.398
 276.914 221.289 267.547 209.922 267.078 c 209.922 252.906 l 210.43 252.961
 l 214.973 253.461 219.395 251.059 221.438 246.973 c 222.945 243.957 222.992
 240.477 221.562 237.426 c 220.133 234.371 217.43 232.18 214.148 231.406
 c 209.922 230.41 l 209.922 222.625 l 215.902 222.891 221.945 222.254 227.824
 220.656 c 237.562 231.773 251.371 238.078 266.238 238.078 c 294.473 238.078
 317.441 215.113 317.441 186.879 c 317.441 168.832 308.098 152.484 293.066
 143.273 c h
179.199 223.449 m 178.895 223.418 178.59 223.398 178.285 223.375 c 178.594
 223.133 178.895 222.875 179.199 222.625 c h
179.199 253.441 m 176.215 253.441 l 175.039 253.441 174.078 252.484 174.078
 251.305 c 174.078 250.477 174.527 249.953 174.789 249.715 c 175.055 249.477
 175.625 249.078 176.449 249.184 c 179.199 249.488 l h
194.559 340.48 m 191.734 340.48 189.441 338.184 189.441 335.359 c 189.441
 312.449 l 199.68 311.066 l 199.68 335.359 l 199.68 338.184 197.383 340.48
 194.559 340.48 c h
220.16 288.395 m 220.16 294.527 215.168 299.52 209.035 299.52 c 208.805
 299.52 208.578 299.535 208.352 299.566 c 143.867 308.266 l 142.98 308.375
 142.418 307.91 142.164 307.617 c 141.91 307.32 141.523 306.691 141.777 
305.812 c 141.777 305.812 141.84 305.598 141.844 305.594 c 142.066 304.824
 142.727 304.285 143.523 304.219 c 143.613 304.211 143.707 304.199 143.797
 304.188 c 145.914 303.898 195.789 296.996 209.059 291.336 c 211.66 290.227
 212.867 287.219 211.758 284.617 c 211.359 283.68 210.707 282.93 209.922
 282.398 c 209.922 277.316 l 215.641 277.77 220.16 282.559 220.16 288.395
 c h
199.68 283.684 m 196.816 284.477 193.316 285.297 189.441 286.113 c 189.441
 250.625 l 199.68 251.766 l h
212.289 241.77 m 212.387 241.977 212.383 242.184 212.277 242.391 c 212.145
 242.66 211.855 242.82 211.562 242.781 c 177.582 239.008 l 174.086 238.625
 170.582 239.738 167.961 242.086 c 165.344 244.43 163.84 247.789 163.84 
251.305 c 163.84 258.129 169.391 263.68 176.215 263.68 c 179.199 263.68 
l 179.199 268.801 l 176.641 268.801 l 166.758 268.801 158.719 260.762 158.719
 250.879 c 158.719 246.094 160.582 241.594 163.969 238.211 c 168.008 234.168
 174.438 232.582 180.75 234.066 c 211.805 241.375 l 212.027 241.426 212.191
 241.559 212.289 241.77 c h
199.68 221.738 m 199.68 228 l 189.441 225.594 l 189.441 217.961 l 192.77
 219.383 196.211 220.488 199.727 221.273 c 199.715 221.43 199.68 221.578
 199.68 221.738 c h
266.238 227.84 m 253.391 227.84 241.527 221.941 233.688 211.66 c 232.699
 210.363 231.18 209.641 229.613 209.641 c 229.066 209.641 228.516 209.727
 227.98 209.91 c 214.402 214.477 199.598 212.785 187.496 205.508 c 185.328
 204.207 182.539 204.68 180.926 206.621 c 169.688 220.105 153.195 227.84
 135.68 227.84 c 103.215 227.84 76.801 201.426 76.801 168.961 c 76.801 139.559
 98.781 114.492 127.93 110.652 c 129.781 110.41 131.352 109.176 132.031 
107.438 c 132.711 105.699 132.387 103.73 131.191 102.297 c 125.832 95.871
 122.879 87.727 122.879 79.359 c 122.879 59.598 138.957 43.52 158.719 43.52
 c 168.305 43.52 177.312 47.258 184.086 54.043 c 185.426 55.387 187.395 
55.879 189.207 55.324 c 192.605 54.285 196.129 53.762 199.68 53.762 c 214.859
 53.762 228.438 63.402 233.473 77.758 c 233.996 79.254 235.184 80.422 236.688
 80.926 c 238.195 81.426 239.844 81.199 241.16 80.312 c 247.07 76.34 253.973
 74.238 261.121 74.238 c 280.883 74.238 296.961 90.316 296.961 110.078 c
 296.961 122.129 290.945 133.305 280.867 139.973 c 279.285 141.02 278.414
 142.855 278.598 144.742 c 278.781 146.633 279.996 148.262 281.75 148.98
 c 297.211 155.316 307.199 170.195 307.199 186.879 c 307.199 209.465 288.824
 227.84 266.238 227.84 c h
266.238 227.84 m f
125.441 151.039 m 115.559 151.039 107.52 159.078 107.52 168.961 c 107.52
 178.84 115.559 186.879 125.441 186.879 c 135.32 186.879 143.359 178.84 
143.359 168.961 c 143.359 159.078 135.32 151.039 125.441 151.039 c h
125.441 176.641 m 121.203 176.641 117.762 173.195 117.762 168.961 c 117.762
 164.723 121.203 161.281 125.441 161.281 c 129.676 161.281 133.121 164.723
 133.121 168.961 c 133.121 173.195 129.676 176.641 125.441 176.641 c h
125.441 176.641 m f
179.199 92.16 m 179.199 82.277 171.16 74.238 161.281 74.238 c 151.398 74.238
 143.359 82.277 143.359 92.16 c 143.359 102.043 151.398 110.078 161.281 
110.078 c 171.16 110.078 179.199 102.043 179.199 92.16 c h
161.281 99.84 m 157.043 99.84 153.602 96.395 153.602 92.16 c 153.602 87.926
 157.043 84.48 161.281 84.48 c 165.516 84.48 168.961 87.926 168.961 92.16
 c 168.961 96.395 165.516 99.84 161.281 99.84 c h
161.281 99.84 m f
186.879 130.559 m 177 130.559 168.961 138.598 168.961 148.48 c 168.961 
158.363 177 166.398 186.879 166.398 c 196.762 166.398 204.801 158.363 204.801
 148.48 c 204.801 138.598 196.762 130.559 186.879 130.559 c h
186.879 156.16 m 182.645 156.16 179.199 152.715 179.199 148.48 c 179.199
 144.246 182.645 140.801 186.879 140.801 c 191.117 140.801 194.559 144.246
 194.559 148.48 c 194.559 152.715 191.117 156.16 186.879 156.16 c h
186.879 156.16 m f
263.68 89.602 m 253.797 89.602 245.762 97.637 245.762 107.52 c 245.762 
117.402 253.797 125.441 263.68 125.441 c 273.562 125.441 281.602 117.402
 281.602 107.52 c 281.602 97.637 273.562 89.602 263.68 89.602 c h
263.68 115.199 m 259.445 115.199 256 111.754 256 107.52 c 256 103.285 259.445
 99.84 263.68 99.84 c 267.914 99.84 271.359 103.285 271.359 107.52 c 271.359
 111.754 267.914 115.199 263.68 115.199 c h
263.68 115.199 m f
253.441 161.281 m 243.559 161.281 235.52 169.32 235.52 179.199 c 235.52
 189.082 243.559 197.121 253.441 197.121 c 263.32 197.121 271.359 189.082
 271.359 179.199 c 271.359 169.32 263.32 161.281 253.441 161.281 c h
253.441 186.879 m 249.203 186.879 245.762 183.434 245.762 179.199 c 245.762
 174.965 249.203 171.52 253.441 171.52 c 257.676 171.52 261.121 174.965 
261.121 179.199 c 261.121 183.434 257.676 186.879 253.441 186.879 c h
253.441 186.879 m f
Q Q
showpage
%%Trailer
end
%%EOF
