%!PS-Adobe-3.0 EPSF-3.0
%%Creator: cairo 1.16.0 (https://cairographics.org)
%%CreationDate: Thu Sep 19 06:52:33 2019
%%Pages: 1
%%DocumentData: Clean7Bit
%%LanguageLevel: 2
%%BoundingBox: 82 40 302 344
%%EndComments
%%BeginProlog
50 dict begin
/q { gsave } bind def
/Q { grestore } bind def
/cm { 6 array astore concat } bind def
/w { setlinewidth } bind def
/J { setlinecap } bind def
/j { setlinejoin } bind def
/M { setmiterlimit } bind def
/d { setdash } bind def
/m { moveto } bind def
/l { lineto } bind def
/c { curveto } bind def
/h { closepath } bind def
/re { exch dup neg 3 1 roll 5 3 roll moveto 0 rlineto
      0 exch rlineto 0 rlineto closepath } bind def
/S { stroke } bind def
/f { fill } bind def
/f* { eofill } bind def
/n { newpath } bind def
/W { clip } bind def
/W* { eoclip } bind def
/BT { } bind def
/ET { } bind def
/BDC { mark 3 1 roll /BDC pdfmark } bind def
/EMC { mark /EMC pdfmark } bind def
/cairo_store_point { /cairo_point_y exch def /cairo_point_x exch def } def
/Tj { show currentpoint cairo_store_point } bind def
/TJ {
  {
    dup
    type /stringtype eq
    { show } { -0.001 mul 0 cairo_font_matrix dtransform rmoveto } ifelse
  } forall
  currentpoint cairo_store_point
} bind def
/cairo_selectfont { cairo_font_matrix aload pop pop pop 0 0 6 array astore
    cairo_font exch selectfont cairo_point_x cairo_point_y moveto } bind def
/Tf { pop /cairo_font exch def /cairo_font_matrix where
      { pop cairo_selectfont } if } bind def
/Td { matrix translate cairo_font_matrix matrix concatmatrix dup
      /cairo_font_matrix exch def dup 4 get exch 5 get cairo_store_point
      /cairo_font where { pop cairo_selectfont } if } bind def
/Tm { 2 copy 8 2 roll 6 array astore /cairo_font_matrix exch def
      cairo_store_point /cairo_font where { pop cairo_selectfont } if } bind def
/g { setgray } bind def
/rg { setrgbcolor } bind def
/d1 { setcachedevice } bind def
/cairo_data_source {
  CairoDataIndex CairoData length lt
    { CairoData CairoDataIndex get /CairoDataIndex CairoDataIndex 1 add def }
    { () } ifelse
} def
/cairo_flush_ascii85_file { cairo_ascii85_file status { cairo_ascii85_file flushfile } if } def
/cairo_image { image cairo_flush_ascii85_file } def
/cairo_imagemask { imagemask cairo_flush_ascii85_file } def
%%EndProlog
%%BeginSetup
%%EndSetup
%%Page: 1 1
%%BeginPageSetup
%%PageBoundingBox: 82 40 302 344
%%EndPageSetup
q 82 40 220 304 rectclip
1 0 0 -1 0 384 cm q
0 g
154.027 149.434 m 154.027 97.441 l 156.738 97.309 158.898 95.09 158.898
 92.348 c 158.898 76.926 l 158.898 74.098 156.605 71.805 153.777 71.805 
c 148.66 71.805 l 148.66 61.441 l 148.66 50.148 139.473 40.961 128.18 40.961
 c 116.887 40.961 107.699 50.148 107.699 61.441 c 107.699 71.805 l 102.641
 71.805 l 99.812 71.805 97.523 74.098 97.523 76.926 c 97.523 92.344 l 97.523
 95.152 99.781 97.426 102.578 97.461 c 102.578 149.383 l 90.922 151.66 82.098
 161.953 82.098 174.266 c 82.098 337.922 l 82.098 340.746 84.391 343.039
 87.219 343.039 c 169.141 343.039 l 171.965 343.039 174.258 340.746 174.258
 337.922 c 174.258 174.266 l 174.258 162.039 165.559 151.809 154.027 149.434
 c h
108.996 87.227 m 108.598 87.125 108.188 87.055 107.762 87.047 c 107.762
 82.043 l 148.656 82.043 l 148.656 87.062 l 148.297 87.082 147.949 87.137
 147.609 87.227 c h
117.938 61.441 m 117.938 55.793 122.531 51.199 128.18 51.199 c 133.824 
51.199 138.418 55.793 138.418 61.441 c 138.418 71.805 l 117.938 71.805 l
 h
107.449 159.156 m 107.699 159.156 l 110.527 159.156 112.816 156.863 112.816
 154.035 c 112.816 97.469 l 143.785 97.469 l 143.785 154.035 l 143.785 156.863
 146.078 159.156 148.906 159.156 c 157.238 159.156 164.02 165.934 164.02
 174.266 c 164.02 194.559 l 92.34 194.559 l 92.34 174.266 l 92.34 165.934
 99.117 159.156 107.449 159.156 c h
164.02 204.801 m 164.02 271.359 l 92.34 271.359 l 92.34 204.801 l h
92.34 332.801 m 92.34 281.602 l 164.02 281.602 l 164.02 332.801 l h
92.34 332.801 m f
301.898 220.117 m 301.898 220.113 301.898 220.113 301.898 220.117 c 301.855
 215.188 301.254 210.391 300.105 205.859 c 287.816 157.461 l 287.242 155.191
 285.199 153.602 282.855 153.602 c 214.949 153.602 l 212.605 153.602 210.562
 155.191 209.984 157.461 c 197.699 205.859 l 196.551 210.387 195.949 215.184
 195.906 220.117 c 195.793 233.125 199.98 245.496 207.699 254.945 c 217.367
 266.789 231.172 273.895 245.938 274.738 c 245.938 327.68 l 225.457 327.68
 l 222.629 327.68 220.34 329.973 220.34 332.801 c 220.34 335.629 222.629
 337.922 225.457 337.922 c 276.656 337.922 l 279.484 337.922 281.777 335.629
 281.777 332.801 c 281.777 329.973 279.484 327.68 276.656 327.68 c 256.18
 327.68 l 256.18 274.289 l 269.297 272.434 281.387 265.625 290.105 254.945
 c 297.824 245.496 302.012 233.125 301.898 220.117 c h
207.629 208.379 m 218.93 163.84 l 278.875 163.84 l 290.18 208.379 l 290.723
 210.527 291.121 212.754 291.363 215.039 c 206.441 215.039 l 206.684 212.754
 207.082 210.527 207.629 208.379 c h
282.176 248.469 m 273.812 258.711 261.688 264.582 248.902 264.582 c 236.117
 264.582 223.992 258.707 215.633 248.469 c 210.422 242.09 207.211 233.996
 206.367 225.281 c 291.438 225.281 l 290.594 233.996 287.383 242.09 282.176
 248.469 c h
282.176 248.469 m f
134.832 245.762 m 134.832 249.434 131.852 252.414 128.18 252.414 c 124.504
 252.414 121.523 249.434 121.523 245.762 c 121.523 242.086 124.504 239.105
 128.18 239.105 c 131.852 239.105 134.832 242.086 134.832 245.762 c h
134.832 245.762 m f
120.496 239.68 m 124.207 239.68 127.215 236.672 127.215 232.961 c 127.215
 229.25 124.207 226.242 120.496 226.242 c 116.789 226.242 113.777 229.25
 113.777 232.961 c 113.777 236.672 116.789 239.68 120.496 239.68 c h
120.496 239.68 m f
142.578 232.961 m 142.578 236.672 139.57 239.68 135.859 239.68 c 132.148
 239.68 129.141 236.672 129.141 232.961 c 129.141 229.25 132.148 226.242
 135.859 226.242 c 139.57 226.242 142.578 229.25 142.578 232.961 c h
142.578 232.961 m f
Q Q
showpage
%%Trailer
end
%%EOF
